timestamp,fd_prob,aggregated_prob,target
2011-07-01 12:00:00,0.2822456359863281,0.10120755976333817,0
2011-07-02 00:00:00,0.2428611814975738,0.4721685930098629,0
2011-07-02 12:00:00,0.2163417935371399,0.24983714562414838,0
2011-07-03 00:00:00,0.2916769087314605,0.3608535541900738,0
2011-07-03 12:00:00,0.2882280647754669,0.4780903388838509,0
2011-07-04 00:00:00,0.4195804595947265,0.5961048709047507,0
2011-07-04 12:00:00,0.2705393731594085,0.16608650627921118,0
2011-07-05 00:00:00,0.2852977812290191,0.4404562734999725,0
2011-07-05 12:00:00,0.2248671501874923,0.32170423903585055,0
2011-07-06 00:00:00,0.197201520204544,0.4015414790264069,0
2011-07-06 12:00:00,0.2181611210107803,0.4670880496016965,0
2011-07-07 00:00:00,0.2032194435596466,0.40434448321833194,0
2011-07-07 12:00:00,0.2263155132532119,0.4693394824749013,0
2011-07-08 00:00:00,0.2178137153387069,0.43523407026302807,0
2011-07-08 12:00:00,0.2775757014751434,0.6771888790826301,0
2011-07-09 00:00:00,0.240111231803894,0.3778617766157021,0
2011-07-09 12:00:00,0.2339498549699783,0.18215847220668446,0
2011-07-10 00:00:00,0.194233626127243,0.16862007698385728,0
2011-07-10 12:00:00,0.2602446973323822,0.08911147966323385,0
2011-07-11 00:00:00,0.3901987671852112,0.5286891175704241,0
2011-07-11 12:00:00,0.4189716279506683,0.30431277701330794,0
2011-07-12 00:00:00,0.4216652512550354,0.24565285893513777,0
2011-07-12 12:00:00,0.3771369457244873,0.3109759457187925,0
2011-07-13 00:00:00,0.3491663932800293,0.1773128700150418,0
2011-07-13 12:00:00,0.3517139852046966,0.2002051021249065,0
2011-07-14 00:00:00,0.3537143170833587,0.6183209711437063,0
2011-07-14 12:00:00,0.4041585922241211,0.7634483527794804,0
2011-07-15 00:00:00,0.500069260597229,0.7761741715874677,0
2011-07-15 12:00:00,0.5013815760612488,0.7348367244407666,0
2011-07-16 00:00:00,0.4539776742458343,0.7478305567840263,0
2011-07-16 12:00:00,0.5000936388969421,0.7403693354601384,0
2011-07-17 00:00:00,0.4094268977642059,0.725127886746898,0
2011-07-17 12:00:00,0.5948879718780518,0.794597625912326,0
2011-07-18 00:00:00,0.6312813758850098,0.8877530169930128,0
2011-07-18 12:00:00,0.5558500289916992,0.8117028991703601,0
2011-07-19 00:00:00,0.5324699282646179,0.8152502635050972,0
2011-07-19 12:00:00,0.4029013216495514,0.6824654880974904,0
2011-07-20 00:00:00,0.3835251927375793,0.7062559526569852,0
2011-07-20 12:00:00,0.3500926494598388,0.7948793342675823,0
2011-07-21 12:00:00,0.2697173357009887,0.7539095318971886,0
2011-07-22 00:00:00,0.2640027403831482,0.7273519299986677,0
2011-07-22 12:00:00,0.2108937799930572,0.589135436907001,0
2011-07-23 00:00:00,0.2217318266630172,0.45619752531183044,0
2011-07-23 12:00:00,0.1798446774482727,0.4016879773792157,0
2011-07-24 00:00:00,0.1797749102115631,0.31876854199189575,0
2011-07-24 12:00:00,0.1742586195468902,0.25384529997698757,0
2011-07-25 00:00:00,0.1357165575027465,0.20835478279685804,0
2011-07-25 12:00:00,0.1480368226766586,0.052718557814486755,0
2011-07-26 00:00:00,0.1522656679153442,0.7324649764631421,0
2011-07-26 12:00:00,0.1973627507686615,0.7716651791907122,0
2011-07-27 00:00:00,0.2289195358753204,0.8345269397283417,1
2011-07-27 12:00:00,0.2589088082313537,0.7783873319731278,1
2011-07-28 00:00:00,0.2686849236488342,0.9564842336142841,0
2011-07-28 12:00:00,0.3280399441719055,0.9637409144638565,0
2011-07-29 12:00:00,0.3734244108200073,0.9485407927692504,1
2011-07-30 00:00:00,0.4237101376056671,0.9624236174022429,1
2011-07-30 12:00:00,0.5086061358451843,0.9812525471459831,0
2011-07-31 00:00:00,0.5242006182670593,0.9876928860519285,0
2011-07-31 12:00:00,0.5390381217002869,0.9873557250421131,0
2011-08-01 00:00:00,0.6086442470550537,0.9962997553261207,0
2011-08-01 12:00:00,0.6902412176132202,0.997287482336894,1
2011-08-02 00:00:00,0.6789090037345886,0.9979135427465412,1
2011-08-02 12:00:00,0.6526846885681152,0.9972986070212158,1
2011-08-03 00:00:00,0.7485672831535339,0.9979575999159512,1
2011-08-03 12:00:00,0.7135007381439209,0.9968192027591523,1
2011-08-04 00:00:00,0.7071361541748047,0.9980371427439181,1
2011-08-04 12:00:00,0.6687397956848145,0.9963046697446186,0
2011-08-05 00:00:00,0.5989265441894531,0.9850859337976672,0
2011-08-05 12:00:00,0.6184559464454651,0.984493808149803,0
2011-08-06 00:00:00,0.6065224409103394,0.9871891834772882,0
2011-08-06 12:00:00,0.6184473037719727,0.9799988275794586,0
2011-08-07 00:00:00,0.5699083209037781,0.9851260317881395,0
2011-08-07 12:00:00,0.5250359773635864,0.9659255495696167,0
2011-08-08 00:00:00,0.4528176486492157,0.9470114152222681,1
2011-08-08 12:00:00,0.4441158175468445,0.9479971543620462,1
2011-08-09 00:00:00,0.3132069110870361,0.9429611371446338,1
2011-08-09 12:00:00,0.3096267879009247,0.14317379168430566,0
2011-08-10 00:00:00,0.2192043215036392,0.12854305282265466,0
2011-08-10 12:00:00,0.211037740111351,0.10254739555894699,0
2011-08-11 00:00:00,0.1902671754360199,0.2607703341923161,0
2011-08-11 12:00:00,0.19048573076725,0.2562100711483791,0
2011-08-12 00:00:00,0.1960070729255676,0.12652055916991145,0
2011-08-12 12:00:00,0.1880700588226318,0.1066585862494348,0
2011-08-13 00:00:00,0.1742848604917526,0.15128854689727544,0
2011-08-13 12:00:00,0.1594797223806381,0.1887597905279942,0
2011-08-14 00:00:00,0.1390629410743713,0.10398321390994292,0
2011-08-14 12:00:00,0.1196632757782936,0.07640694647609125,0
2011-08-15 00:00:00,0.1217730790376663,0.07788993911114495,0
2011-08-15 12:00:00,0.1213357374072074,0.09457845963607603,0
2011-08-16 00:00:00,0.1933024823665619,0.09457845963607603,0
2011-08-16 12:00:00,0.2218334972858429,0.08553783829453199,0
2011-08-17 00:00:00,0.2999002337455749,0.07640694647609125,0
2011-08-17 12:00:00,0.3396486341953277,0.7708373341147803,0
2011-08-18 00:00:00,0.4272829294204712,0.822785966297628,0
2011-08-18 12:00:00,0.4492623507976532,0.8351761399727282,0
2011-08-19 00:00:00,0.3812101483345032,0.8725305870193466,0
2011-08-19 12:00:00,0.3020520508289337,0.7800851604220765,0
2011-08-20 00:00:00,0.2640740871429443,0.8045395865357212,0
2011-08-20 12:00:00,0.2548443973064422,0.7990989888379861,0
2011-08-21 00:00:00,0.2662436664104461,0.7972290317206214,0
2011-08-21 12:00:00,0.3867128491401672,0.7592305796814114,0
2011-08-22 00:00:00,0.4257481694221496,0.8383695458873683,0
2011-08-22 12:00:00,0.524066686630249,0.8423484258184251,0
2011-08-23 00:00:00,0.4758518934249878,0.9192251131916928,0
2011-08-24 00:00:00,0.3940120041370392,0.8530192591004317,0
2011-08-24 12:00:00,0.5233896374702454,0.8706529138357932,0
2011-08-25 00:00:00,0.6161906123161316,0.8999093231018449,0
2011-08-25 12:00:00,0.7180858254432678,0.8843986794320907,0
2011-08-26 12:00:00,0.5675116777420044,0.8292892125355791,0
2011-08-27 00:00:00,0.5355629920959473,0.878058249364187,0
2011-08-27 12:00:00,0.4556099474430084,0.7940575981317584,0
2011-08-28 12:00:00,0.5636301040649414,0.2945755310440471,0
2011-08-29 00:00:00,0.4648849666118622,0.5123801826740257,0
2011-08-29 12:00:00,0.5140367746353149,0.3059664330785793,0
2011-08-30 00:00:00,0.5861203074455261,0.540819058123436,0
2011-08-30 12:00:00,0.4957076013088226,0.47225041516041777,0
2011-08-31 00:00:00,0.6098281741142273,0.7416809713409092,0
2011-08-31 12:00:00,0.5793437361717224,0.7470830563351205,0
2011-09-01 00:00:00,0.5951808094978333,0.8954664260591103,0
2011-09-01 12:00:00,0.6111293435096741,0.9452263293349852,0
2011-09-02 00:00:00,0.7244130373001099,0.9665420489584795,0
2011-09-02 12:00:00,0.6002870202064514,0.9478760685845683,0
2011-09-03 00:00:00,0.552222490310669,0.9588511555749206,0
2011-09-03 12:00:00,0.508846640586853,0.9075240105833282,1
2011-09-04 00:00:00,0.4290457367897033,0.9061378679195301,1
2011-09-04 12:00:00,0.4140901565551758,0.859118235695227,1
2011-09-05 00:00:00,0.4156416952610016,0.9107899295147492,1
2011-09-05 12:00:00,0.503868043422699,0.8813393640825969,1
2011-09-06 00:00:00,0.457816869020462,0.899814907379414,1
2011-09-06 12:00:00,0.4820533096790313,0.8421741876940025,1
2011-09-07 00:00:00,0.4224043190479278,0.8792690533243446,1
2011-09-07 12:00:00,0.3671387732028961,0.8428188788451851,1
2011-09-08 00:00:00,0.4185964167118072,0.8371218965147704,1
2011-09-08 12:00:00,0.5139153599739075,0.9582276147238045,1
2011-09-09 00:00:00,0.5984212160110474,0.9698323634559757,1
2011-09-09 12:00:00,0.5907919406890869,0.9690783036747921,1
2011-09-10 00:00:00,0.5185966491699219,0.9849312743536275,1
2011-09-10 12:00:00,0.4582550525665283,0.9650054979681647,0
2011-09-11 00:00:00,0.4531455039978027,0.9599892040835387,0
2011-09-11 12:00:00,0.5140818953514099,0.936701609362561,0
2011-09-12 00:00:00,0.5169118046760559,0.8380566711464664,0
2011-09-12 12:00:00,0.6441510319709778,0.8380894120382125,0
2011-09-13 00:00:00,0.657622218132019,0.8961037170914284,0
2011-09-13 12:00:00,0.6868300437927246,0.8595730558995016,0
2011-09-14 00:00:00,0.6824508905410767,0.8847673334285603,0
2011-09-14 12:00:00,0.7653805017471313,0.9497226267251453,0
2011-09-15 12:00:00,0.8185824751853943,0.033994319776258,0
2011-09-16 00:00:00,0.7910045385360718,0.9969934792675675,0
2011-09-16 12:00:00,0.7236694097518921,0.9942608280524864,0
2011-09-17 00:00:00,0.6692472696304321,0.9919711757801545,0
2011-09-17 12:00:00,0.6203463673591614,0.9897587141344205,0
2011-09-18 00:00:00,0.6059785485267639,0.9938317638308598,0
2011-09-18 12:00:00,0.6654398441314697,0.9583713288719755,0
2011-09-19 00:00:00,0.6154618859291077,0.9489978306280887,0
2011-09-19 12:00:00,0.6015239953994751,0.9347904493293521,0
2011-09-20 00:00:00,0.5738844275474548,0.9480358382173815,0
2011-09-20 12:00:00,0.5795467495918274,0.9421584864370254,0
2011-09-21 00:00:00,0.5368167161941528,0.9846318271576554,1
2011-09-21 12:00:00,0.5225737690925598,0.9829212234780363,1
2011-09-23 00:00:00,0.5418716669082642,0.9889448579557366,1
2011-09-23 12:00:00,0.5494319200515747,0.9861908305947887,1
2011-09-24 00:00:00,0.5676795244216919,0.9993851941771331,1
2011-09-24 12:00:00,0.5813920497894287,0.9882383026261321,1
2011-09-25 00:00:00,0.582513153553009,0.9948914747703865,1
2011-09-25 12:00:00,0.5926200747489929,0.9846530768767207,1
2011-09-26 00:00:00,0.5884186625480652,0.9676305308875003,1
2011-09-26 12:00:00,0.5937618017196655,0.9619665244259464,1
2011-09-27 00:00:00,0.6113693714141846,0.962815965881159,0
2011-09-27 12:00:00,0.6532239317893982,0.9580026719280902,0
2011-09-28 00:00:00,0.6845183968544006,0.977626183979717,1
2011-09-28 12:00:00,0.7509925961494446,0.9728318849730229,1
2011-09-30 00:00:00,0.6765722036361694,0.9934675831391346,1
2011-09-30 12:00:00,0.5936458110809326,0.9881941162523256,1
2012-07-01 12:00:00,0.7631688117980957,0.9463132326504308,1
2012-07-02 00:00:00,0.8054916858673096,0.9958851828796484,1
2012-07-02 12:00:00,0.8422064781188965,0.9936599676354686,1
2012-07-03 00:00:00,0.7677276730537415,0.9949337263796424,0
2012-07-03 12:00:00,0.8522149324417114,0.9931026008942765,1
2012-07-04 00:00:00,0.7752242088317871,0.9922764838860004,1
2012-07-04 12:00:00,0.8273652195930481,0.9898301862340946,1
2012-07-05 00:00:00,0.7970647215843201,0.9911100193166921,1
2012-07-05 12:00:00,0.8845944404602051,0.9922183990404811,1
2012-07-06 00:00:00,0.8606376051902771,0.9943346241343942,1
2012-07-06 12:00:00,0.8506192564964294,0.991206672073574,1
2012-07-07 00:00:00,0.8979023694992065,0.9899415742490145,1
2012-07-07 12:00:00,0.8735112547874451,0.9995764088414684,1
2012-07-08 00:00:00,0.8434544205665588,0.9994620605442368,1
2012-07-08 12:00:00,0.8316158652305603,0.9840621251111813,1
2012-07-09 00:00:00,0.7785587310791016,0.9675642418036069,1
2012-07-09 12:00:00,0.7274050712585449,0.9646884327279546,1
2012-07-10 00:00:00,0.6325216293334961,0.9638805370147829,1
2012-07-10 12:00:00,0.5535243153572083,0.9645993897646105,0
2012-07-11 12:00:00,0.5152971744537354,0.9630182979853689,0
2012-07-12 00:00:00,0.5122753977775574,0.9659406268939965,1
2012-07-12 12:00:00,0.5695270299911499,0.9698533185982882,1
2012-07-13 00:00:00,0.5170581340789795,0.9683240280187091,0
2012-07-13 12:00:00,0.6794629096984863,0.9655114884359637,1
2012-07-14 00:00:00,0.534250020980835,0.9672378404399354,1
2012-07-14 12:00:00,0.5698040723800659,0.9691502706688175,0
2012-07-15 00:00:00,0.5755415558815002,0.9676297286889577,0
2012-07-15 12:00:00,0.6171367764472961,0.968906183663498,0
2012-07-16 00:00:00,0.6420580148696899,0.972284832469179,0
2012-07-16 12:00:00,0.5398464202880859,0.9686744676075791,0
2012-07-17 00:00:00,0.424791157245636,0.2164647008355577,1
2012-07-17 12:00:00,0.3408955633640289,0.5684460650304939,1
2012-07-18 00:00:00,0.2753076255321502,0.576536691814126,0
2012-07-18 12:00:00,0.196646049618721,0.41448419962317506,1
2012-07-19 00:00:00,0.1695949286222458,0.5207988665194287,1
2012-07-19 12:00:00,0.1182736456394195,0.4377319531538284,0
2012-07-20 00:00:00,0.1155462563037872,0.4654582636145864,0
2012-07-20 12:00:00,0.1293530017137527,0.15812129374173345,0
2012-07-21 00:00:00,0.1599510312080383,0.12748645081860477,0
2012-07-21 12:00:00,0.1860966086387634,0.18952094240558637,0
2012-07-22 00:00:00,0.219635471701622,0.313586590204754,0
2012-07-22 12:00:00,0.3129778802394867,0.28669177741886165,0
2012-07-23 00:00:00,0.322492241859436,0.37560430668944766,0
2012-07-23 12:00:00,0.247816190123558,0.22626942452548526,0
2012-07-24 00:00:00,0.298552542924881,0.2910866855095887,0
2012-07-24 12:00:00,0.3357943892478943,0.31491717860910096,0
2012-07-25 00:00:00,0.4593730568885803,0.17438946914591835,0
2012-07-25 12:00:00,0.5029704570770264,0.2867307583998886,0
2012-07-26 00:00:00,0.5644607543945312,0.2551566212676054,0
2012-07-26 12:00:00,0.6323267817497253,0.3416317605257233,0
2012-07-27 12:00:00,0.5413846373558044,0.9580813818960423,1
2012-07-28 00:00:00,0.5172351002693176,0.956332373869545,1
2012-07-28 12:00:00,0.4902892410755157,0.9443086287339246,1
2012-07-29 00:00:00,0.4683382213115692,0.9546173068580817,1
2012-07-29 12:00:00,0.5223404169082642,0.9515297224452691,0
2012-07-30 00:00:00,0.5639233589172363,0.9613455974231723,1
2012-07-30 12:00:00,0.5845885872840881,0.9667498905940558,1
2012-07-31 00:00:00,0.6431363224983215,0.9713478039408452,0
2012-07-31 12:00:00,0.6820605993270874,0.9903849485350962,0
2012-08-01 00:00:00,0.7626174092292786,0.9864956598476151,0
2012-08-01 12:00:00,0.8472191095352173,0.9858654219856006,0
2012-08-02 00:00:00,0.8931645750999451,0.9806833332842084,0
2012-08-02 12:00:00,0.9005276560783386,0.9714282005958923,0
2012-08-03 00:00:00,0.915867567062378,0.9618284130505576,0
2012-08-03 12:00:00,0.9027198553085328,0.9953259562381481,0
2012-08-04 00:00:00,0.8322938084602356,0.9954504291465404,0
2012-08-04 12:00:00,0.7723380327224731,0.9957576038184743,0
2012-08-05 00:00:00,0.7538625001907349,0.9903815533641507,0
2012-08-05 12:00:00,0.6818718910217285,0.9787998218888706,1
2012-08-06 00:00:00,0.6125574707984924,0.8890603189103337,1
2012-08-06 12:00:00,0.5012291669845581,0.90940661546713,0
2012-08-07 00:00:00,0.4455410540103912,0.929431061441504,0
2012-08-07 12:00:00,0.7776015996932983,0.915394162588914,0
2012-08-08 00:00:00,0.7874552607536316,0.8638400994769884,0
2012-08-08 12:00:00,0.7795734405517578,0.975736786831692,0
2012-08-09 00:00:00,0.7743974924087524,0.9947106159100851,0
2012-08-09 12:00:00,0.7569974064826965,0.993618851616236,0
2012-08-10 00:00:00,0.6493256092071533,0.9945078232020327,0
2012-08-10 12:00:00,0.5671259760856628,0.9884471515187793,1
2012-08-11 00:00:00,0.4370167553424835,0.9807310699728206,1
2012-08-11 12:00:00,0.3652881383895874,0.9661689998734636,0
2012-08-12 00:00:00,0.4184834361076355,0.9441845002532904,0
2012-08-12 12:00:00,0.4056954085826874,0.9118598460334763,0
2012-08-13 00:00:00,0.4058800935745239,0.8951834995375895,0
2012-08-14 12:00:00,0.3123733699321747,0.7660868268219572,0
2012-08-15 00:00:00,0.27583709359169,0.746108425148865,0
2012-08-15 12:00:00,0.2664968371391296,0.7600557719505765,0
2012-08-16 00:00:00,0.2495073527097702,0.7768856963006434,0
2012-08-16 12:00:00,0.2965236902236938,0.7296511031679234,0
2012-08-17 00:00:00,0.3051074147224426,0.7140259861527465,1
2012-08-17 12:00:00,0.3365154862403869,0.631338467662377,1
2012-08-18 00:00:00,0.2787990272045135,0.6236949714125155,1
2012-08-18 12:00:00,0.3058980107307434,0.6082487345485095,1
2012-08-19 00:00:00,0.2814398109912872,0.4808919921690087,0
2012-08-19 12:00:00,0.2977068126201629,0.07604029463841122,0
2012-08-20 00:00:00,0.3447963893413543,0.09566267979790855,0
2012-08-20 12:00:00,0.3440640568733215,0.2792686288335303,0
2012-08-21 00:00:00,0.2794886529445648,0.29562907604476574,0
2012-08-21 12:00:00,0.2961755692958832,0.235784296843074,0
2012-08-22 00:00:00,0.2788721919059753,0.17899559172297785,0
2012-08-22 12:00:00,0.2703532874584198,0.12145864825118824,0
2012-08-23 00:00:00,0.2908340096473694,0.19836246115297707,0
2012-08-23 12:00:00,0.2805086076259613,0.20518831345600164,0
2012-08-24 00:00:00,0.2891028821468353,0.4923720628768046,0
2012-08-24 12:00:00,0.3800136744976043,0.5131956237855447,0
2012-08-25 00:00:00,0.5028924942016602,0.5596820739719275,0
2012-08-25 12:00:00,0.5701828598976135,0.43595296128957706,0
2012-08-26 00:00:00,0.5432888865470886,0.5065182933879935,0
2012-08-26 12:00:00,0.5708051323890686,0.44036253347044385,0
2012-08-27 00:00:00,0.5707127451896667,0.7581780742222017,0
2012-08-27 12:00:00,0.5845302939414978,0.7124860597421523,0
2012-08-28 00:00:00,0.635506272315979,0.7684396182272926,0
2012-08-28 12:00:00,0.5889595150947571,0.6373494711699559,0
2012-08-29 00:00:00,0.5127649903297424,0.6483753198660366,0
2012-08-29 12:00:00,0.55832839012146,0.5960051443529477,0
2012-08-30 00:00:00,0.7342155575752258,0.8864872854866904,1
2012-08-30 12:00:00,0.8407127261161804,0.952301283314485,1
2012-08-31 12:00:00,0.8984417915344238,0.9430835842592319,0
2012-09-01 00:00:00,0.8963609337806702,0.9672537597056617,0
2012-09-01 12:00:00,0.8491398096084595,0.9917137812769096,0
2012-09-02 00:00:00,0.8658931851387024,0.9961068847817351,0
2012-09-02 12:00:00,0.8166324496269226,0.9930059766729079,0
2012-09-03 00:00:00,0.8487871885299683,0.9824271940890456,0
2012-09-03 12:00:00,0.8277130126953125,0.9865183028366236,0
2012-09-04 00:00:00,0.8571086525917053,0.9855042208963484,0
2012-09-05 00:00:00,0.7640734314918518,0.931611411818597,0
2012-09-05 12:00:00,0.8091873526573181,0.9672937716865622,1
2012-09-06 00:00:00,0.817365288734436,0.9665864469284113,1
2012-09-06 12:00:00,0.7133681774139404,0.9752177800789597,0
2012-09-07 00:00:00,0.7136603593826294,0.9445551138824216,0
2012-09-07 12:00:00,0.5729483366012573,0.9475023348849323,0
2012-09-08 00:00:00,0.5815306305885315,0.9778335982349259,1
2012-09-08 12:00:00,0.5075255632400513,0.9729117314088455,1
2012-09-09 00:00:00,0.5508075952529907,0.8756374844167953,1
2012-09-09 12:00:00,0.6073739528656006,0.919867001111028,1
2012-09-10 00:00:00,0.5486317276954651,0.9102073210029131,0
2012-09-10 12:00:00,0.4112553894519806,0.879115318197692,0
2012-09-11 00:00:00,0.5105206966400146,0.863130903750692,0
2012-09-11 12:00:00,0.5333573818206787,0.07360843176847631,0
2012-09-12 12:00:00,0.5471916794776917,0.03134642514149466,0
2012-09-13 12:00:00,0.4400826692581177,0.02353047989313939,0
2012-09-14 12:00:00,0.3023723661899566,0.031337601184569186,0
2012-09-15 00:00:00,0.3343924283981323,0.4882775596821345,0
2012-09-15 12:00:00,0.3844696581363678,0.5380126133576058,0
2012-09-16 00:00:00,0.315806895494461,0.41627367170025564,0
2012-09-16 12:00:00,0.2742000520229339,0.3175721687957852,0
2012-09-19 00:00:00,0.6069017648696899,0.009886271647022937,0
2012-09-19 12:00:00,0.7016871571540833,0.2625246498054904,0
2012-09-21 00:00:00,0.7595787048339844,0.7242738832441823,0
2012-09-21 12:00:00,0.6614503264427185,0.6113636048422748,0
2012-09-22 00:00:00,0.5704555511474609,0.9255760756234934,0
2012-09-22 12:00:00,0.6552059054374695,0.9134324550294366,0
2012-09-23 00:00:00,0.6484553813934326,0.9173663366706759,0
2012-09-23 12:00:00,0.6396069526672363,0.8008403509732788,0
2012-09-24 00:00:00,0.5653263926506042,0.8771760132414457,0
2012-09-24 12:00:00,0.6449540853500366,0.8344589483599889,0
2012-09-25 00:00:00,0.7986491918563843,0.9120444728632012,0
2012-09-25 12:00:00,0.8268442749977112,0.9138702967573772,0
2012-09-26 00:00:00,0.8538420796394348,0.9555024233920411,0
2012-09-26 12:00:00,0.8736016750335693,0.9472049692547797,0
2012-09-28 12:00:00,0.8900609612464905,0.9146816095819926,0
2012-09-29 00:00:00,0.840276300907135,0.983648576405467,0
2012-09-29 12:00:00,0.8724856972694397,0.9745515107114735,1
2012-09-30 00:00:00,0.7461141347885132,0.9807142358126072,1
2012-09-30 12:00:00,0.6754489541053772,0.9834852894379069,0
2013-07-02 00:00:00,0.4113380908966064,0.5216435602865421,0
2013-07-02 12:00:00,0.7752749919891357,0.5880176964192432,1
2013-07-03 00:00:00,0.7115709781646729,0.4744626715415683,1
2013-07-03 12:00:00,0.7198724150657654,0.30662784844335633,0
2013-07-04 00:00:00,0.8029363751411438,0.9751827625284049,0
2013-07-04 12:00:00,0.8083093166351318,0.9684622443729687,0
2013-07-05 00:00:00,0.8454406261444092,0.9783944438831309,0
2013-07-05 12:00:00,0.8243709206581116,0.9723314755406998,0
2013-07-06 00:00:00,0.8170334100723267,0.9761934657028346,0
2013-07-06 12:00:00,0.7549470067024231,0.9709290404178854,0
2013-07-07 00:00:00,0.7573292851448059,0.9804844142989652,0
2013-07-07 12:00:00,0.7629345059394836,0.9509363973725373,0
2013-07-08 00:00:00,0.8038763999938965,0.926821145910193,0
2013-07-08 12:00:00,0.7849142551422119,0.9286070132365946,0
2013-07-09 00:00:00,0.7399559020996094,0.9324496372166571,0
2013-07-09 12:00:00,0.7613134384155273,0.9077514869625188,0
2013-07-10 00:00:00,0.6835405230522156,0.9099799320035558,0
2013-07-10 12:00:00,0.5950183868408203,0.9004166130627138,0
2013-07-11 00:00:00,0.6291412115097046,0.9105176102342913,0
2013-07-11 12:00:00,0.6291413307189941,0.8749496964432175,0
2013-07-12 00:00:00,0.6291413307189941,0.8609368525839339,0
2013-07-13 00:00:00,0.5855339765548706,0.915850453422446,0
2013-07-13 12:00:00,0.5027478337287903,0.8801061559086707,0
2013-07-14 00:00:00,0.4772074520587921,0.3643289501870255,0
2013-07-14 12:00:00,0.5350729823112488,0.25076717547040683,0
2013-07-15 00:00:00,0.4703413248062134,0.6056585969229424,0
2013-07-15 12:00:00,0.6176356673240662,0.6822070339978985,0
2013-07-16 00:00:00,0.622658908367157,0.7306052114078276,0
2013-07-17 00:00:00,0.3942554295063019,0.8620647964046584,0
2013-07-18 12:00:00,0.4844850301742553,0.8751007389529156,0
2013-07-19 00:00:00,0.5421443581581116,0.8240526163804383,0
2013-07-19 12:00:00,0.6180762052536011,0.7498983965369299,0
2013-07-20 00:00:00,0.6847432851791382,0.7643690310356818,0
2013-07-20 12:00:00,0.6140190958976746,0.8257016218233132,0
2013-07-21 00:00:00,0.5993083119392395,0.9180997173904648,0
2013-07-21 12:00:00,0.5705298185348511,0.9138300169858785,0
2013-07-22 00:00:00,0.4369026124477386,0.7965090399080711,0
2013-07-22 12:00:00,0.4170708954334259,0.793095804964543,0
2013-07-23 12:00:00,0.5001621246337891,0.774307370343033,0
2013-07-24 00:00:00,0.5949478149414062,0.8328893973862468,0
2013-07-24 12:00:00,0.6119661331176758,0.7325342348974233,0
2013-07-25 12:00:00,0.514346182346344,0.722700379688471,0
2013-07-26 00:00:00,0.5194920301437378,0.7596260904346577,0
2013-07-26 12:00:00,0.534444272518158,0.7655654516415399,0
2013-07-27 00:00:00,0.5403331518173218,0.8068871824656967,0
2013-07-27 12:00:00,0.5985466241836548,0.7879775131106033,0
2013-07-28 00:00:00,0.6475261449813843,0.8361728388884065,0
2013-07-28 12:00:00,0.7171434164047241,0.8508296559297729,0
2013-07-29 00:00:00,0.7464183568954468,0.9095822211927334,0
2013-07-29 12:00:00,0.7376735806465149,0.8591295700977253,0
2013-07-30 00:00:00,0.7812671065330505,0.9032496280203011,0
2013-07-30 12:00:00,0.6897437572479248,0.5757128974108319,0
2013-07-31 00:00:00,0.6438636183738708,0.4723184185661484,0
2013-07-31 12:00:00,0.5905214548110962,0.34467593739436275,0
2013-08-01 12:00:00,0.5799791812896729,0.43055467275844306,0
2013-08-02 00:00:00,0.6637185215950012,0.8223657260938728,0
2013-08-02 12:00:00,0.640996515750885,0.8226119992596969,0
2013-08-03 00:00:00,0.6872658133506775,0.8575401004507632,0
2013-08-04 00:00:00,0.5739324688911438,0.771273158523987,0
2013-08-04 12:00:00,0.5678812861442566,0.8038197087513674,0
2013-08-05 00:00:00,0.6119482517242432,0.728991975962156,0
2013-08-05 12:00:00,0.6628239750862122,0.6288484456816492,0
2013-08-06 00:00:00,0.6006859540939331,0.7770157644388894,0
2013-08-06 12:00:00,0.5423453450202942,0.6413510622716898,0
2013-08-07 12:00:00,0.4663252234458923,0.4954775532810718,0
2013-08-08 00:00:00,0.4513349533081054,0.4945115482674107,0
2013-08-08 12:00:00,0.4110420048236847,0.6739545998118966,0
2013-08-09 00:00:00,0.4534792006015777,0.5219850038299034,0
2013-08-09 12:00:00,0.340206503868103,0.47264961338742106,0
2013-08-10 00:00:00,0.3248511254787445,0.47720458849988434,0
2013-08-10 12:00:00,0.325620025396347,0.452389110320097,0
2013-08-11 00:00:00,0.3564096987247467,0.6634395672147124,0
2013-08-11 12:00:00,0.4354186654090881,0.8431970642007109,1
2013-08-12 00:00:00,0.448298841714859,0.9378665552093541,1
2013-08-12 12:00:00,0.5106619596481323,0.8872124125169665,0
2013-08-13 00:00:00,0.5386511087417603,0.9371228693947871,0
2013-08-13 12:00:00,0.6802246570587158,0.9355146727877801,0
2013-08-14 00:00:00,0.6133434772491455,0.9308803746887591,0
2013-08-14 12:00:00,0.5980504155158997,0.9045173759519531,0
2013-08-15 00:00:00,0.6660838723182678,0.9581078815607612,0
2013-08-15 12:00:00,0.7363111972808838,0.9573458584534243,0
2013-08-16 00:00:00,0.7754375338554382,0.9736341608575679,0
2013-08-16 12:00:00,0.7922274470329285,0.9720982974802145,0
2013-08-17 00:00:00,0.8152300715446472,0.9687283376664386,1
2013-08-17 12:00:00,0.8122037053108215,0.957975328336344,1
2013-08-18 00:00:00,0.769596517086029,0.9687049882886473,0
2013-08-18 12:00:00,0.8283680081367493,0.9608178211905253,0
2013-08-19 00:00:00,0.8871971368789673,0.9616699251716697,0
2013-08-19 12:00:00,0.8908815979957581,0.9068379848572246,0
2013-08-20 00:00:00,0.8540899157524109,0.9493969629224095,0
2013-08-20 12:00:00,0.852059543132782,0.9219788255103344,0
2013-08-21 00:00:00,0.7535388469696045,0.9636249067168091,0
2013-08-21 12:00:00,0.7535388469696045,0.908078483516882,0
2013-08-22 00:00:00,0.744397759437561,0.9176872527592962,0
2013-08-22 12:00:00,0.7658116221427917,0.8887552717034197,0
2013-08-23 00:00:00,0.838181734085083,0.9004470296897931,0
2013-08-24 00:00:00,0.6797822117805481,0.8096668422584204,0
2013-08-24 12:00:00,0.7279614806175232,0.7309111464082008,0
2013-08-25 00:00:00,0.7130476832389832,0.17337954562689972,0
2013-08-25 12:00:00,0.8378779888153076,0.20428128005118307,0
2013-08-26 00:00:00,0.7612544894218445,0.24956251434886334,0
2013-08-26 12:00:00,0.7274990677833557,0.6069675937040452,0
2013-08-27 00:00:00,0.6556634306907654,0.6045173683616852,0
2013-08-27 12:00:00,0.6995302438735962,0.5590656868012459,0
2013-08-28 00:00:00,0.7292107343673706,0.639302485100031,0
2013-08-28 12:00:00,0.661577045917511,0.6734558415219476,0
2013-08-29 00:00:00,0.644763708114624,0.840373947053673,0
2013-08-29 12:00:00,0.7176100015640259,0.8136385650221847,0
2013-08-30 00:00:00,0.6769400835037231,0.8515923796530144,0
2013-08-30 12:00:00,0.6465846300125122,0.8445743549974781,0
2013-08-31 00:00:00,0.6085532903671265,0.8793682042171519,0
2013-08-31 12:00:00,0.6516966223716736,0.8333281862848204,0
2013-09-01 00:00:00,0.6462733149528503,0.7722037754446672,0
2013-09-01 12:00:00,0.6202530264854431,0.8242304899173667,0
2013-09-02 00:00:00,0.7966675162315369,0.7105583655910472,0
2013-09-02 12:00:00,0.8014848232269287,0.8587935626817952,0
2013-09-03 00:00:00,0.5990743637084961,0.8738916277291079,0
2013-09-03 12:00:00,0.7368869185447693,0.8659390339773666,0
2013-09-04 00:00:00,0.7495089173316956,0.9175629107457277,0
2013-09-04 12:00:00,0.6422333717346191,0.9462745314779061,0
2013-09-05 00:00:00,0.5344065427780151,0.8672889169761648,0
2013-09-05 12:00:00,0.5576085448265076,0.504898536477514,0
2013-09-06 00:00:00,0.4433529078960418,0.7571775725159868,0
2013-09-06 12:00:00,0.4022725820541382,0.7973711214013466,0
2013-09-07 00:00:00,0.229043036699295,0.42620370709940336,0
2013-09-07 12:00:00,0.2069972306489944,0.027967579299831735,0
2013-09-08 00:00:00,0.1653675734996795,0.22028713838189884,0
2013-09-08 12:00:00,0.201135516166687,0.10963023608872835,0
2013-09-09 00:00:00,0.1725721508264541,0.14718567378115754,0
2013-09-09 12:00:00,0.1793474853038787,0.102773503294453,0
2013-09-10 00:00:00,0.1744363009929657,0.1385033501066506,0
2013-09-10 12:00:00,0.2352409064769745,0.1472756144294648,0
2013-09-11 00:00:00,0.2315665781497955,0.14876840129520796,0
2013-09-11 12:00:00,0.2527472078800201,0.10845477361816769,0
2013-09-13 00:00:00,0.3821592926979065,0.2747771125013583,0
2013-09-13 12:00:00,0.3558797538280487,0.21135754739648815,0
2013-09-14 00:00:00,0.2992317974567413,0.17320235284508334,0
2013-09-14 12:00:00,0.2671572864055633,0.1365064922079039,0
2013-09-15 00:00:00,0.2360688745975494,0.07988310776356522,0
2013-09-15 12:00:00,0.2240513116121292,0.07906038194288034,0
2013-09-16 00:00:00,0.1905978322029113,0.0966384041419669,0
2013-09-16 12:00:00,0.2039040476083755,0.09383578261555714,0
2013-09-17 00:00:00,0.1763170957565307,0.0588362744522567,0
2013-09-17 12:00:00,0.142863392829895,0.048463589575299615,0
2013-09-18 00:00:00,0.3431632816791534,0.12353494708450252,0
2013-09-18 12:00:00,0.5707488656044006,0.1416426421354281,0
2013-09-19 00:00:00,0.5215004682540894,0.7024690927440548,0
2013-09-20 00:00:00,0.5363966822624207,0.675040983103423,0
2013-09-20 12:00:00,0.5594074130058289,0.6142347232013419,0
2013-09-21 00:00:00,0.6422845721244812,0.6329777255736956,0
2013-09-21 12:00:00,0.5353184342384338,0.5872148328385849,0
2013-09-22 00:00:00,0.5678951740264893,0.8144131217158419,0
2013-09-22 12:00:00,0.5284091830253601,0.8757127202887256,0
2013-09-23 00:00:00,0.4250877797603607,0.7498536853638209,0
2013-09-23 12:00:00,0.4130610823631286,0.6673271375850116,0
2013-09-24 00:00:00,0.4127464592456817,0.7825520385889504,0
2013-09-24 12:00:00,0.522379457950592,0.7245201418956411,0
2013-09-25 00:00:00,0.5256382822990417,0.803060667092626,0
2013-09-25 12:00:00,0.5998297333717346,0.7587704122898594,0
2013-09-26 12:00:00,0.6592024564743042,0.7596036792066749,0
2013-09-27 00:00:00,0.6366876363754272,0.7999758929614066,0
2013-09-27 12:00:00,0.6657163500785828,0.7919487420384856,0
2013-09-28 00:00:00,0.7193562388420105,0.7520313568082246,0
2013-09-28 12:00:00,0.6784144639968872,0.7156073852161403,0
2013-09-29 00:00:00,0.6206403374671936,0.7138390233354592,0
2013-09-29 12:00:00,0.532849133014679,0.6673496755858291,0
2013-09-30 00:00:00,0.7078859806060791,0.706252999614676,0
2013-09-30 12:00:00,0.6230564713478088,0.6750797772272059,0
2014-07-01 12:00:00,0.8630902171134949,0.01967480492696716,0
2014-07-02 00:00:00,0.8391873836517334,0.9960175928120562,0
2014-07-03 00:00:00,0.9175829887390136,0.9974856171075559,0
2014-07-03 12:00:00,0.932313084602356,0.9979768045645806,0
2014-07-04 00:00:00,0.9371097087860109,0.9976233258482922,0
2014-07-05 00:00:00,0.9528575539588928,0.999840124945807,0
2014-07-05 12:00:00,0.9521709680557252,0.9999007085074794,0
2014-07-06 00:00:00,0.95615154504776,0.9998632334733939,0
2014-07-06 12:00:00,0.9635457396507264,0.9998829829776003,0
2014-07-07 00:00:00,0.9587752223014832,0.9997922290759577,0
2014-07-07 12:00:00,0.956288516521454,0.9994154994734141,0
2014-07-08 00:00:00,0.9619260430336,0.9996136292169018,1
2014-07-08 12:00:00,0.981405794620514,0.9998450809254222,1
2014-07-09 00:00:00,0.9695891737937928,0.999963391309107,1
2014-07-09 12:00:00,0.9845638275146484,0.9999235539604965,0
2014-07-10 12:00:00,0.9656249284744264,0.9997635905345489,1
2014-07-11 00:00:00,0.935181200504303,0.9986165123484374,0
2014-07-11 12:00:00,0.9216293692588806,0.9988089310204622,0
2014-07-12 00:00:00,0.9178476333618164,0.9992294356154674,0
2014-07-12 12:00:00,0.8725075721740723,0.9974113151167445,0
2014-07-13 00:00:00,0.7901829481124878,0.9592265202047128,0
2014-07-13 12:00:00,0.7254039645195007,0.9607911599857398,0
2014-07-14 00:00:00,0.6596531271934509,0.9108791592890577,0
2014-07-14 12:00:00,0.435828685760498,0.5619830064313276,0
2014-07-15 00:00:00,0.3990720510482788,0.6118353083279922,0
2014-07-15 12:00:00,0.4072062075138092,0.5494711192966819,0
2014-07-16 00:00:00,0.3497980833053589,0.5734337968896162,0
2014-07-16 12:00:00,0.2619849443435669,0.48656871831695025,0
2014-07-17 00:00:00,0.226677805185318,0.5281629886229939,0
2014-07-17 12:00:00,0.2481932491064071,0.4594481753706178,0
2014-07-18 00:00:00,0.2296748459339141,0.318398810066688,0
2014-07-18 12:00:00,0.2255891561508178,0.24993782569441847,0
2014-07-19 00:00:00,0.2520895004272461,0.07133905150344821,0
2014-07-19 12:00:00,0.1682551056146621,0.0692646914298164,0
2014-07-20 00:00:00,0.1785077601671219,0.12552423146574543,0
2014-07-20 12:00:00,0.197447583079338,0.1689160676442143,0
2014-07-21 00:00:00,0.1738941073417663,0.14581927064119704,0
2014-07-21 12:00:00,0.1614361256361007,0.07564497731621156,0
2014-07-22 00:00:00,0.2679022550582886,0.05133154506975568,0
2014-07-22 12:00:00,0.4631634950637817,0.06658349152434528,0
2014-07-23 00:00:00,0.5051993727684021,0.13138202519704845,0
2014-07-23 12:00:00,0.6485265493392944,0.2965898376950583,0
2014-07-24 12:00:00,0.5781133770942688,0.7465732466881736,0
2014-07-25 00:00:00,0.5830676555633545,0.7368415502835686,0
2014-07-25 12:00:00,0.483422577381134,0.654269563272506,0
2014-07-26 00:00:00,0.4091680943965912,0.6748715107956775,0
2014-07-26 12:00:00,0.4813985824584961,0.7736680150084626,0
2014-07-27 12:00:00,0.5920451879501343,0.8903581120289851,0
2014-07-28 00:00:00,0.7790699005126953,0.9195764953915706,0
2014-07-28 12:00:00,0.7416210770606995,0.8832082651032815,0
2014-07-29 00:00:00,0.7552164196968079,0.9016205169887181,0
2014-07-29 12:00:00,0.817507803440094,0.8326391825225183,0
2014-07-30 00:00:00,0.8035525679588318,0.8981633375922842,0
2014-07-30 12:00:00,0.8846176266670227,0.802370430569842,1
2014-07-31 00:00:00,0.8006461262702942,0.9912719586616003,1
2014-07-31 12:00:00,0.8691961169242859,0.9907596153819733,0
2014-08-01 12:00:00,0.882910430431366,0.9892288313064537,1
2014-08-02 00:00:00,0.8304016590118408,0.9864192095329716,0
2014-08-02 12:00:00,0.7453942894935608,0.9593193706587112,0
2014-08-03 00:00:00,0.6813316941261292,0.9541709848245763,0
2014-08-03 12:00:00,0.6998887062072754,0.9092040481953817,0
2014-08-04 00:00:00,0.7676402926445007,0.9782381666516222,0
2014-08-04 12:00:00,0.8197850584983826,0.9753043762338142,0
2014-08-05 00:00:00,0.8179492950439453,0.9727783708595032,0
2014-08-05 12:00:00,0.8276452422142029,0.9671167823689302,0
2014-08-06 00:00:00,0.7835837602615356,0.9802876194693774,0
2014-08-06 12:00:00,0.8428144454956055,0.9651503323425547,0
2014-08-07 00:00:00,0.8988121747970581,0.990649454080729,0
2014-08-07 12:00:00,0.90118008852005,0.97194287210476,0
2014-08-08 00:00:00,0.8488602638244629,0.9681101931238936,0
2014-08-08 12:00:00,0.8608787059783936,0.9356204374237135,0
2014-08-09 00:00:00,0.7956892251968384,0.945996834089981,0
2014-08-09 12:00:00,0.694944441318512,0.8806808470368608,0
2014-08-10 00:00:00,0.6438562870025635,0.43130281011797666,0
2014-08-10 12:00:00,0.6227707266807556,0.5718362359507185,0
2014-08-11 00:00:00,0.6354448199272156,0.47251694542617473,0
2014-08-11 12:00:00,0.6125942468643188,0.37476646495574906,0
2014-08-12 00:00:00,0.6325422525405884,0.5384181933336317,0
2014-08-12 12:00:00,0.6473474502563477,0.5461304398118125,0
2014-08-13 00:00:00,0.6214619874954224,0.7921163166129521,0
2014-08-13 12:00:00,0.6082923412322998,0.7374670957400861,0
2014-08-14 00:00:00,0.5968788862228394,0.7189200693553854,0
2014-08-14 12:00:00,0.4964857697486877,0.6288620257128972,0
2014-08-15 00:00:00,0.577568769454956,0.8725202386693637,0
2014-08-15 12:00:00,0.6891990900039673,0.8776487125587568,0
2014-08-16 00:00:00,0.672771692276001,0.960096261121273,0
2014-08-16 12:00:00,0.7722840905189514,0.9145401910932998,0
2014-08-17 00:00:00,0.8355350494384766,0.8872214875454452,0
2014-08-17 12:00:00,0.8545386791229248,0.7511013154579669,0
2014-08-18 00:00:00,0.8148888349533081,0.7192557673284465,0
2014-08-18 12:00:00,0.8400501608848572,0.6102386011190043,0
2014-08-19 00:00:00,0.8826945424079895,0.5812995476572063,0
2014-08-19 12:00:00,0.8900209069252014,0.6042519206673382,0
2014-08-20 00:00:00,0.8530967831611633,0.7754513248577073,0
2014-08-20 12:00:00,0.7691948413848877,0.8936711575563269,0
2014-08-21 00:00:00,0.843474268913269,0.9551370241000933,1
2014-08-21 12:00:00,0.8472716808319092,0.9553940352914251,1
2014-08-22 00:00:00,0.8299134969711304,0.9298118101338156,1
2014-08-22 12:00:00,0.8350462317466736,0.8740525178565541,0
2014-08-23 00:00:00,0.9070700407028198,0.9846284440076788,0
2014-08-23 12:00:00,0.8993123769760132,0.9799169338893057,0
2014-08-24 00:00:00,0.9124588966369628,0.9798368127412989,1
2014-08-24 12:00:00,0.9329162836074828,0.9920413122916475,0
2014-08-25 00:00:00,0.9002002477645874,0.9947951482764896,1
2014-08-25 12:00:00,0.9137523174285888,0.9912366167500374,1
2014-08-26 00:00:00,0.930123805999756,0.9949990962952019,0
2014-08-26 12:00:00,0.9355934858322144,0.9861338528211074,0
2014-08-27 00:00:00,0.8791852593421936,0.9887438528610576,0
2014-08-27 12:00:00,0.8469619750976562,0.9845115851255178,0
2014-08-28 00:00:00,0.8884773850440979,0.963699914162516,0
2014-08-28 12:00:00,0.7881972789764404,0.9546362581092398,0
2014-08-29 00:00:00,0.7541033029556274,0.9431549832432559,0
2014-08-29 12:00:00,0.7910592555999756,0.8960481181611055,0
2014-08-30 00:00:00,0.7699252367019653,0.9710214718028197,0
2014-08-30 12:00:00,0.8438225388526917,0.9810629420401379,0
2014-08-31 00:00:00,0.7874221801757812,0.9851914064696191,0
2014-08-31 12:00:00,0.865473747253418,0.9884412458895425,0
2014-09-01 00:00:00,0.864639937877655,0.9910552827067214,0
2014-09-01 12:00:00,0.8463678956031799,0.9841193748153849,0
2014-09-02 00:00:00,0.8834097385406494,0.8551386139396826,0
2014-09-02 12:00:00,0.8346151113510132,0.8847726394377872,0
2014-09-03 00:00:00,0.7812743782997131,0.8660083042290381,1
2014-09-03 12:00:00,0.7335886359214783,0.8278474016905986,1
2014-09-04 00:00:00,0.7203263640403748,0.8818046961305066,0
2014-09-04 12:00:00,0.7459778785705566,0.8848991704686225,0
2014-09-05 00:00:00,0.8799624443054199,0.875573512184572,0
2014-09-05 12:00:00,0.86512291431427,0.8584782854717129,0
2014-09-06 00:00:00,0.8685674667358398,0.9937963192382577,1
2014-09-06 12:00:00,0.8740140795707703,0.9935376599045672,1
2014-09-07 00:00:00,0.8434714078903198,0.9984263417280755,0
2014-09-07 12:00:00,0.849373996257782,0.9942991309923461,0
2014-09-08 00:00:00,0.8232948184013367,0.996852293218318,1
2014-09-08 12:00:00,0.7422552704811096,0.9960362456905759,1
2014-09-09 00:00:00,0.83610999584198,0.9987040106540197,0
2014-09-09 12:00:00,0.8348515629768372,0.9977382717162566,0
2014-09-10 00:00:00,0.8318543434143066,0.9970740431655633,1
2014-09-11 00:00:00,0.8312036395072937,0.9051359222787319,1
2014-09-12 12:00:00,0.7961293458938599,0.9894077434534314,0
2014-09-13 00:00:00,0.8089306354522705,0.9899356394309363,0
2014-09-13 12:00:00,0.8307444453239441,0.92836291734247,1
2014-09-14 00:00:00,0.8512827754020691,0.9895471796362485,1
2014-09-14 12:00:00,0.8759804964065552,0.9750327433216147,0
2014-09-15 00:00:00,0.8701927661895752,0.979471152510116,0
2014-09-15 12:00:00,0.847500741481781,0.9776111278853374,0
2014-09-16 00:00:00,0.7783008813858032,0.9389336456605657,0
2014-09-16 12:00:00,0.7192977070808411,0.9510808098215813,0
2014-09-17 00:00:00,0.7120187282562256,0.8038624396174905,0
2014-09-17 12:00:00,0.8243722319602966,0.8623218197459488,1
2014-09-18 00:00:00,0.7603538036346436,0.7968851924118406,1
2014-09-18 12:00:00,0.7227144837379456,0.7476451588093724,0
2014-09-19 00:00:00,0.7012013792991638,0.8156451349485655,0
2014-09-19 12:00:00,0.6731416583061218,0.7270194181203398,0
2014-09-20 00:00:00,0.611609160900116,0.46289854999209556,0
2014-09-20 12:00:00,0.7629112601280212,0.44458767631132146,0
2014-09-21 00:00:00,0.8223283886909485,0.4179132742981613,0
2014-09-21 12:00:00,0.8501286506652832,0.9612208649249029,0
2014-09-22 00:00:00,0.8580043315887451,0.970271409981708,0
2014-09-22 12:00:00,0.8849433660507202,0.9655029461101291,0
2014-09-23 00:00:00,0.8791347742080688,0.9616386103385154,1
2014-09-23 12:00:00,0.851719319820404,0.9574259705792584,1
2014-09-24 00:00:00,0.8217436075210571,0.9136826272654153,0
2014-09-24 12:00:00,0.7866778373718262,0.903790820637572,0
2014-09-25 00:00:00,0.759590744972229,0.9636761831083956,0
2014-09-25 12:00:00,0.8650794625282288,0.9788311101997335,0
2014-09-26 12:00:00,0.885749101638794,0.9938412082398813,1
2014-09-27 12:00:00,0.9206840395927428,0.9950839318547828,1
2014-09-28 00:00:00,0.9400398135185242,0.9990049001317534,1
2014-09-28 12:00:00,0.9680473208427428,0.9989395512444381,1
2014-09-29 00:00:00,0.9643357396125792,0.9993095546645637,0
2014-09-29 12:00:00,0.9590118527412416,0.9995585015331367,0
2014-09-30 00:00:00,0.9550622701644896,0.9996084071504969,0
2014-09-30 12:00:00,0.95396888256073,0.9993542305917079,0
2015-07-01 12:00:00,0.623286247253418,0.8670253785191829,0
2015-07-02 00:00:00,0.6545947194099426,0.8532157079295208,0
2015-07-02 12:00:00,0.6085010766983032,0.8461483099273719,0
2015-07-03 00:00:00,0.627521276473999,0.8794380782925327,1
2015-07-03 12:00:00,0.6464465260505676,0.9551371779621908,1
2015-07-04 00:00:00,0.716866135597229,0.9542714889447961,0
2015-07-04 12:00:00,0.7575412392616272,0.9295151978038219,0
2015-07-05 00:00:00,0.5858131647109985,0.9292600226821773,0
2015-07-05 12:00:00,0.6336739659309387,0.9503523270170096,1
2015-07-06 00:00:00,0.6263189315795898,0.9696915257305387,1
2015-07-06 12:00:00,0.5831589102745056,0.9902920444101107,1
2015-07-07 00:00:00,0.6635655164718628,0.9863827374489715,0
2015-07-07 12:00:00,0.6431432366371155,0.9735828017232119,0
2015-07-08 00:00:00,0.7335212826728821,0.9758602793948818,0
2015-07-08 12:00:00,0.730353057384491,0.9703058710562931,0
2015-07-09 12:00:00,0.710337221622467,0.941778310010317,0
2015-07-10 00:00:00,0.6547486782073975,0.9395034304917486,0
2015-07-10 12:00:00,0.7737888097763062,0.9690985007936219,0
2015-07-11 00:00:00,0.717494785785675,0.9388400799294147,0
2015-07-11 12:00:00,0.7283557057380676,0.8741495723350932,0
2015-07-12 00:00:00,0.6597581505775452,0.8984074015113718,0
2015-07-12 12:00:00,0.6928048729896545,0.8260047789787394,0
2015-07-13 00:00:00,0.6616072058677673,0.8307142642879228,0
2015-07-13 12:00:00,0.5782634615898132,0.8222234432700563,0
2015-07-14 00:00:00,0.4847615659236908,0.7160525534922392,0
2015-07-14 12:00:00,0.434365451335907,0.8579567446308478,0
2015-07-15 00:00:00,0.4742231667041778,0.8444925722076396,0
2015-07-16 00:00:00,0.4572834968566894,0.8240615358187843,0
2015-07-16 12:00:00,0.5244487524032593,0.7926962892835052,0
2015-07-17 00:00:00,0.5142924785614014,0.9027022796093567,0
2015-07-17 12:00:00,0.4780109822750091,0.7397826579929849,0
2015-07-18 00:00:00,0.5446870923042297,0.6619255417004155,0
2015-07-18 12:00:00,0.4821076989173889,0.5369775228735965,0
2015-07-19 00:00:00,0.4441919922828674,0.4091659777891852,0
2015-07-19 12:00:00,0.3671666383743286,0.29750379833646357,0
2015-07-20 00:00:00,0.3017172515392303,0.3406987190453691,0
2015-07-20 12:00:00,0.3339959383010864,0.24261195526552648,0
2015-07-21 00:00:00,0.3265489041805267,0.3621976940452514,0
2015-07-21 12:00:00,0.2855413556098938,0.3091538326410225,0
2015-07-22 00:00:00,0.3046096563339233,0.26660803428337043,0
2015-07-22 12:00:00,0.2948185205459595,0.33395491646405295,0
2015-07-23 12:00:00,0.1887797266244888,0.15707575598797308,0
2015-07-24 00:00:00,0.2165983468294143,0.13913674812251053,0
2015-07-24 12:00:00,0.3523188829421997,0.1155410640688257,0
2015-07-25 00:00:00,0.365221619606018,0.37689826386627867,0
2015-07-25 12:00:00,0.4463648796081543,0.2777294433057741,0
2015-07-26 00:00:00,0.3691269159317016,0.48137626986142446,0
2015-07-26 12:00:00,0.4687771499156952,0.6923066807196525,0
2015-07-27 00:00:00,0.3899152874946594,0.6796995329176323,0
2015-07-27 12:00:00,0.4296276569366455,0.7098898386044781,0
2015-07-28 00:00:00,0.4354157149791717,0.7714721612811726,0
2015-07-28 12:00:00,0.5577025413513184,0.6041670540371962,0
2015-07-29 00:00:00,0.6224355697631836,0.6331476536056898,0
2015-07-29 12:00:00,0.7095160484313965,0.4991494406224153,0
2015-07-30 00:00:00,0.7152110934257507,0.6328661711348544,0
2015-07-30 12:00:00,0.7175143361091614,0.6590931215414995,0
2015-07-31 12:00:00,0.6928748488426208,0.5801275671103635,0
2015-08-01 00:00:00,0.630906343460083,0.6878875248128622,0
2015-08-01 12:00:00,0.6617311239242554,0.4810709802098355,0
2015-08-02 00:00:00,0.616584300994873,0.6045618405263746,0
2015-08-02 12:00:00,0.5970275402069092,0.5259559447005988,0
2015-08-03 00:00:00,0.615770697593689,0.6313211361690623,0
2015-08-03 12:00:00,0.6291732788085938,0.5604315195921358,0
2015-08-04 00:00:00,0.6954196095466614,0.6223725192466001,0
2015-08-04 12:00:00,0.7441079020500183,0.7636739907156587,0
2015-08-05 00:00:00,0.7418490648269653,0.7604297367717688,0
2015-08-05 12:00:00,0.7307775020599365,0.8903720297509701,0
2015-08-06 00:00:00,0.6610113382339478,0.8867440245058471,0
2015-08-06 12:00:00,0.5445150136947632,0.8673049840773974,0
2015-08-07 00:00:00,0.4805404543876648,0.891263163181076,0
2015-08-07 12:00:00,0.5436288118362427,0.9241963366045722,0
2015-08-08 00:00:00,0.5439321994781494,0.9344929162537103,0
2015-08-08 12:00:00,0.567027747631073,0.9477690276519869,0
2015-08-09 00:00:00,0.5705580711364746,0.9396046791275396,0
2015-08-09 12:00:00,0.5356618762016296,0.9211527105528126,0
2015-08-10 00:00:00,0.4908429384231567,0.9123134559026991,0
2015-08-10 12:00:00,0.4919080436229706,0.8691425939113334,0
2015-08-11 00:00:00,0.4479447603225708,0.922617124995648,0
2015-08-11 12:00:00,0.4472567737102508,0.9001901488936122,0
2015-08-12 00:00:00,0.4635286331176758,0.8220950096400208,0
2015-08-12 12:00:00,0.4043155014514923,0.7774089117902881,0
2015-08-13 00:00:00,0.3451113998889923,0.7383827202912532,0
2015-08-13 12:00:00,0.5449957847595215,0.29881639087518896,0
2015-08-14 00:00:00,0.6893587112426758,0.714759369357716,0
2015-08-14 12:00:00,0.5836760997772217,0.3443002470620957,0
2015-08-15 00:00:00,0.4162483215332031,0.27851192954671433,0
2015-08-15 12:00:00,0.3777307569980621,0.20008710583730283,0
2015-08-16 00:00:00,0.2686491012573242,0.18954537822028672,0
2015-08-16 12:00:00,0.2863729596138,0.1131233378400448,0
2015-08-17 00:00:00,0.2445463240146637,0.17090954889813736,0
2015-08-17 12:00:00,0.2658526003360748,0.11276640175315156,0
2015-08-18 00:00:00,0.2019228339195251,0.14132708600162058,0
2015-08-18 12:00:00,0.5235974788665771,0.14173829818433736,0
2015-08-19 00:00:00,0.4375416338443756,0.23352983453095488,0
2015-08-19 12:00:00,0.5535569190979004,0.7963551052955437,0
2015-08-20 00:00:00,0.6251844763755798,0.7692512970638484,0
2015-08-20 12:00:00,0.6129471063613892,0.8531467968197207,1
2015-08-21 00:00:00,0.4334657192230224,0.8989278549748508,1
2015-08-21 12:00:00,0.3533809781074524,0.9287089143508492,1
2015-08-22 00:00:00,0.374036431312561,0.9249334082912924,1
2015-08-22 12:00:00,0.4266238212585449,0.9173420536580438,1
2015-08-23 00:00:00,0.4085667729377746,0.9504037366679329,0
2015-08-23 12:00:00,0.427777498960495,0.9493081728671556,1
2015-08-24 00:00:00,0.4320206642150879,0.9625750061119384,1
2015-08-24 12:00:00,0.573517918586731,0.9649821663271724,1
2015-08-25 00:00:00,0.5713200569152832,0.966203139705564,0
2015-08-25 12:00:00,0.5549826622009277,0.9579799891213205,0
2015-08-26 00:00:00,0.5455268025398254,0.9383333518308805,0
2015-08-26 12:00:00,0.6384250521659851,0.9215353831688305,1
2015-08-27 00:00:00,0.5854852795600891,0.9330972679163386,1
2015-08-27 12:00:00,0.5585094690322876,0.9420473949142022,0
2015-08-28 00:00:00,0.6235566139221191,0.941013988547612,1
2015-08-28 12:00:00,0.5269204378128052,0.936864479070263,1
2015-08-29 00:00:00,0.5244715809822083,0.2629300406863986,0
2015-08-29 12:00:00,0.3716794848442077,0.1682117863069893,1
2015-08-30 00:00:00,0.3276213705539703,0.16876042827669446,1
2015-08-30 12:00:00,0.2998004853725433,0.15523861599242028,0
2015-08-31 00:00:00,0.3547195494174957,0.3198747948026289,0
2015-08-31 12:00:00,0.3944204151630401,0.23882082649326097,0
2015-09-01 00:00:00,0.4435883164405823,0.3515532345375082,0
2015-09-01 12:00:00,0.515885591506958,0.16715119190804129,0
2015-09-02 00:00:00,0.5145911574363708,0.2533664197167611,0
2015-09-02 12:00:00,0.3620977699756622,0.0872067737567257,0
2015-09-03 00:00:00,0.288234531879425,0.13164119332525281,0
2015-09-03 12:00:00,0.2965486943721771,0.09819116985851795,0
2015-09-04 00:00:00,0.2643076479434967,0.17053527478710284,0
2015-09-04 12:00:00,0.3217167258262634,0.16039996678314095,0
2015-09-05 00:00:00,0.3568308055400848,0.16977953210370578,0
2015-09-05 12:00:00,0.2700205743312835,0.13516616359560385,0
2015-09-06 00:00:00,0.3014038205146789,0.0865637961419311,0
2015-09-06 12:00:00,0.3905621469020843,0.13373782527966793,0
2015-09-07 00:00:00,0.4645888209342956,0.10163966967780003,0
2015-09-07 12:00:00,0.4708959460258484,0.102130498007454,0
2015-09-08 00:00:00,0.36709925532341,0.15202782565414974,0
2015-09-08 12:00:00,0.4167812466621399,0.10492666659351746,0
2015-09-09 00:00:00,0.3118477165699005,0.06573760529498185,0
2015-09-09 12:00:00,0.332522302865982,0.03896251190502009,0
2015-09-10 00:00:00,0.2319236397743225,0.08709581539830613,0
2015-09-10 12:00:00,0.2051226496696472,0.03896251190502009,0
2015-09-11 00:00:00,0.2352045625448227,0.12446856164549924,0
2015-09-11 12:00:00,0.4513379633426666,0.02936656610787991,0
2015-09-12 00:00:00,0.5589001774787903,0.8154768255363288,0
2015-09-12 12:00:00,0.5577958226203918,0.826416215943497,0
2015-09-13 00:00:00,0.5341859459877014,0.8964592670183408,0
2015-09-13 12:00:00,0.5146559476852417,0.8843412604473851,0
2015-09-14 00:00:00,0.5330835580825806,0.7921831834296402,0
2015-09-14 12:00:00,0.6182927489280701,0.7811456288203622,0
2015-09-15 00:00:00,0.5408948063850403,0.7649534019474957,0
2015-09-15 12:00:00,0.6147797107696533,0.7938815954288838,0
2015-09-16 00:00:00,0.4414368867874145,0.9591633540005259,0
2015-09-16 12:00:00,0.439473420381546,0.7691750036613862,1
2015-09-17 00:00:00,0.3671059906482696,0.9421371297563041,1
2015-09-17 12:00:00,0.4052523672580719,0.7458587903800575,0
2015-09-18 00:00:00,0.4219945967197418,0.939113832934125,0
2015-09-18 12:00:00,0.408608078956604,0.9254987384148544,0
2015-09-19 00:00:00,0.4397338926792145,0.9483849563590183,0
2015-09-19 12:00:00,0.5712006092071533,0.9372021286689585,1
2015-09-20 00:00:00,0.5392135381698608,0.9374152861876727,1
2015-09-20 12:00:00,0.6751541495323181,0.9099341200404206,1
2015-09-21 00:00:00,0.6908617615699768,0.8608422993928045,0
2015-09-21 12:00:00,0.6874438524246216,0.8157103483853395,0
2015-09-22 00:00:00,0.6898726224899292,0.8587340521940342,0
2015-09-22 12:00:00,0.7848204374313354,0.857588023718833,0
2015-09-23 00:00:00,0.8253154158592224,0.9460896741476883,0
2015-09-23 12:00:00,0.7938271164894104,0.9298710519501132,0
2015-09-24 00:00:00,0.7500998377799988,0.8851934403972647,0
2015-09-24 12:00:00,0.6579450964927673,0.8657644596880948,0
2015-09-25 12:00:00,0.7692707180976868,0.9551182444613967,0
2015-09-26 00:00:00,0.8043531775474548,0.9580052517893153,0
2015-09-26 12:00:00,0.7786019444465637,0.9734531628401323,1
2015-09-27 00:00:00,0.7332804799079895,0.9723873923763419,1
2015-09-27 12:00:00,0.7792586088180542,0.9898318356261484,1
2015-09-28 00:00:00,0.7694087624549866,0.9962719599479969,1
2015-09-28 12:00:00,0.7656006217002869,0.975672949010735,1
2015-09-29 00:00:00,0.7573934197425842,0.983223054980785,1
2015-09-29 12:00:00,0.7852982878684998,0.9866111258689227,1
2015-09-30 00:00:00,0.6985113620758057,0.9794418095326247,1
2015-09-30 12:00:00,0.6645898818969727,0.9717110049147921,1
2017-07-01 12:00:00,0.1247943341732025,0.020597444724220648,0
2017-07-02 00:00:00,0.1093067750334739,0.030694892007127605,0
2017-07-02 12:00:00,0.0961485356092453,0.03501311836792298,0
2017-07-04 00:00:00,0.0912782847881317,0.02936656610787991,0
2017-07-04 12:00:00,0.0951829701662063,0.03896251190502009,0
2017-07-05 00:00:00,0.0935639441013336,0.02936656610787991,0
2017-07-05 12:00:00,0.0977940708398819,0.009886271647022937,0
2017-07-07 00:00:00,0.3672850131988525,0.009886271647022937,0
2017-07-07 12:00:00,0.4444300234317779,0.839067959739161,0
2017-07-08 00:00:00,0.4607740938663482,0.8661265952859257,0
2017-07-08 12:00:00,0.5082589983940125,0.8692676927653675,1
2017-07-09 00:00:00,0.4787746071815491,0.8730050826741929,1
2017-07-09 12:00:00,0.4373254477977752,0.9458367840862163,0
2017-07-10 00:00:00,0.3812333345413208,0.9393698068189233,0
2017-07-10 12:00:00,0.3148325383663177,0.9448932401328718,0
2017-07-11 00:00:00,0.2771943211555481,0.9206087259813399,0
2017-07-11 12:00:00,0.3283689618110657,0.9017847765538365,0
2017-07-12 00:00:00,0.4166273176670074,0.9148093863213896,0
2017-07-12 12:00:00,0.4367468059062958,0.8957918336892515,0
2017-07-13 12:00:00,0.5921483635902405,0.92056115147538,1
2017-07-14 00:00:00,0.5007204413414001,0.9458695937375277,1
2017-07-14 12:00:00,0.531514585018158,0.9179034571590604,0
2017-07-15 00:00:00,0.5248801708221436,0.9408280556940998,0
2017-07-15 12:00:00,0.5630343556404114,0.9372778074054785,0
2017-07-16 00:00:00,0.452451080083847,0.9370649260718997,0
2017-07-16 12:00:00,0.4192265272140503,0.9279442370671397,0
2017-07-17 00:00:00,0.2749098837375641,0.926547169478734,0
2017-07-17 12:00:00,0.1493670642375946,0.01967480492696716,0
2017-07-18 00:00:00,0.0989070981740951,0.01967480492696716,0
2017-07-18 12:00:00,0.0870839953422546,0.009886271647022937,0
2017-07-19 00:00:00,0.0887200385332107,0.009886271647022937,0
2017-07-19 12:00:00,0.0917024984955787,0.009886271647022937,0
2017-07-20 12:00:00,0.100049577653408,0.01967480492696716,0
2017-07-21 00:00:00,0.1003416031599044,0.03531593109742559,0
2017-07-21 12:00:00,0.1074040532112121,0.01967480492696716,0
2017-07-22 00:00:00,0.1060738712549209,0.01967480492696716,0
2017-07-22 12:00:00,0.1115878894925117,0.01967480492696716,0
2017-07-23 00:00:00,0.121935062110424,0.01967480492696716,0
2017-07-23 12:00:00,0.1403967887163162,0.02936656610787991,0
2017-07-24 00:00:00,0.1209392771124839,0.01967480492696716,0
2017-07-24 12:00:00,0.1234929040074348,0.01967480492696716,0
2017-07-25 00:00:00,0.1238681226968765,0.01967480492696716,0
2017-07-25 12:00:00,0.1671094298362732,0.01967480492696716,0
2017-07-26 00:00:00,0.1432971656322479,0.036380616681203404,0
2017-07-26 12:00:00,0.1315486431121826,0.03036131593593161,0
2017-07-27 00:00:00,0.1221780255436897,0.0324984664383563,0
2017-07-27 12:00:00,0.1228911653161048,0.02936656610787991,0
2017-07-28 00:00:00,0.1178901419043541,0.029666321035260346,0
2017-07-28 12:00:00,0.1146766170859336,0.009886271647022937,0
2017-07-29 00:00:00,0.1101893931627273,0.009886271647022937,0
2017-07-29 12:00:00,0.1283961534500122,0.01967480492696716,0
2017-07-30 00:00:00,0.1475742012262344,0.01967480492696716,0
2017-07-30 12:00:00,0.1378928869962692,0.02936656610787991,0
2017-07-31 00:00:00,0.1192789822816848,0.01967480492696716,0
2017-07-31 12:00:00,0.1040501594543457,0.009886271647022937,0
2017-08-01 00:00:00,0.0920243263244628,0.010294254635809796,0
2017-08-28 00:00:00,0.2263430804014206,0.14079885167294948,0
2017-08-28 12:00:00,0.1688605993986129,0.10225267006860972,0
2017-08-29 00:00:00,0.1833101958036422,0.24232353668938544,0
2017-08-29 12:00:00,0.3719348311424255,0.2597072633705315,0
2017-08-30 00:00:00,0.4458382725715637,0.2615454714129537,0
2017-08-31 00:00:00,0.6129018068313599,0.43932492883673757,0
2017-08-31 12:00:00,0.6309827566146851,0.3691290214799898,0
2017-09-01 00:00:00,0.6196421980857849,0.7289841971472539,0
2017-09-01 12:00:00,0.5339854955673218,0.7640283611617061,0
2017-09-02 00:00:00,0.4693194627761841,0.9184143557833186,0
2017-09-02 12:00:00,0.4441701471805572,0.9124922856497573,0
2017-09-03 00:00:00,0.6399577260017395,0.903022271198592,0
2017-09-03 12:00:00,0.7198116183280945,0.9161556091337489,1
2017-09-04 00:00:00,0.7901355028152466,0.9907846752231432,1
2017-09-04 12:00:00,0.8165146708488464,0.9906972946281242,1
2017-09-05 00:00:00,0.7568619251251221,0.9925587449601179,1
2017-09-05 12:00:00,0.7582750916481018,0.8210055986463701,1
2017-09-06 00:00:00,0.7290784120559692,0.9936873574806794,1
2017-09-06 12:00:00,0.794938325881958,0.24514958343721094,1
2017-09-07 00:00:00,0.8317007422447205,0.9939424876404789,1
2017-09-07 12:00:00,0.87428218126297,0.06646778281128796,1
2017-09-08 00:00:00,0.8776504993438721,0.995236367601182,1
2017-09-08 12:00:00,0.8558492064476013,0.9958255747838991,1
2017-09-09 00:00:00,0.7529574036598206,0.9942514104653475,1
2017-09-09 12:00:00,0.5426040291786194,0.8065591637654856,1
2017-09-10 00:00:00,0.3293114602565765,0.7186769461668976,1
2017-09-10 12:00:00,0.3028086125850677,0.6960255747327572,1
2017-09-11 00:00:00,0.3021358251571655,0.033054635189067594,0
2017-09-11 12:00:00,0.2407058328390121,0.06106842873046969,0
2017-09-12 00:00:00,0.2459116727113723,0.18727975630701488,0
2017-09-12 12:00:00,0.3237598538398742,0.1406172471979097,0
2017-09-13 00:00:00,0.308268666267395,0.1185780699257799,0
2017-09-13 12:00:00,0.2050857245922088,0.0934897182431379,0
2017-09-14 00:00:00,0.1549409478902816,0.0898408261831174,0
2017-09-14 12:00:00,0.1277134120464325,0.07877887027470887,0
2017-09-15 00:00:00,0.1255452781915664,0.04377484596681447,0
2017-09-15 12:00:00,0.1292451918125152,0.05968525682835191,0
2017-09-16 00:00:00,0.1825708150863647,0.055135340692737844,0
2017-09-16 12:00:00,0.1390557140111923,0.07268097546137076,0
2017-09-17 00:00:00,0.1148006841540336,0.06098455220685717,0
2017-09-17 12:00:00,0.1187734827399253,0.053946435471248555,0
2017-09-18 00:00:00,0.1240286007523536,0.033199639829252,0
2017-09-18 12:00:00,0.1483184546232223,0.030463855302780507,0
2017-09-19 00:00:00,0.1548013389110565,0.030463855302780507,0
2017-09-19 12:00:00,0.1646313220262527,0.04042662410295483,0
2017-09-20 00:00:00,0.1755128651857376,0.05426099049040656,0
2017-09-20 12:00:00,0.1351767778396606,0.05094985658201956,0
2017-09-21 00:00:00,0.1469027996063232,0.052564521723838964,0
2017-09-21 12:00:00,0.1470677256584167,0.04407157387943039,0
2017-09-22 00:00:00,0.1626300811767578,0.02936656610787991,0
2017-09-22 12:00:00,0.1595856249332428,0.12378252648871257,0
2017-09-23 00:00:00,0.1575934886932373,0.21041619929202038,0
2017-09-23 12:00:00,0.1721671968698501,0.18671501986623307,0
2017-09-24 00:00:00,0.1571664959192276,0.18088557315842868,0
2017-09-24 12:00:00,0.148947924375534,0.2015699086629641,0
2017-09-25 00:00:00,0.260296106338501,0.2783705007938583,0
2017-09-25 12:00:00,0.3428769111633301,0.23363110930758968,0
2017-09-26 00:00:00,0.409877061843872,0.6157329014965537,0
2017-09-26 12:00:00,0.425565242767334,0.712944628327101,0
2017-09-27 00:00:00,0.4309464991092682,0.6528710864633736,0
2017-09-27 12:00:00,0.4715449810028076,0.6307505024164053,0
2017-09-28 00:00:00,0.4944903552532196,0.8539933539943362,0
2017-09-28 12:00:00,0.5286927819252014,0.8216824882567535,0
2017-09-29 00:00:00,0.4701026380062103,0.8348648814454959,0
2017-09-29 12:00:00,0.4567003846168518,0.7258095097767445,0
2017-09-30 00:00:00,0.4010060131549835,0.6570708369848538,0
2017-09-30 12:00:00,0.5058730840682983,0.7022911564472168,0
2018-07-10 12:00:00,0.1304124444723129,0.22474186466778423,0
2018-07-11 00:00:00,0.1567261815071106,0.22918722573650652,0
2018-07-11 12:00:00,0.1466927677392959,0.14844987135863918,0
2018-07-12 12:00:00,0.2135627120733261,0.1527052716720898,0
2018-07-13 00:00:00,0.1390065550804138,0.10722920977364891,0
2018-07-13 12:00:00,0.1713402867317199,0.1369961476533299,0
2018-07-14 00:00:00,0.1502261161804199,0.10513726732953765,0
2018-07-14 12:00:00,0.2073103338479995,0.07209769210537198,0
2018-07-15 00:00:00,0.1869799494743347,0.10751898824041706,0
2018-07-15 12:00:00,0.2096560895442962,0.10869078827444656,0
2018-07-16 00:00:00,0.1604771316051483,0.12047261350848304,0
2018-07-16 12:00:00,0.2070899903774261,0.12544704986739008,0
2018-07-17 00:00:00,0.1666834503412246,0.08866315268796177,0
2018-07-17 12:00:00,0.2015204429626464,0.22764361114824805,0
2018-07-18 00:00:00,0.1709175407886505,0.08737650312138634,0
2018-07-18 12:00:00,0.1186613887548446,0.1389058277611459,0
2018-07-19 00:00:00,0.0970479100942611,0.09660410282890441,0
2018-07-19 12:00:00,0.095174066722393,0.03157030790768722,0
2018-07-20 00:00:00,0.0875439345836639,0.012372175290021215,0
2018-07-21 00:00:00,0.0916659235954284,0.027313874153122142,0
2018-07-21 12:00:00,0.0926306545734405,0.01967480492696716,0
2018-07-22 00:00:00,0.0827734321355819,0.009886271647022937,0
2018-07-22 12:00:00,0.0826397985219955,0.009886271647022937,0
2018-07-23 00:00:00,0.0800032317638397,0.009886271647022937,0
2018-07-23 12:00:00,0.0809674486517906,0.009886271647022937,0
2018-07-24 00:00:00,0.0791599303483963,0.009886271647022937,0
2018-07-24 12:00:00,0.0798055753111839,0.009886271647022937,0
2018-07-31 00:00:00,0.0879881381988525,0.01557887411382064,0
2018-08-05 12:00:00,0.1163461655378341,0.009886271647022937,0
2018-08-06 00:00:00,0.116322323679924,0.022855517199736997,0
2018-08-06 12:00:00,0.1377902776002884,0.04702907326976524,0
2018-08-07 00:00:00,0.1615666896104812,0.032286359119028774,0
2018-08-07 12:00:00,0.1602498888969421,0.03138308645439947,0
2018-08-08 00:00:00,0.1307703852653503,0.02936656610787991,0
2018-08-08 12:00:00,0.1208688244223594,0.02936656610787991,0
2018-08-09 12:00:00,0.1219996064901351,0.01967480492696716,0
2018-08-10 00:00:00,0.1037995219230651,0.01967480492696716,0
2018-08-10 12:00:00,0.1153180003166198,0.01967480492696716,0
2018-08-11 00:00:00,0.1056707873940467,0.01967480492696716,0
2018-08-11 12:00:00,0.1166072785854339,0.01967480492696716,0
2018-08-12 00:00:00,0.1161228567361831,0.01967480492696716,0
2018-08-12 12:00:00,0.1042110323905944,0.01967480492696716,0
2018-08-13 00:00:00,0.0963307246565818,0.02018349823443999,0
2018-08-13 12:00:00,0.0978263318538665,0.01967480492696716,0
2018-08-14 00:00:00,0.090127907693386,0.009886271647022937,0
2018-08-14 12:00:00,0.1068197786808013,0.22227924989278525,0
2018-08-15 00:00:00,0.1016291007399559,0.03040084322702752,0
2018-08-15 12:00:00,0.1034803092479705,0.05084479684228094,0
2018-08-16 00:00:00,0.120085097849369,0.022811743786212646,0
2018-08-17 00:00:00,0.0950904488563537,0.019150553123320813,0
