timestamp,fd_prob,aggregated_prob,target
2010-12-07 00:00:00,0.0637750178575515,0.6985879902254608,0
2010-12-07 12:00:00,0.0662067309021949,0.6979176450536811,0
2010-12-08 00:00:00,0.0609910041093826,0.687693747802385,0
2010-12-08 12:00:00,0.0629523247480392,0.666699624104044,0
2010-12-09 00:00:00,0.0579490810632705,0.6669597904282004,0
2010-12-10 12:00:00,0.1239546537399292,0.6561704628604497,0
2010-12-11 00:00:00,0.1410224139690399,0.7335190776290479,0
2010-12-11 12:00:00,0.1399797201156616,0.7349999957630692,0
2010-12-12 00:00:00,0.1970774084329605,0.7140982613009245,0
2010-12-12 12:00:00,0.2299253046512603,0.7207457189568549,0
2010-12-13 00:00:00,0.2251955419778823,0.7328952845546017,0
2010-12-13 12:00:00,0.1614128053188324,0.6820882349695742,0
2010-12-14 00:00:00,0.1065769866108894,0.2879542014063057,0
2010-12-14 12:00:00,0.0840479880571365,0.2515638476203541,0
2010-12-15 00:00:00,0.0914134681224823,0.3094596719541651,0
2010-12-15 12:00:00,0.0711584985256195,0.21476248931231567,0
2010-12-16 00:00:00,0.0560915358364582,0.1661691840553985,0
2010-12-16 12:00:00,0.0491180047392845,0.1342792042896166,0
2010-12-17 00:00:00,0.0461254678666591,0.07185822690027543,0
2010-12-17 12:00:00,0.0444997288286685,0.10606201928804371,0
2010-12-18 00:00:00,0.0452180318534374,0.03724179640334602,0
2010-12-18 12:00:00,0.046848140656948,0.04191101586638968,0
2010-12-19 00:00:00,0.0481053665280342,0.03574479340187342,0
2010-12-19 12:00:00,0.0493346825242042,0.030206151763148337,0
2010-12-20 00:00:00,0.04884535074234,0.05510845361506933,0
2010-12-20 12:00:00,0.0490713343024253,0.048501065908468144,0
2010-12-21 00:00:00,0.0502682775259017,0.04388181121693213,0
2010-12-21 12:00:00,0.0498659089207649,0.04315807975361774,0
2010-12-22 00:00:00,0.0500456355512142,0.042712908515380676,0
2010-12-22 12:00:00,0.0525402314960956,0.04903418931765713,0
2010-12-23 00:00:00,0.0514734536409378,0.03266002449074712,0
2010-12-23 12:00:00,0.0518994778394699,0.02729171971061417,0
2010-12-24 00:00:00,0.0561132133007049,0.03155540782323729,0
2010-12-24 12:00:00,0.0546770356595516,0.04947773469555794,0
2010-12-25 00:00:00,0.0566640719771385,0.02189362323682431,0
2010-12-25 12:00:00,0.0602499172091484,0.01646556973878499,0
2010-12-26 00:00:00,0.0795866772532463,0.0853997644890957,0
2010-12-26 12:00:00,0.0515386573970317,0.03740039275123985,0
2010-12-27 00:00:00,0.0449896790087223,0.03303741744321387,0
2010-12-27 12:00:00,0.04856438934803,0.05744898460062842,0
2010-12-28 00:00:00,0.0512640886008739,0.25383710034759976,0
2010-12-28 12:00:00,0.0561144314706325,0.20975442324004212,0
2010-12-29 00:00:00,0.0528858564794063,0.15434735813546618,0
2010-12-29 12:00:00,0.0542136877775192,0.07217306657881473,0
2010-12-30 00:00:00,0.0538209788501262,0.04967304294356123,0
2010-12-30 12:00:00,0.0585161112248897,0.07243478245684964,0
2010-12-31 00:00:00,0.0573499947786331,0.03740039275123985,0
2010-12-31 12:00:00,0.0586795061826705,0.4801498202583576,0
2011-10-02 00:00:00,0.7925360202789307,0.9846725573181747,1
2011-10-02 12:00:00,0.7131422162055969,0.9834695711778374,1
2011-10-03 00:00:00,0.6051218509674072,0.9817841621923781,0
2011-10-03 12:00:00,0.6143733263015747,0.9756117246694254,0
2011-10-04 00:00:00,0.4919688403606415,0.8883783223439121,0
2011-10-04 12:00:00,0.5680397152900696,0.08435220250685593,0
2011-10-05 00:00:00,0.4759222567081451,0.9288332704177894,0
2011-10-05 12:00:00,0.5262534618377686,0.9077048496015061,0
2011-10-06 00:00:00,0.6656191945075989,0.9111051786297921,0
2011-10-06 12:00:00,0.5903579592704773,0.8911684377100976,0
2011-10-07 12:00:00,0.4516178369522095,0.7706420292860383,0
2011-10-08 00:00:00,0.4529655873775482,0.7836968115691358,0
2011-10-08 12:00:00,0.5701181888580322,0.7282720464235406,0
2011-10-09 00:00:00,0.3505021333694458,0.687108029756659,0
2011-10-09 12:00:00,0.3505021631717682,0.5960444769322688,0
2011-10-10 00:00:00,0.350502073764801,0.6873169003418367,0
2011-10-11 00:00:00,0.4887060821056366,0.8379800447718071,0
2011-10-11 12:00:00,0.6520426869392395,0.7409968763931623,0
2011-10-12 00:00:00,0.6735134124755859,0.9793635022201409,0
2011-10-12 12:00:00,0.7187651991844177,0.9915747641362977,0
2011-10-13 00:00:00,0.7636092901229858,0.9901459486738794,0
2011-10-13 12:00:00,0.7346537113189697,0.8912880645752289,0
2011-10-14 00:00:00,0.6731600761413574,0.9948840074647977,0
2011-10-14 12:00:00,0.6720695495605469,0.9955154834872643,0
2011-10-15 00:00:00,0.6074084043502808,0.9968932357088505,0
2011-10-15 12:00:00,0.7779035568237305,0.9938605693861017,0
2011-10-16 00:00:00,0.8048071265220642,0.9869217458674666,0
2011-10-16 12:00:00,0.8322766423225403,0.9684778091545349,0
2011-10-17 00:00:00,0.8886818885803223,0.98488574161236,0
2011-10-17 12:00:00,0.7521568536758423,0.9366204180167839,0
2011-10-18 00:00:00,0.7890051603317261,0.9708168380192969,0
2011-10-18 12:00:00,0.8473172783851624,0.9812396544335318,0
2011-10-19 00:00:00,0.8465948104858398,0.9695878255305338,0
2011-10-20 12:00:00,0.9466063976287842,0.9949730717998104,0
2011-10-21 00:00:00,0.9445565938949584,0.9991575272442837,1
2011-10-21 12:00:00,0.9178428053855896,0.9975810036050926,1
2011-10-22 00:00:00,0.912096917629242,0.968933830559436,1
2011-10-22 12:00:00,0.8648737668991089,0.9504744130525546,0
2011-10-23 00:00:00,0.8543422222137451,0.9677199830646653,0
2011-10-23 12:00:00,0.920546531677246,0.968688184146172,0
2011-10-24 00:00:00,0.9118983149528505,0.9873509106890614,0
2011-10-24 12:00:00,0.9253342151641846,0.9879110828633283,0
2011-10-25 00:00:00,0.8614284992218018,0.9860175231883516,0
2011-10-25 12:00:00,0.8628847002983093,0.9766013881549954,0
2011-10-26 00:00:00,0.7873828411102295,0.979315551119412,0
2011-10-26 12:00:00,0.768928587436676,0.9747465307389421,0
2011-10-27 00:00:00,0.6491310596466064,0.9664369290788252,0
2011-10-27 12:00:00,0.6283710598945618,0.7683528405140051,0
2011-10-28 00:00:00,0.7346827387809753,0.9816574561239512,0
2011-10-28 12:00:00,0.7901139855384827,0.9758341731001967,0
2011-10-29 00:00:00,0.6456354260444641,0.9686315862907546,0
2011-10-29 12:00:00,0.4712882041931152,0.9690189530176819,0
2011-10-30 00:00:00,0.3999940454959869,0.9494966173024924,0
2011-10-30 12:00:00,0.5925687551498413,0.9758376477829495,0
2011-10-31 00:00:00,0.5814486145973206,0.9057474354534025,1
2011-10-31 12:00:00,0.6408863663673401,0.9164739849838145,1
2011-11-01 00:00:00,0.4803408980369568,0.9600909773939166,0
2011-11-01 12:00:00,0.5944452285766602,0.9441680483161499,0
2011-11-02 00:00:00,0.7867910265922546,0.9082987132686775,1
2011-11-02 12:00:00,0.8456028699874878,0.8553268723555236,1
2011-11-03 00:00:00,0.8335790634155273,0.5304327889636864,1
2011-11-03 12:00:00,0.8483452796936035,0.46467364662056176,1
2011-11-04 00:00:00,0.8320050835609436,0.9501231935340991,1
2011-11-05 00:00:00,0.8549358248710632,0.9911608782483223,1
2011-11-05 12:00:00,0.845714807510376,0.9917542523927255,1
2011-11-06 00:00:00,0.8190123438835144,0.9917797060153009,1
2011-11-06 12:00:00,0.8920643329620361,0.991493728832886,0
2011-11-07 00:00:00,0.8903393149375916,0.994584006034674,0
2011-11-07 12:00:00,0.8912138342857361,0.9982940072864955,0
2011-11-08 00:00:00,0.9007473587989808,0.9988742670557962,0
2011-11-08 12:00:00,0.903616189956665,0.9991584146710637,0
2011-11-09 00:00:00,0.8144452571868896,0.9993689159018168,1
2011-11-09 12:00:00,0.7249805927276611,0.9990231316717245,1
2011-11-10 00:00:00,0.723552942276001,0.9992420545806084,0
2011-11-10 12:00:00,0.723552942276001,0.9990823375498357,0
2011-11-12 00:00:00,0.8355276584625244,0.9982242590305297,0
2011-11-12 12:00:00,0.8089480996131897,0.997725661914596,0
2011-11-13 00:00:00,0.8089480996131897,0.9967877480946513,0
2011-11-14 00:00:00,0.7418443560600281,0.9953930186329547,0
2011-11-14 12:00:00,0.6953226923942566,0.970331120791637,1
2011-11-15 00:00:00,0.6934032440185547,0.9750388256974328,1
2011-11-15 12:00:00,0.6868336200714111,0.979100292594592,1
2011-11-16 00:00:00,0.5571813583374023,0.9795840572524426,0
2011-11-16 12:00:00,0.4722797572612762,0.9471951483238167,0
2011-11-17 00:00:00,0.4031908810138702,0.9326595537005036,0
2011-11-17 12:00:00,0.3472825288772583,0.6255472582349398,0
2011-11-18 00:00:00,0.3985296785831451,0.7992234644736267,0
2011-11-18 12:00:00,0.5680053234100342,0.7963179860264845,0
2011-11-19 00:00:00,0.5158592462539673,0.9716411599496586,0
2011-11-19 12:00:00,0.4612089991569519,0.9726550296763353,0
2011-11-20 00:00:00,0.4381949603557586,0.9723805468576016,0
2011-11-20 12:00:00,0.5941492915153503,0.9951738260386775,0
2011-11-21 00:00:00,0.5941492319107056,0.9913766397777474,0
2011-11-21 12:00:00,0.5941492319107056,0.9867053714536005,0
2011-11-22 00:00:00,0.5941492319107056,0.9907974871735451,0
2011-11-22 12:00:00,0.5941492915153503,0.9865785563583459,0
2011-11-23 00:00:00,0.5941492319107056,0.9893981379380826,0
2011-11-23 12:00:00,0.5941492319107056,0.9825744451613053,0
2011-11-24 00:00:00,0.5941493511199951,0.9763364490495074,0
2011-11-24 12:00:00,0.5941492319107056,0.9747413459373195,0
2011-11-25 00:00:00,0.5941492915153503,0.9913060072396337,0
2011-11-25 12:00:00,0.5941493511199951,0.9804007227937073,0
2011-11-26 00:00:00,0.5941492319107056,0.9813443598283337,0
2011-11-26 12:00:00,0.5941492319107056,0.9709382231438778,0
2011-11-27 00:00:00,0.5941493511199951,0.9659425432966388,0
2011-11-27 12:00:00,0.5941492319107056,0.9568755159550262,0
2011-12-05 00:00:00,0.7593216896057129,0.9926537951667905,0
2011-12-05 12:00:00,0.76287841796875,0.9934343498555648,0
2011-12-06 00:00:00,0.7628783583641052,0.9902911149030419,0
2011-12-06 12:00:00,0.7628782987594604,0.9891223578786881,0
2011-12-08 00:00:00,0.5430654287338257,0.9910834143025894,0
2011-12-08 12:00:00,0.6134356260299683,0.9943924994347818,0
2011-12-09 00:00:00,0.7826820611953735,0.9911454291470804,0
2011-12-09 12:00:00,0.848588764667511,0.9907740812629489,0
2011-12-10 00:00:00,0.8296350836753845,0.9938737893866151,0
2011-12-10 12:00:00,0.7644727230072021,0.9915609588161132,0
2011-12-11 00:00:00,0.6758430600166321,0.9380631346985383,0
2011-12-11 12:00:00,0.5330290794372559,0.9298635626467437,0
2011-12-12 00:00:00,0.4132369458675384,0.9185477266616021,0
2011-12-12 12:00:00,0.3443478643894195,0.4135504879891524,0
2011-12-13 00:00:00,0.279949277639389,0.7214656200434029,0
2011-12-13 12:00:00,0.3285337090492248,0.8791830027446988,0
2011-12-14 00:00:00,0.3707469999790191,0.8631626608985357,0
2011-12-14 12:00:00,0.3982962369918823,0.8939360121942534,0
2011-12-15 00:00:00,0.2508888840675354,0.884375345483601,0
2011-12-15 12:00:00,0.2289908528327942,0.8768801826378645,0
2011-12-16 00:00:00,0.2121036201715469,0.8949780323303632,0
2011-12-17 00:00:00,0.220883771777153,0.8914929909629938,0
2011-12-17 12:00:00,0.1885560005903244,0.853415825436697,0
2011-12-18 00:00:00,0.3070344626903534,0.8985111931508142,0
2011-12-18 12:00:00,0.4598924517631531,0.899493533877681,0
2011-12-19 00:00:00,0.6039900183677673,0.9491794646541418,0
2011-12-19 12:00:00,0.4946236312389374,0.9085616106524478,0
2011-12-20 00:00:00,0.3703689277172088,0.8735901808515194,0
2011-12-20 12:00:00,0.7445486783981323,0.9291308888892987,0
2011-12-21 00:00:00,0.8580031991004944,0.9598967103273499,0
2011-12-21 12:00:00,0.8895457983016968,0.9952771499338171,0
2011-12-22 00:00:00,0.7996113896369934,0.9934234026922196,0
2011-12-22 12:00:00,0.7828433513641357,0.9962860575900416,0
2011-12-23 00:00:00,0.7286669611930847,0.9935326425816159,0
2011-12-24 00:00:00,0.4700712561607361,0.8903229392456868,0
2011-12-24 12:00:00,0.4268185198307037,0.9134912700091438,0
2011-12-25 12:00:00,0.691903293132782,0.9808511340768444,1
2011-12-26 00:00:00,0.7259773015975952,0.9886818774984079,1
2011-12-26 12:00:00,0.6890398263931274,0.9917692927177225,1
2011-12-27 00:00:00,0.7092778086662292,0.9817110915630142,0
2011-12-27 12:00:00,0.7144424915313721,0.9887360800656186,0
2011-12-28 00:00:00,0.6287583708763123,0.9776562313477347,0
2011-12-28 12:00:00,0.7396976947784424,0.9828539810949555,0
2011-12-29 00:00:00,0.827372670173645,0.9747795157481189,1
2011-12-29 12:00:00,0.8208489418029785,0.9101179968975381,1
2011-12-30 00:00:00,0.7733011245727539,0.9891751641132766,1
2011-12-30 12:00:00,0.6904321312904358,0.9793788120133845,0
2011-12-31 00:00:00,0.6367961168289185,0.9815481232567997,1
2011-12-31 12:00:00,0.5430120825767517,0.9183539883655895,1
2012-10-01 12:00:00,0.3046680688858032,0.6909364900365049,0
2012-10-02 00:00:00,0.3593259155750274,0.8777509414153278,0
2012-10-02 12:00:00,0.3677434921264648,0.8576220709479093,0
2012-10-03 00:00:00,0.5465947985649109,0.8840482807411262,0
2012-10-03 12:00:00,0.7040101289749146,0.9266322639939796,0
2012-10-04 00:00:00,0.700940728187561,0.8920264829902698,0
2012-10-05 00:00:00,0.6311872005462646,0.9627091766340512,0
2012-10-05 12:00:00,0.6038475632667542,0.9395250404402777,0
2012-10-06 00:00:00,0.4859200417995453,0.8563477286359111,0
2012-10-06 12:00:00,0.4035545885562897,0.8029184531856237,0
2012-10-07 00:00:00,0.245604857802391,0.6330000984737172,0
2012-10-07 12:00:00,0.1667933464050293,0.5890899621323689,1
2012-10-08 12:00:00,0.1970480233430862,0.579382185571755,0
2012-10-09 00:00:00,0.1530930995941162,0.7171034283191913,1
2012-10-10 12:00:00,0.57328200340271,0.7509130026113429,0
2012-10-11 00:00:00,0.6091414093971252,0.7758506590426173,0
2012-10-12 12:00:00,0.60914146900177,0.26492330998235614,0
2012-10-17 12:00:00,0.5122825503349304,0.9723255289580437,0
2012-10-18 12:00:00,0.6336513161659241,0.9530373781318562,0
2012-10-19 00:00:00,0.7012214064598083,0.9575360438954352,0
2012-10-19 12:00:00,0.7365862131118774,0.953346016386515,0
2012-10-20 00:00:00,0.7797473669052124,0.9854967504415134,1
2012-10-20 12:00:00,0.8604601621627808,0.9853417462969737,1
2012-10-21 00:00:00,0.8256531357765198,0.9589041906245286,1
2012-10-21 12:00:00,0.7865003943443298,0.9313866322353473,1
2012-10-22 00:00:00,0.8816992044448853,0.9456575661967099,1
2012-10-23 12:00:00,0.8376322388648987,0.9905365161934748,0
2012-10-24 00:00:00,0.8518763780593872,0.9922973500483127,0
2012-10-24 12:00:00,0.8490485548973083,0.9869337454565659,0
2012-10-25 00:00:00,0.8547572493553162,0.9842788923918778,0
2012-10-25 12:00:00,0.7872010469436646,0.9824574586450207,0
2012-10-26 12:00:00,0.8465322256088257,0.9536515276857372,0
2012-10-27 00:00:00,0.7977641224861145,0.9070455880750231,0
2012-10-27 12:00:00,0.7591192722320557,0.85944887199238,0
2012-10-28 00:00:00,0.7219876050949097,0.8442551762350369,0
2012-10-28 12:00:00,0.6494383215904236,0.8469785944208569,0
2012-10-29 00:00:00,0.6321371793746948,0.8418051708565715,0
2012-10-29 12:00:00,0.578586757183075,0.7785608920063752,0
2012-10-30 00:00:00,0.4827071130275726,0.6457065045258035,0
2012-10-30 12:00:00,0.5019143223762512,0.6295777967159993,0
2012-10-31 00:00:00,0.4962292909622192,0.773370544543406,0
2012-10-31 12:00:00,0.5805784463882446,0.746210117999889,0
2012-11-01 00:00:00,0.4689885377883911,0.7437540229407256,0
2012-11-01 12:00:00,0.2523641288280487,0.6847317076671828,0
2012-11-02 00:00:00,0.1812160164117813,0.35851323656432155,0
2012-11-02 12:00:00,0.2406673580408096,0.3407319293300548,0
2012-11-03 00:00:00,0.1721240729093551,0.3194163575043264,0
2012-11-03 12:00:00,0.1469874083995819,0.393084558500181,0
2012-11-04 00:00:00,0.1178397238254547,0.22676577306289325,0
2012-11-04 12:00:00,0.1205129101872444,0.13255336247779714,0
2012-11-05 00:00:00,0.0846345424652099,0.14505017430565936,0
2012-11-06 00:00:00,0.1150001883506774,0.29511339953838456,0
2012-11-06 12:00:00,0.1361640095710754,0.3153348790196433,0
2012-11-07 00:00:00,0.1787702292203903,0.4093233452282321,0
2012-11-07 12:00:00,0.2330390810966491,0.412718001164073,1
2012-11-08 00:00:00,0.2310602366924286,0.4384729695544798,1
2012-11-08 12:00:00,0.220074862241745,0.46527237016476,0
2012-11-09 00:00:00,0.2762079238891601,0.46739519934392426,0
2012-11-09 12:00:00,0.3123263120651245,0.3986115950600366,0
2012-11-10 00:00:00,0.2962811887264251,0.8725783398955999,0
2012-11-10 12:00:00,0.363858014345169,0.857613500163187,1
2012-11-11 00:00:00,0.3863086402416229,0.8975419679146365,1
2012-11-11 12:00:00,0.5452050566673279,0.8735281850028418,0
2012-11-12 00:00:00,0.810141921043396,0.9358433216014221,1
2012-11-12 12:00:00,0.8617669343948364,0.988455885014499,1
2012-11-13 00:00:00,0.8815156817436218,0.9991191065196426,1
2012-11-13 12:00:00,0.9117316007614136,0.998417550817531,1
2012-11-14 00:00:00,0.8965474367141724,0.9991732157041292,1
2012-11-14 12:00:00,0.7990773916244507,0.9970239288700686,0
2012-11-15 00:00:00,0.7696200609207153,0.9972310730722607,0
2012-11-15 12:00:00,0.7811245918273926,0.9957905313649965,0
2012-11-16 00:00:00,0.7132840156555176,0.9911882310833743,0
2012-11-17 12:00:00,0.552834153175354,0.9643654987129942,0
2012-11-18 00:00:00,0.549272894859314,0.9482688658663635,0
2012-11-18 12:00:00,0.5793580412864685,0.9757588181514427,0
2012-11-19 00:00:00,0.5956637263298035,0.9806560103809302,0
2012-11-19 12:00:00,0.6244907379150391,0.9546848506733838,0
2012-11-20 00:00:00,0.7632110118865967,0.9754005301195208,1
2012-11-20 12:00:00,0.8268036246299744,0.9802866756344225,1
2012-11-21 00:00:00,0.822668731212616,0.9783548891973223,1
2012-11-21 12:00:00,0.7886219620704651,0.9889484147997907,1
2012-11-22 00:00:00,0.8278595209121704,0.988778722215472,0
2012-11-22 12:00:00,0.8424115777015686,0.9475476957257283,0
2012-11-23 00:00:00,0.727992057800293,0.9232895052682029,0
2012-11-24 12:00:00,0.4902721345424652,0.9070599169308874,0
2012-11-25 00:00:00,0.3882687985897064,0.8961147846229321,0
2012-11-25 12:00:00,0.4695594608783722,0.8926703190643068,0
2012-11-26 00:00:00,0.5136154890060425,0.9532274466875257,0
2012-11-26 12:00:00,0.5929060578346252,0.9514433694664179,0
2012-11-27 00:00:00,0.4977264702320099,0.9626133940018948,1
2012-11-27 12:00:00,0.5012863278388977,0.8812559218041077,1
2012-11-28 00:00:00,0.4464842975139618,0.9241576412773094,1
2012-11-28 12:00:00,0.6664614677429199,0.8984535001372336,1
2012-11-29 00:00:00,0.6909784078598022,0.9240990458054511,0
2012-11-29 12:00:00,0.673525869846344,0.9756038540738213,0
2012-12-01 12:00:00,0.1707109957933426,0.7869657321642061,0
2012-12-02 00:00:00,0.0980000719428062,0.6340517347022832,0
2012-12-02 12:00:00,0.0861543864011764,0.6611621154199799,0
2012-12-03 00:00:00,0.108921580016613,0.5915243430541095,0
2012-12-03 12:00:00,0.1518491506576538,0.4544268103898733,0
2012-12-04 00:00:00,0.1930718123912811,0.5373288967460742,0
2012-12-04 12:00:00,0.1511852145195007,0.40625164380603374,0
2012-12-05 00:00:00,0.1518325358629226,0.4919434833579912,0
2012-12-05 12:00:00,0.1657084226608276,0.5329178661371314,0
2012-12-06 00:00:00,0.1944847851991653,0.6950651868020207,0
2012-12-06 12:00:00,0.1795271933078766,0.5686174766140072,0
2012-12-07 00:00:00,0.1221530809998512,0.6004483792676265,0
2012-12-07 12:00:00,0.1779874265193939,0.42634951740720983,0
2012-12-08 00:00:00,0.1422122567892074,0.4834775434527748,0
2012-12-08 12:00:00,0.162467747926712,0.619802782861069,0
2012-12-09 00:00:00,0.1208755001425743,0.4678092632429426,0
2012-12-09 12:00:00,0.0951914563775062,0.38011036349374183,0
2012-12-10 00:00:00,0.0880982130765914,0.4714842364877613,0
2012-12-10 12:00:00,0.1503895372152328,0.4415202396006682,0
2012-12-11 00:00:00,0.1812974214553833,0.4835813345473151,0
2012-12-11 12:00:00,0.1962624490261078,0.3546466608810941,0
2012-12-12 00:00:00,0.2279750108718872,0.7003227394271763,0
2012-12-12 12:00:00,0.2893065214157104,0.7200125313614391,0
2012-12-13 00:00:00,0.2136504650115966,0.7347734265532729,0
2012-12-13 12:00:00,0.2272637784481048,0.7210560190838563,0
2012-12-14 00:00:00,0.3589033186435699,0.7813479474011393,0
2012-12-14 12:00:00,0.5077577233314514,0.7976486983468374,0
2012-12-15 00:00:00,0.4346569776535034,0.809445815895055,0
2012-12-15 12:00:00,0.5601053237915039,0.8943483433084749,0
2012-12-16 00:00:00,0.546269953250885,0.8487630303929615,0
2012-12-16 12:00:00,0.6339827179908752,0.7571429007508365,0
2012-12-17 00:00:00,0.657328188419342,0.9591972582594088,0
2012-12-17 12:00:00,0.5750632882118225,0.9730291911699356,0
2012-12-18 00:00:00,0.679517388343811,0.9011043189643078,0
2012-12-18 12:00:00,0.4557684957981109,0.8991391118298979,0
2012-12-19 00:00:00,0.4801492989063263,0.8944407581444002,0
2012-12-19 12:00:00,0.4750606417655945,0.8438939841297911,0
2012-12-20 00:00:00,0.5821583867073059,0.86198459380633,0
2012-12-20 12:00:00,0.4375406801700592,0.9317633557553664,0
2012-12-21 00:00:00,0.5298816561698914,0.9196126196265252,0
2012-12-21 12:00:00,0.5235452055931091,0.9226866184947494,0
2012-12-22 00:00:00,0.5349311828613281,0.9713548483142797,0
2012-12-22 12:00:00,0.2673097848892212,0.9700956121523227,0
2012-12-23 00:00:00,0.5179011225700378,0.9881689258409413,0
2012-12-23 12:00:00,0.3413006961345672,0.9670702097472946,0
2012-12-24 00:00:00,0.3582147061824798,0.964543515087229,0
2012-12-24 12:00:00,0.4147165417671203,0.9314423006656147,0
2012-12-25 00:00:00,0.4182908833026886,0.9317464240563172,0
2012-12-25 12:00:00,0.5636864900588989,0.916981906920747,0
2012-12-26 00:00:00,0.3528338074684143,0.923011094842394,0
2012-12-26 12:00:00,0.2185536175966262,0.8883480761817841,0
2012-12-27 00:00:00,0.1574426442384719,0.8618353162473431,0
2012-12-27 12:00:00,0.1839593350887298,0.732814492015085,0
2012-12-28 00:00:00,0.2974033951759338,0.911880588333381,0
2012-12-28 12:00:00,0.3449283242225647,0.8410545405646015,0
2012-12-29 00:00:00,0.3402424156665802,0.8509874300303559,0
2012-12-29 12:00:00,0.2295918613672256,0.8600239826941636,0
2012-12-30 00:00:00,0.1819718480110168,0.8180968255400137,0
2012-12-30 12:00:00,0.1416177451610565,0.5743117722941588,0
2012-12-31 00:00:00,0.1280402690172195,0.7044384438490251,0
2012-12-31 12:00:00,0.1365052610635757,0.7621309651177341,0
2013-10-01 12:00:00,0.1374118626117706,0.5173138777157236,0
2013-10-02 00:00:00,0.1301028281450271,0.5106858254019314,0
2013-10-02 12:00:00,0.1740430444478988,0.4188631563784072,0
2013-10-03 00:00:00,0.2655762434005737,0.3605404496076987,0
2013-10-03 12:00:00,0.5475026965141296,0.2960658886998955,0
2013-10-04 00:00:00,0.5323523879051208,0.8813776358938018,0
2013-10-04 12:00:00,0.3859816193580627,0.7964580572140462,0
2013-10-05 00:00:00,0.3047918379306793,0.7895392992772106,0
2013-10-05 12:00:00,0.3575207591056824,0.6413468935064692,0
2013-10-06 00:00:00,0.2666186988353729,0.5547544646533584,0
2013-10-06 12:00:00,0.2041482478380203,0.5191495410461153,0
2013-10-07 00:00:00,0.2423819452524185,0.5076936147221172,0
2013-10-07 12:00:00,0.1773143410682678,0.3674958324596713,0
2013-10-08 00:00:00,0.3164753019809723,0.4302917814625362,0
2013-10-08 12:00:00,0.280540257692337,0.5899743311306165,1
2013-10-09 00:00:00,0.4028434157371521,0.7395103243273664,1
2013-10-09 12:00:00,0.4250859916210174,0.9554592123591729,0
2013-10-10 00:00:00,0.526159942150116,0.9068871203574074,0
2013-10-10 12:00:00,0.6345669627189636,0.9866139097146477,1
2013-10-11 00:00:00,0.740132749080658,0.9934785361984336,1
2013-10-11 12:00:00,0.6964108943939209,0.9086743665104636,0
2013-10-12 00:00:00,0.8007350564002991,0.983455620903487,0
2013-10-12 12:00:00,0.7915233969688416,0.9756269512306768,1
2013-10-13 00:00:00,0.7221179604530334,0.9833784088654154,1
2013-10-13 12:00:00,0.5955897569656372,0.9572394299473455,0
2013-10-14 12:00:00,0.7018618583679199,0.9641218593190601,1
2013-10-15 00:00:00,0.641122579574585,0.9796976622048252,1
2013-10-15 12:00:00,0.6716041564941406,0.9841637071206766,1
2013-10-16 00:00:00,0.6040515899658203,0.976305452899148,0
2013-10-16 12:00:00,0.7097764611244202,0.9815664051815081,0
2013-10-17 00:00:00,0.6800139546394348,0.9822237209662662,1
2013-10-18 12:00:00,0.6249709725379944,0.7224401250332129,0
2013-10-19 00:00:00,0.6893970370292664,0.9462525759010305,0
2013-10-19 12:00:00,0.6667335033416748,0.9254146402962317,0
2013-10-20 00:00:00,0.727538526058197,0.9101568907968779,0
2013-10-20 12:00:00,0.7019591331481934,0.9031099705906903,0
2013-10-21 00:00:00,0.8539197444915771,0.9868548380224668,0
2013-10-21 12:00:00,0.9264193773269652,0.9959348621179736,1
2013-10-22 00:00:00,0.937260091304779,0.9934311743915076,1
2013-10-22 12:00:00,0.8977563977241516,0.9935926526497361,1
2013-10-23 00:00:00,0.9742888808250428,0.9959288758621269,1
2013-10-23 12:00:00,0.9731743335723876,0.9957072583503345,1
2013-10-24 00:00:00,0.9740741848945618,0.9957487562223689,1
2013-10-24 12:00:00,0.958978533744812,0.9963103626698684,1
2013-10-25 12:00:00,0.94352787733078,0.9939250709280476,1
2013-10-26 00:00:00,0.9455127716064452,0.9949926519467037,1
2013-10-26 12:00:00,0.9400199055671692,0.9990805576049501,1
2013-10-27 00:00:00,0.95125412940979,0.9996493977404348,1
2013-10-27 12:00:00,0.9606703519821168,0.9994602464629283,1
2013-10-28 00:00:00,0.966992199420929,0.9995971475361936,1
2013-10-28 12:00:00,0.9676900506019592,0.9999469457935497,1
2013-10-29 00:00:00,0.9515857696533204,0.9989081220518536,1
2013-10-29 12:00:00,0.9433271884918212,0.9986344024783632,1
2013-10-30 00:00:00,0.9302994608879088,0.9984630869833888,0
2013-10-30 12:00:00,0.8756393790245056,0.9965974298540593,0
2013-10-31 00:00:00,0.8355613350868225,0.9601185524136624,1
2013-10-31 12:00:00,0.7468796968460083,0.9698747325831599,1
2013-11-01 00:00:00,0.7910385727882385,0.9747306808503033,1
2013-11-01 12:00:00,0.7450141310691833,0.9681024349427382,1
2013-11-02 00:00:00,0.7235110402107239,0.9517637536144908,1
2013-11-02 12:00:00,0.703130841255188,0.9560415762605194,1
2013-11-03 00:00:00,0.718021035194397,0.968687275231989,1
2013-11-03 12:00:00,0.7868028283119202,0.958368476152765,0
2013-11-04 00:00:00,0.8583794236183167,0.9705094103448493,0
2013-11-04 12:00:00,0.8849061727523804,0.9961753422823804,1
2013-11-05 00:00:00,0.9078490734100342,0.996357488072199,1
2013-11-05 12:00:00,0.9349159598350524,0.9950385880934611,1
2013-11-06 00:00:00,0.9500263333320618,0.9946264560836848,1
2013-11-06 12:00:00,0.87970370054245,0.9923296053437921,1
2013-11-07 00:00:00,0.8657239675521851,0.9761412300265405,1
2013-11-07 12:00:00,0.8291937112808228,0.9808126199742833,1
2013-11-08 00:00:00,0.8384701013565063,0.9664815564579824,1
2013-11-08 12:00:00,0.8873483538627625,0.9723064468365884,0
2013-11-09 00:00:00,0.8641741871833801,0.9640874776164129,0
2013-11-09 12:00:00,0.8571338653564453,0.9620121452636669,1
2013-11-10 00:00:00,0.7821106314659119,0.9819524167853042,1
2013-11-10 12:00:00,0.8158256411552429,0.972837321287481,1
2013-11-11 00:00:00,0.7457940578460693,0.9749978066674108,1
2013-11-11 12:00:00,0.8608177900314331,0.9798067812854829,0
2013-11-12 00:00:00,0.8891053795814514,0.9701937438400918,0
2013-11-12 12:00:00,0.9032931327819824,0.997958986825617,0
2013-11-13 00:00:00,0.93726909160614,0.9982515993780235,1
2013-11-13 12:00:00,0.9432132840156556,0.9980477203516961,1
2013-11-14 00:00:00,0.9526183009147644,0.9985669860099852,0
2013-11-14 12:00:00,0.9442535638809204,0.9991722624362661,1
2013-11-15 00:00:00,0.953594446182251,0.999727201603397,1
2013-11-15 12:00:00,0.970940113067627,0.9996442793842741,1
2013-11-16 00:00:00,0.8990222811698914,0.9995927029710787,1
2013-11-16 12:00:00,0.9269520044326782,0.9994081945934651,1
2013-11-17 00:00:00,0.947411298751831,0.9993773487256388,1
2013-11-17 12:00:00,0.958596408367157,0.9996108666152623,0
2013-11-18 00:00:00,0.917851746082306,0.9996283166778598,0
2013-11-18 12:00:00,0.9322291612625122,0.9994938912611065,1
2013-11-19 00:00:00,0.9301641583442688,0.9994062708236114,1
2013-11-19 12:00:00,0.8964004516601562,0.9864279628095421,0
2013-11-20 00:00:00,0.7657427787780762,0.9805925724943568,0
2013-11-20 12:00:00,0.7599525451660156,0.9827166529563555,1
2013-11-21 00:00:00,0.7096214294433594,0.9847335718409087,1
2013-11-21 12:00:00,0.6483582854270935,0.9842057033044238,0
2013-11-22 12:00:00,0.6497485041618347,0.9537619674949556,1
2013-11-23 12:00:00,0.6195763945579529,0.9405437330902162,1
2013-11-24 00:00:00,0.470394492149353,0.9343289743549297,0
2013-11-24 12:00:00,0.334747314453125,0.35817171761362343,0
2013-11-25 00:00:00,0.2192748337984085,0.5112735271491301,0
2013-11-25 12:00:00,0.1604975908994674,0.6636295159035854,0
2013-11-26 00:00:00,0.1796924620866775,0.5692121013090274,0
2013-11-26 12:00:00,0.1839009821414947,0.5499596904764751,0
2013-11-27 00:00:00,0.2482386082410812,0.6137374375360585,0
2013-11-27 12:00:00,0.5521032214164734,0.8878332537676552,0
2013-11-28 00:00:00,0.5656708478927612,0.9257628805438154,0
2013-11-28 12:00:00,0.684622049331665,0.8520947644829393,0
2013-11-29 12:00:00,0.5113551616668701,0.9551847617046435,0
2013-11-30 00:00:00,0.605307400226593,0.914356154971096,0
2013-11-30 12:00:00,0.6389657258987427,0.9116741611202571,0
2013-12-01 00:00:00,0.6470218300819397,0.9544987878407677,0
2013-12-01 12:00:00,0.5870916247367859,0.939689130254039,0
2013-12-02 00:00:00,0.6356192827224731,0.9612827591162988,0
2013-12-02 12:00:00,0.6369234323501587,0.9516061271864918,0
2013-12-03 12:00:00,0.687187671661377,0.8970705357787934,0
2013-12-04 00:00:00,0.7006863355636597,0.9461293326846448,0
2013-12-04 12:00:00,0.5951601266860962,0.864647743512253,0
2013-12-05 00:00:00,0.532973051071167,0.8642682167078102,0
2013-12-05 12:00:00,0.7135280966758728,0.8597315510964988,0
2013-12-06 00:00:00,0.8437342047691345,0.9669795023357312,0
2013-12-06 12:00:00,0.8413834571838379,0.9822097325001986,1
2013-12-07 00:00:00,0.7746873497962952,0.9823129114976031,1
2013-12-07 12:00:00,0.8276438117027283,0.9872515665984082,0
2013-12-08 00:00:00,0.8795874714851379,0.9752930210094931,0
2013-12-08 12:00:00,0.8928950428962708,0.973266249478624,0
2013-12-09 00:00:00,0.8812729120254517,0.9513836657301546,0
2013-12-09 12:00:00,0.8996289372444153,0.9960132835145112,0
2013-12-10 00:00:00,0.9195213913917542,0.991151145293268,0
2013-12-10 12:00:00,0.8971667885780334,0.9953513104959271,0
2013-12-11 00:00:00,0.8911904096603394,0.9961897438494368,0
2013-12-11 12:00:00,0.9076964259147644,0.9898151633586276,0
2013-12-12 00:00:00,0.927632451057434,0.9959865770851931,0
2013-12-12 12:00:00,0.927632451057434,0.9859291087950165,0
2013-12-13 00:00:00,0.927632451057434,0.9935439619350463,0
2013-12-13 12:00:00,0.927632451057434,0.9956388107746929,0
2013-12-14 00:00:00,0.927632451057434,0.9954936703256632,0
2013-12-16 12:00:00,0.779653012752533,0.9944761425540245,0
2013-12-17 00:00:00,0.7679720520973206,0.9874165646123756,0
2013-12-17 12:00:00,0.8667389154434204,0.995562356220005,0
2013-12-18 00:00:00,0.923717737197876,0.996016684813862,0
2013-12-18 12:00:00,0.8902971148490906,0.9977983422911072,0
2013-12-19 00:00:00,0.8050079345703125,0.9960724593836675,1
2013-12-19 12:00:00,0.7738018035888672,0.9728148339762498,1
2013-12-20 00:00:00,0.7380915284156799,0.9769297697593915,1
2013-12-20 12:00:00,0.830474853515625,0.979996375896658,0
2013-12-21 00:00:00,0.8962657451629639,0.9965882330409276,0
2013-12-21 12:00:00,0.9020237326622008,0.9880161289747073,1
2013-12-22 00:00:00,0.9020237326622008,0.9826916810535747,1
2013-12-23 00:00:00,0.8570582866668701,0.9903160043591775,1
2013-12-23 12:00:00,0.8243263363838196,0.9892311524650399,0
2013-12-24 00:00:00,0.8324406743049622,0.8925105181740873,0
2013-12-24 12:00:00,0.7648800611495972,0.8962682123049426,0
2013-12-25 00:00:00,0.6130866408348083,0.9085209316540936,0
2013-12-25 12:00:00,0.5588156580924988,0.8931284352208446,0
2013-12-26 00:00:00,0.5061377286911011,0.9096846130079157,0
2013-12-26 12:00:00,0.6760868430137634,0.9516059428324931,0
2013-12-27 00:00:00,0.6037920117378235,0.904073585572138,0
2013-12-27 12:00:00,0.6520722508430481,0.9386330102734444,0
2013-12-28 00:00:00,0.6767107844352722,0.9573167895218231,0
2013-12-28 12:00:00,0.7756152153015137,0.9629751192169745,1
2013-12-29 00:00:00,0.8364154696464539,0.9885383551595655,1
2013-12-29 12:00:00,0.7702383995056152,0.9909461361411003,0
2013-12-30 00:00:00,0.7758191227912903,0.9918881875024295,0
2013-12-30 12:00:00,0.7518631815910339,0.9917352278471471,0
2013-12-31 00:00:00,0.6809045672416687,0.9842174054981773,1
2013-12-31 12:00:00,0.7060618996620178,0.8815573226400772,1
2014-10-01 12:00:00,0.8355956077575684,0.02189362323682431,0
2014-10-02 00:00:00,0.8680297136306763,0.8646913231261468,1
2014-10-02 12:00:00,0.7387649416923523,0.8099157550190548,1
2014-10-03 00:00:00,0.6310384273529053,0.7449801409657335,0
2014-10-03 12:00:00,0.5493619441986084,0.9019447404017673,0
2014-10-04 00:00:00,0.4193731248378753,0.9544107766942987,0
2014-10-04 12:00:00,0.5009652376174927,0.9326558350959492,0
2014-10-05 00:00:00,0.4139899015426636,0.9289913561486753,0
2014-10-05 12:00:00,0.5476096868515015,0.9443124102923701,0
2014-10-06 00:00:00,0.4961336553096771,0.9614076609678527,0
2014-10-06 12:00:00,0.6674849390983582,0.9584699620222711,0
2014-10-07 00:00:00,0.5650437474250793,0.9682344906228572,0
2014-10-07 12:00:00,0.4818646609783172,0.8859853544743995,0
2014-10-08 00:00:00,0.4382436573505401,0.8897180425357186,0
2014-10-08 12:00:00,0.4084860980510711,0.8675761429096329,1
2014-10-09 00:00:00,0.3665890097618103,0.8821837564243608,1
2014-10-09 12:00:00,0.4695196151733398,0.13809006611222474,0
2014-10-10 00:00:00,0.4429152011871338,0.8918958894078681,0
2014-10-10 12:00:00,0.4753203094005584,0.8648742087788088,0
2014-10-11 00:00:00,0.3335334658622741,0.8467868110671599,0
2014-10-11 12:00:00,0.2918789386749267,0.8321127153205707,0
2014-10-12 00:00:00,0.1624806374311447,0.772164821906133,0
2014-10-12 12:00:00,0.1535206288099289,0.6433156816502679,0
2014-10-13 00:00:00,0.2954979240894317,0.4398211293419785,0
2014-10-13 12:00:00,0.3828528523445129,0.3741639317197757,0
2014-10-14 00:00:00,0.4463458061218261,0.43056134099084986,1
2014-10-14 12:00:00,0.4077871441841125,0.6152026497580697,1
2014-10-15 00:00:00,0.459617555141449,0.8184015861123504,0
2014-10-15 12:00:00,0.4448703229427337,0.7313101027659128,0
2014-10-16 00:00:00,0.3647710680961609,0.7737294618949602,1
2014-10-16 12:00:00,0.37724569439888,0.7792124568323509,1
2014-10-17 00:00:00,0.5096586346626282,0.7895943695173405,0
2014-10-17 12:00:00,0.5259823799133301,0.7911916257264949,1
2014-10-18 00:00:00,0.757421612739563,0.724345439672741,1
2014-10-18 12:00:00,0.8216574192047119,0.7118886204212829,1
2014-10-19 00:00:00,0.8185418248176575,0.7713680409203445,1
2014-10-19 12:00:00,0.8860876560211182,0.9859995673861238,1
2014-10-20 00:00:00,0.924199640750885,0.9867873705494629,1
2014-10-20 12:00:00,0.9455004930496216,0.9802405732118117,1
2014-10-21 00:00:00,0.9473674297332764,0.981205178671522,1
2014-10-21 12:00:00,0.9318650364875792,0.9797339920677188,1
2014-10-22 00:00:00,0.9352364540100098,0.9474686620324924,1
2014-10-22 12:00:00,0.9302389025688172,0.927518754226678,1
2014-10-23 00:00:00,0.94147390127182,0.9915879311453516,1
2014-10-23 12:00:00,0.9300105571746826,0.9879214833519836,1
2014-10-24 00:00:00,0.9134929776191713,0.9773787124327239,1
2014-10-25 00:00:00,0.8974702954292297,0.9865798403483396,1
2014-10-25 12:00:00,0.9206241965293884,0.9840504934774998,1
2014-10-26 00:00:00,0.9243044257164,0.9896501145695715,1
2014-10-26 12:00:00,0.9024971127510072,0.9798868181698879,1
2014-10-27 00:00:00,0.8964035511016846,0.9754915877668138,1
2014-10-27 12:00:00,0.8839231133460999,0.9770320655828116,1
2014-10-28 00:00:00,0.8385029435157776,0.9594231908954931,1
2014-10-28 12:00:00,0.7708932757377625,0.9396195828746009,1
2014-10-29 00:00:00,0.602863609790802,0.952556208520438,1
2014-10-29 12:00:00,0.4755226671695709,0.39072943695477025,1
2014-10-30 00:00:00,0.3752497732639313,0.3532040324954986,1
2014-10-30 12:00:00,0.3113746643066406,0.3383457328088493,0
2014-10-31 00:00:00,0.2635953724384308,0.5342902242371379,0
2014-10-31 12:00:00,0.236295610666275,0.5908886230570618,0
2014-11-01 00:00:00,0.252430111169815,0.5836904968727226,0
2014-11-01 12:00:00,0.3793196976184845,0.7107014338561495,0
2014-11-02 00:00:00,0.4890815317630768,0.8944197681602495,0
2014-11-02 12:00:00,0.5530792474746704,0.9011794137459253,1
2014-11-03 00:00:00,0.6462141275405884,0.8316605282149487,1
2014-11-03 12:00:00,0.462928831577301,0.7796157172276477,1
2014-11-04 00:00:00,0.4611693024635315,0.7369794869284915,1
2014-11-04 12:00:00,0.5253538489341736,0.6070149508677986,1
2014-11-05 00:00:00,0.4759318828582763,0.5154468722747383,1
2014-11-05 12:00:00,0.6234467029571533,0.6350804406507433,1
2014-11-06 00:00:00,0.6868886351585388,0.5111811634555781,1
2014-11-06 12:00:00,0.6868887543678284,0.967722776200239,1
2014-11-07 12:00:00,0.5076951384544373,0.961821776094386,1
2014-11-08 00:00:00,0.5648900866508484,0.9571213515910054,0
2014-11-08 12:00:00,0.5199116468429565,0.9554640887726562,0
2014-11-09 00:00:00,0.5595336556434631,0.9443480609621906,1
2014-11-09 12:00:00,0.5121686458587646,0.9353514835234721,1
2014-11-10 00:00:00,0.4884926080703735,0.9184097591266444,0
2014-11-10 12:00:00,0.6601372361183167,0.9819679866827857,0
2014-11-11 00:00:00,0.7427558302879333,0.9725112929580919,0
2014-11-11 12:00:00,0.6293443441390991,0.9648540660261563,0
2014-11-12 00:00:00,0.7205637693405151,0.9569047640891121,0
2014-11-12 12:00:00,0.6236017942428589,0.9763471958545604,0
2014-11-13 00:00:00,0.5934239029884338,0.9033134326890689,0
2014-11-13 12:00:00,0.765379011631012,0.9849284971342732,0
2014-11-14 00:00:00,0.7976999878883362,0.9818061801221234,0
2014-11-14 12:00:00,0.8337889313697815,0.9684726089570007,1
2014-11-15 12:00:00,0.884721577167511,0.9908476776441439,1
2014-11-16 00:00:00,0.9042601585388184,0.9841158853610129,1
2014-11-16 12:00:00,0.9316075444221495,0.9766749550416771,1
2014-11-17 00:00:00,0.9321758151054382,0.9765632182096068,0
2014-11-17 12:00:00,0.873988926410675,0.9692783484175804,0
2014-11-18 00:00:00,0.7976372838020325,0.9660773090914402,0
2014-11-18 12:00:00,0.7070927023887634,0.968661095207671,0
2014-11-19 00:00:00,0.695553183555603,0.9671270620246447,0
2014-11-19 12:00:00,0.6826503872871399,0.9554043416513118,0
2014-11-20 00:00:00,0.6653170585632324,0.9634046089634768,0
2014-11-20 12:00:00,0.7753844261169434,0.8746556457174017,0
2014-11-21 12:00:00,0.8667948246002197,0.9375381341955606,0
2014-11-22 00:00:00,0.8731192946434021,0.9879206403023302,0
2014-11-22 12:00:00,0.9037452936172484,0.9889491933101952,0
2014-11-23 00:00:00,0.9050164818763732,0.9910153691536554,0
2014-11-23 12:00:00,0.8927857875823975,0.99374477901463,0
2014-11-24 00:00:00,0.894751250743866,0.9930132554045055,0
2014-11-24 12:00:00,0.913077473640442,0.9855864728504643,0
2014-11-25 00:00:00,0.9212970733642578,0.9054921078294632,0
2014-11-25 12:00:00,0.8778904676437378,0.9719605754787816,0
2014-11-26 12:00:00,0.8611615300178528,0.9925092776609069,0
2014-11-27 00:00:00,0.8912368416786194,0.9921281962757506,0
2014-11-27 12:00:00,0.9108272790908812,0.987279427849584,0
2014-11-28 00:00:00,0.9079036116600036,0.9997724754171082,0
2014-11-28 12:00:00,0.9386323690414428,0.9997456771653949,0
2014-11-29 00:00:00,0.929621398448944,0.9996396941856928,0
2014-11-29 12:00:00,0.9568177461624146,0.9994370108189978,0
2014-11-30 00:00:00,0.9222801327705384,0.9995131640535994,0
2014-11-30 12:00:00,0.8816401958465576,0.9993029126738227,1
2014-12-01 00:00:00,0.8374720811843872,0.9986629734544906,1
2014-12-01 12:00:00,0.8104987144470215,0.9980049935256526,0
2014-12-02 00:00:00,0.8395847082138062,0.9880852250367039,0
2014-12-02 12:00:00,0.7815818786621094,0.9902398250056668,0
2014-12-03 00:00:00,0.8490353226661682,0.9944221438634224,0
2014-12-03 12:00:00,0.8400937914848328,0.9920688281925574,1
2014-12-04 00:00:00,0.8561064600944519,0.973765262030518,1
2014-12-04 12:00:00,0.8509814143180847,0.9745676022214078,1
2014-12-05 00:00:00,0.7916852831840515,0.9810201500347854,1
2014-12-05 12:00:00,0.721937894821167,0.960637452342343,0
2014-12-06 00:00:00,0.6557156443595886,0.9550304742691302,0
2014-12-06 12:00:00,0.6204918622970581,0.9357249090706502,0
2014-12-07 00:00:00,0.5837385654449463,0.9297872160307471,0
2014-12-07 12:00:00,0.5740535259246826,0.9495087489170843,0
2014-12-08 00:00:00,0.4399445056915283,0.5054037174578232,0
2014-12-08 12:00:00,0.3881184458732605,0.6580058367029482,0
2014-12-09 00:00:00,0.5533741116523743,0.8136004549347934,0
2014-12-09 12:00:00,0.6021203994750977,0.9357236070169179,0
2014-12-10 00:00:00,0.5145420432090759,0.9387584853624088,0
2014-12-10 12:00:00,0.489417016506195,0.9020382323495747,0
2014-12-11 00:00:00,0.588123083114624,0.9000121603597193,0
2014-12-11 12:00:00,0.6090795397758484,0.9121345367228928,0
2014-12-12 00:00:00,0.8165949583053589,0.9926601048185698,0
2014-12-12 12:00:00,0.853283703327179,0.9924948693429626,1
2014-12-14 00:00:00,0.726416289806366,0.9972891027667515,1
2014-12-14 12:00:00,0.8362671732902527,0.9971603200537434,1
2014-12-15 00:00:00,0.829804539680481,0.9984047700822618,0
2014-12-15 12:00:00,0.9218525290489196,0.9992965919135576,0
2014-12-16 00:00:00,0.9651974439620972,0.9992264178038233,0
2014-12-16 12:00:00,0.968683123588562,0.998932369540772,1
2014-12-17 00:00:00,0.969143569469452,0.9988753665633281,1
2014-12-17 12:00:00,0.9632561802864076,0.9974320727203402,1
2014-12-18 00:00:00,0.9621286392211914,0.9977918722019233,1
2014-12-18 12:00:00,0.9694687724113464,0.9984511396356511,1
2014-12-19 00:00:00,0.9791396856307985,0.9982114105929158,1
2014-12-19 12:00:00,0.9767910242080688,0.9989370335021522,1
2014-12-20 00:00:00,0.9692503809928894,0.9983849135187358,1
2014-12-20 12:00:00,0.9587634801864624,0.9991843361489002,1
2014-12-21 00:00:00,0.9572136402130128,0.9993211031916697,1
2014-12-21 12:00:00,0.9555931091308594,0.9990629415884196,1
2014-12-22 00:00:00,0.9700881242752076,0.9988078515041051,1
2014-12-22 12:00:00,0.9583192467689514,0.9773941791946081,0
2014-12-23 00:00:00,0.8755258917808533,0.9652974533080397,0
2014-12-23 12:00:00,0.7918927073478699,0.9170166236692261,0
2014-12-24 00:00:00,0.6235742568969727,0.8929637674959319,0
2014-12-24 12:00:00,0.5817179679870605,0.8766539506222332,0
2014-12-25 00:00:00,0.5592212677001953,0.9495762780251038,0
2014-12-25 12:00:00,0.5144065618515015,0.8832753343682884,0
2014-12-26 00:00:00,0.4272366166114807,0.8510389111092247,0
2014-12-26 12:00:00,0.5031144618988037,0.9112524868495161,1
2014-12-27 12:00:00,0.4902630746364593,0.9299011082105142,0
2014-12-28 00:00:00,0.3398860394954681,0.9069734190491553,0
2014-12-28 12:00:00,0.4842496514320373,0.9397976725348001,0
2014-12-29 00:00:00,0.5367109775543213,0.8060336303957325,0
2014-12-29 12:00:00,0.6467830538749695,0.925967298376296,0
2014-12-30 00:00:00,0.6676157712936401,0.8867956845971291,0
2014-12-30 12:00:00,0.6243433952331543,0.8025333956404188,0
2014-12-31 00:00:00,0.6458579897880554,0.7788341774579541,0
2014-12-31 12:00:00,0.7554817795753479,0.958629576753361,0
2015-10-01 12:00:00,0.6744500994682312,0.9276925623760638,1
2015-10-02 00:00:00,0.4981163144111633,0.9734174595087209,1
2015-10-02 12:00:00,0.3962143957614898,0.46251884095456963,1
2015-10-03 00:00:00,0.4084702134132385,0.41521205840237096,0
2015-10-03 12:00:00,0.2428013384342193,0.5199282091214108,1
2015-10-04 00:00:00,0.2469698786735534,0.5547614850651801,1
2015-10-04 12:00:00,0.3079498410224914,0.5612086472747799,0
2015-10-05 00:00:00,0.2544063031673431,0.46493704713368045,0
2015-10-05 12:00:00,0.2318380922079086,0.4812345450411023,0
2015-10-06 00:00:00,0.2286263406276703,0.370276567320607,0
2015-10-06 12:00:00,0.1659171283245086,0.3296998583802009,0
2015-10-07 00:00:00,0.1262587308883667,0.3754544609700542,0
2015-10-07 12:00:00,0.0952997580170631,0.10569994377936676,0
2015-10-08 00:00:00,0.0816185995936393,0.10626777461477921,0
2015-10-08 12:00:00,0.0816185995936393,0.06910271457343753,0
2015-10-10 00:00:00,0.0791773945093154,0.10062751486683419,0
2015-10-10 12:00:00,0.0838146358728408,0.06126964656821032,0
2015-10-11 00:00:00,0.0697273015975952,0.08639992378124128,0
2015-10-11 12:00:00,0.0739418938755989,0.14595439790520837,0
2015-10-12 00:00:00,0.0878170505166053,0.2610553319380401,0
2015-10-12 12:00:00,0.0886170491576194,0.33242851759428127,0
2015-10-13 00:00:00,0.1250007301568985,0.4389100747733333,0
2015-10-13 12:00:00,0.157080739736557,0.3103962799351685,0
2015-10-14 00:00:00,0.1790721565485,0.25510731090353944,0
2015-10-14 12:00:00,0.2395790517330169,0.16834248531711482,0
2015-10-15 00:00:00,0.386627584695816,0.19602481217498058,1
2015-10-15 12:00:00,0.3295344412326813,0.16597415405466243,1
2015-10-16 00:00:00,0.2719691693782806,0.9203771659562489,1
2015-10-16 12:00:00,0.4829813241958618,0.9080821844915166,0
2015-10-17 00:00:00,0.4962892234325409,0.9034462299532143,1
2015-10-17 12:00:00,0.605380654335022,0.8950821987273146,1
2015-10-18 00:00:00,0.6667591333389282,0.8962583629904128,0
2015-10-18 12:00:00,0.769355833530426,0.8974024688490346,0
2015-10-19 00:00:00,0.863386869430542,0.8593400767393908,0
2015-10-19 12:00:00,0.8574944138526917,0.9964875989168138,0
2015-10-20 00:00:00,0.865041196346283,0.9973018379614047,0
2015-10-20 12:00:00,0.7634809613227844,0.9955082789306711,0
2015-10-21 00:00:00,0.5953769683837891,0.9954542485304249,0
2015-10-21 12:00:00,0.5443617701530457,0.9957669991256659,0
2015-10-22 00:00:00,0.4465933740139007,0.9916464460667966,0
2015-10-22 12:00:00,0.5910623073577881,0.9938828706016267,0
2015-10-23 00:00:00,0.6163691878318787,0.9871166588326262,0
2015-10-23 12:00:00,0.4799885749816894,0.9866205134067136,0
2015-10-24 00:00:00,0.4945622384548187,0.9610809983784198,0
2015-10-24 12:00:00,0.5461493134498596,0.9450861032343905,0
2015-10-25 00:00:00,0.3736756443977356,0.9418704485506862,0
2015-10-25 12:00:00,0.4311980903148651,0.9601617517338012,0
2015-10-26 00:00:00,0.4173760414123535,0.9302835609399749,0
2015-10-26 12:00:00,0.4449141025543213,0.9346601858026753,0
2015-10-27 00:00:00,0.4645619392395019,0.9287178791188976,0
2015-10-27 12:00:00,0.5214548110961914,0.9009742276811318,0
2015-10-28 00:00:00,0.411304771900177,0.8902271469361429,0
2015-10-28 12:00:00,0.4491634368896484,0.890523699330522,0
2015-10-29 12:00:00,0.2893188297748565,0.08400001403769786,0
2015-10-30 00:00:00,0.2458809912204742,0.11280396107198709,0
2015-10-30 12:00:00,0.3497779667377472,0.022413203929473435,0
2015-10-31 00:00:00,0.4882503449916839,0.8837428405118747,1
2015-10-31 12:00:00,0.6329538226127625,0.9150530238284107,1
2015-11-01 00:00:00,0.7166346907615662,0.9116315916365202,0
2015-11-01 12:00:00,0.8130308389663696,0.9798862331755666,0
2015-11-02 00:00:00,0.7665047645568848,0.989602377390168,0
2015-11-02 12:00:00,0.7732009887695312,0.9874844545368109,0
2015-11-03 00:00:00,0.781969428062439,0.9808839646808921,0
2015-11-03 12:00:00,0.8653448820114136,0.979485367174016,1
2015-11-04 00:00:00,0.8630548119544983,0.9803226636587064,1
2015-11-04 12:00:00,0.8041208386421204,0.8814184659841242,1
2015-11-05 00:00:00,0.7082915306091309,0.7853693516419263,0
2015-11-05 12:00:00,0.5293980836868286,0.8385632450599737,0
2015-11-06 00:00:00,0.6672205924987793,0.9166133056651221,0
2015-11-06 12:00:00,0.7398447394371033,0.9279905234487643,0
2015-11-07 00:00:00,0.7235337495803833,0.934198656407211,0
2015-11-07 12:00:00,0.7196457982063293,0.9002064147588977,0
2015-11-08 00:00:00,0.6883660554885864,0.8819681102862416,0
2015-11-08 12:00:00,0.6531532406806946,0.9637537812938098,0
2015-11-09 00:00:00,0.6562759876251221,0.9335731819577608,1
2015-11-09 12:00:00,0.5397505760192871,0.916084467458055,1
2015-11-10 00:00:00,0.4589455425739288,0.17536013386776628,0
2015-11-10 12:00:00,0.3054232597351074,0.6405346687437218,0
2015-11-11 00:00:00,0.2298511862754821,0.6112022197443847,0
2015-11-11 12:00:00,0.1775231659412384,0.49726501375876464,0
2015-11-12 00:00:00,0.1783886402845382,0.37875035577321825,0
2015-11-12 12:00:00,0.1814464181661605,0.4176836267915405,0
2015-11-13 00:00:00,0.1953887343406677,0.5237550758922234,0
2015-11-13 12:00:00,0.1500976830720901,0.46397697849405195,0
2015-11-14 00:00:00,0.1751751750707626,0.4508349493695415,0
2015-11-14 12:00:00,0.2089720219373703,0.3258343245700678,0
2015-11-15 00:00:00,0.2470858097076416,0.7924399922364651,0
2015-11-15 12:00:00,0.259442001581192,0.682300031761865,0
2015-11-16 00:00:00,0.2470335662364959,0.6995895673958167,0
2015-11-16 12:00:00,0.2150671482086181,0.7179214084192527,0
2015-11-17 12:00:00,0.1537815183401107,0.7289370878760362,0
2015-11-18 00:00:00,0.1609734147787094,0.6772870703505458,0
2015-11-18 12:00:00,0.1748326569795608,0.6194330147796043,0
2015-11-19 00:00:00,0.1892440915107727,0.5438575605166703,0
2015-11-19 12:00:00,0.2386332750320434,0.5089948977388923,0
2015-11-20 12:00:00,0.2268540561199188,0.45137588427015274,0
2015-11-21 00:00:00,0.307412713766098,0.7261999080394613,0
2015-11-21 12:00:00,0.4795775711536407,0.9641577760219818,0
2015-11-22 00:00:00,0.4761711061000824,0.9730209958380504,0
2015-11-22 12:00:00,0.4815852046012878,0.972182134736527,0
2015-11-23 00:00:00,0.3711560368537903,0.9578928626454841,0
2015-11-23 12:00:00,0.4031904339790344,0.8846966240687476,0
2015-11-24 00:00:00,0.3831365704536438,0.948798562655036,0
2015-11-24 12:00:00,0.249541699886322,0.9098693115355292,0
2015-11-25 00:00:00,0.1314349025487899,0.8212227661088936,0
2015-11-25 12:00:00,0.1904603689908981,0.7522843859723403,0
2015-11-26 00:00:00,0.1733364313840866,0.6603107173974142,0
2015-11-26 12:00:00,0.2002063244581222,0.7029129046840916,0
2015-11-27 00:00:00,0.1248521283268928,0.6877567025388733,0
2015-11-27 12:00:00,0.1182453110814094,0.7033735020393426,0
2015-11-28 00:00:00,0.14674773812294,0.7374543201287997,0
2015-11-28 12:00:00,0.1367082595825195,0.6544475727851886,0
2015-11-29 00:00:00,0.1133680567145347,0.6531133986105865,0
2015-11-29 12:00:00,0.1082001328468322,0.6720069374222368,0
2015-11-30 00:00:00,0.1072141453623771,0.5943636103818006,0
2015-11-30 12:00:00,0.1453558057546615,0.6225244880128751,0
2015-12-01 00:00:00,0.1780160069465637,0.48492468505729713,0
2015-12-01 12:00:00,0.1889371871948242,0.5263317788061534,0
2015-12-02 00:00:00,0.1513879150152206,0.5106040011730126,0
2015-12-02 12:00:00,0.1373957097530365,0.4811477617896569,0
2015-12-03 00:00:00,0.1312881708145141,0.3934722851193071,0
2015-12-03 12:00:00,0.0897051244974136,0.4201332152824222,0
2015-12-04 00:00:00,0.0775177404284477,0.2144261484103963,0
2015-12-04 12:00:00,0.1083609014749527,0.15702565187540585,0
2015-12-05 00:00:00,0.2696591019630432,0.2238253717143026,0
2015-12-05 12:00:00,0.3105195164680481,0.5935270916078211,0
2015-12-06 00:00:00,0.1442165970802307,0.6520608582204636,0
2015-12-06 12:00:00,0.1451903283596038,0.567822616611007,0
2015-12-07 00:00:00,0.1214823350310325,0.5452643702773836,0
2015-12-07 12:00:00,0.1298567205667495,0.36878230078381746,0
2015-12-08 00:00:00,0.1598957777023315,0.31890383661739763,0
2015-12-08 12:00:00,0.1497237086296081,0.49516003959453103,0
2015-12-09 00:00:00,0.1561146527528762,0.6337425910213341,0
2015-12-09 12:00:00,0.2471691519021988,0.4909319058488042,0
2015-12-10 00:00:00,0.2912442982196808,0.49667766987760975,0
2015-12-10 12:00:00,0.305052101612091,0.42094678153592524,0
2015-12-11 00:00:00,0.5386145114898682,0.3996964037368609,0
2015-12-11 12:00:00,0.5140833854675293,0.3205442059558363,0
2015-12-12 00:00:00,0.3094422221183777,0.7004534296641063,0
2015-12-12 12:00:00,0.5681362748146057,0.7432893630415203,0
2015-12-13 00:00:00,0.4201720058917999,0.7258154784485227,0
2015-12-13 12:00:00,0.3816041648387909,0.6285916081185599,0
2015-12-14 00:00:00,0.4230931103229522,0.4844533730764492,0
2015-12-14 12:00:00,0.5699649453163147,0.9474960060150768,0
2015-12-15 00:00:00,0.5996826887130737,0.9319173239717511,0
2015-12-15 12:00:00,0.5542522072792053,0.8662190095759933,0
2015-12-16 00:00:00,0.4687935709953308,0.8127687022724814,0
2015-12-16 12:00:00,0.3427472710609436,0.8209061858102352,0
2015-12-17 00:00:00,0.2491911202669143,0.8927086305511454,0
2015-12-17 12:00:00,0.1580549776554107,0.8271715310181316,0
2015-12-18 12:00:00,0.1618733704090118,0.8624165669446505,0
2015-12-19 00:00:00,0.2245160043239593,0.8850977194749523,0
2015-12-19 12:00:00,0.1960249245166778,0.8848108110690964,0
2015-12-20 00:00:00,0.1941327452659607,0.8461783187462545,0
2015-12-20 12:00:00,0.172228530049324,0.8312881830543282,1
2015-12-21 00:00:00,0.138636901974678,0.7584194103445708,1
2015-12-21 12:00:00,0.1457722634077072,0.784196187687568,1
2015-12-22 00:00:00,0.2900978326797485,0.7826355089640061,1
2015-12-22 12:00:00,0.6199559569358826,0.8495953671028298,1
2015-12-23 00:00:00,0.7789185047149658,0.8495056641311789,1
2015-12-23 12:00:00,0.8508812189102173,0.9979929928910672,1
2015-12-24 00:00:00,0.8280583620071411,0.9969706165225575,1
2015-12-24 12:00:00,0.787729024887085,0.990046792994811,0
2015-12-25 00:00:00,0.6554984450340271,0.990032554822845,0
2015-12-25 12:00:00,0.5154344439506531,0.9820742799808984,0
2015-12-26 00:00:00,0.4922300577163696,0.9706317263633872,0
2015-12-26 12:00:00,0.5249018669128418,0.9596400673021032,0
2015-12-27 00:00:00,0.764254093170166,0.9567833942876278,0
2015-12-29 00:00:00,0.4831208288669586,0.9326187834526218,0
2015-12-29 12:00:00,0.5272819995880127,0.9338397627286183,0
2015-12-30 00:00:00,0.5123822093009949,0.9525700520866078,0
2015-12-30 12:00:00,0.554603636264801,0.9385711424656724,0
2015-12-31 00:00:00,0.5207448601722717,0.932052359773324,0
2015-12-31 12:00:00,0.3391675651073456,0.9169205885381926,0
2016-10-01 12:00:00,0.0498523600399494,0.005518925754940507,0
2017-10-01 12:00:00,0.23113813996315,0.06005440126426309,0
2017-10-02 00:00:00,0.1751952469348907,0.7684811660305496,0
2017-10-02 12:00:00,0.2484459578990936,0.7256004287730622,0
2017-10-03 00:00:00,0.3093197643756866,0.7867288431254605,0
2017-10-03 12:00:00,0.3158081173896789,0.7760423412655184,0
2017-10-04 00:00:00,0.2421947121620178,0.8098169716234467,0
2017-10-04 12:00:00,0.2729541063308716,0.8260856576307323,0
2017-10-05 12:00:00,0.289546400308609,0.8868418849388743,0
2017-10-06 00:00:00,0.2371246814727783,0.8165310261403413,0
2017-10-06 12:00:00,0.1551023423671722,0.7510812755790331,0
2017-10-07 00:00:00,0.1464971303939819,0.7148362344664465,0
2017-10-07 12:00:00,0.0827153250575065,0.6302735782721971,0
2017-10-10 12:00:00,0.0498060882091522,0.005518925754940507,0
2017-10-11 00:00:00,0.0499224141240119,0.005518925754940507,0
2017-10-11 12:00:00,0.0494744479656219,0.005518925754940507,0
2017-10-12 12:00:00,0.0492472909390926,0.005518925754940507,0
2017-10-13 00:00:00,0.0495909973978996,0.005518925754940507,0
2017-10-13 12:00:00,0.0504955984652042,0.011007392968392482,0
2017-10-14 00:00:00,0.0512786656618118,0.011007392968392482,0
2017-10-14 12:00:00,0.0513898953795433,0.011007392968392482,0
2017-10-15 00:00:00,0.0511501990258693,0.011007392968392482,0
2017-10-15 12:00:00,0.0525796599686145,0.011007392968392482,0
2017-10-16 00:00:00,0.0545433759689331,0.011007392968392482,0
2017-10-16 12:00:00,0.0534699708223342,0.01646556973878499,0
2017-10-17 00:00:00,0.0553508177399635,0.01646556973878499,0
2017-10-17 12:00:00,0.0553064458072185,0.02189362323682431,0
2017-10-18 00:00:00,0.0535825937986373,0.005518925754940507,0
2017-10-18 12:00:00,0.0521552078425884,0.005518925754940507,0
2017-10-19 00:00:00,0.0526999346911907,0.005518925754940507,0
2017-10-19 12:00:00,0.0543178394436836,0.005518925754940507,0
2017-10-20 00:00:00,0.055009476840496,0.005518925754940507,1
2017-10-20 12:00:00,0.0546284765005111,0.005518925754940507,1
2017-10-21 00:00:00,0.0551623590290546,0.011007392968392482,0
2017-10-21 12:00:00,0.0561789982020854,0.01646556973878499,0
2017-10-22 00:00:00,0.0580636449158191,0.02189362323682431,0
2017-10-22 12:00:00,0.0684644430875778,0.011007392968392482,0
2017-10-23 00:00:00,0.0740326717495918,0.011007392968392482,0
2017-10-23 12:00:00,0.0833552926778793,0.07428918713544719,0
2017-10-24 00:00:00,0.078308880329132,0.10689342322658923,0
2017-10-24 12:00:00,0.0903216004371643,0.07271484696650665,0
2017-10-25 00:00:00,0.0730116665363311,0.2509273789504711,0
2017-10-25 12:00:00,0.0690136551856994,0.22424908791626352,0
2017-10-26 00:00:00,0.0771779045462608,0.21353270184747575,0
2017-10-26 12:00:00,0.0742549300193786,0.19674421338082604,0
2017-10-27 00:00:00,0.0692490488290786,0.18687245814115394,0
2017-10-27 12:00:00,0.0696513578295707,0.2255952974732388,0
2017-10-28 00:00:00,0.0638413801789283,0.24520624780230138,0
2017-10-28 12:00:00,0.0657298788428306,0.16556928227129275,0
2017-10-29 00:00:00,0.0751175060868263,0.12979363847379932,0
2017-10-29 12:00:00,0.0681185945868492,0.12404552797558854,0
2017-10-30 00:00:00,0.0708034262061119,0.1179091459090279,0
2017-10-30 12:00:00,0.0698825567960739,0.13434293361003757,0
2017-10-31 00:00:00,0.0730532556772232,0.1642503895363765,0
2017-10-31 12:00:00,0.0752860307693481,0.06187194255504169,0
2017-11-01 00:00:00,0.0768343955278396,0.06828279079301436,0
2017-11-01 12:00:00,0.0707108974456787,0.033718978702554914,0
2017-11-02 00:00:00,0.0626872926950454,0.02668675134191767,0
2017-11-02 12:00:00,0.0609229132533073,0.027581428374326977,0
2017-11-03 00:00:00,0.0607219263911247,0.005518925754940507,0
2017-11-07 00:00:00,0.0562740676105022,0.005518925754940507,0
2017-11-07 12:00:00,0.0563792139291763,0.011007392968392482,0
2017-11-08 00:00:00,0.0558263435959816,0.005518925754940507,0
2017-11-08 12:00:00,0.0558380708098411,0.005518925754940507,0
2017-11-09 00:00:00,0.0552901290357112,0.005518925754940507,0
2017-11-09 12:00:00,0.0554527081549167,0.005518925754940507,0
2017-11-10 00:00:00,0.0555926226079463,0.005518925754940507,0
2017-11-10 12:00:00,0.0558883361518383,0.005518925754940507,0
2017-11-11 00:00:00,0.0556118004024028,0.011007392968392482,0
2017-11-11 12:00:00,0.0562023632228374,0.005518925754940507,0
2017-11-12 00:00:00,0.0563565231859684,0.005518925754940507,0
2017-11-12 12:00:00,0.0566455200314521,0.011007392968392482,0
2017-11-13 00:00:00,0.0561361201107502,0.005518925754940507,0
2017-11-15 12:00:00,0.0897692516446113,0.3973423390890547,0
2017-11-16 00:00:00,0.1046202704310417,0.3859370637519415,0
2017-11-16 12:00:00,0.1084621250629425,0.3580868503521475,0
2017-11-17 00:00:00,0.1097118705511093,0.25799340679682325,0
2017-11-17 12:00:00,0.0960067212581634,0.19332259140456598,0
2017-11-18 00:00:00,0.077175885438919,0.16680659168565704,0
2017-11-18 12:00:00,0.0788142010569572,0.15733879957029595,0
2017-11-19 00:00:00,0.0753393396735191,0.09209841940384844,0
2017-11-19 12:00:00,0.0743584781885147,0.04481862530642022,0
2017-11-20 00:00:00,0.0777135044336319,0.027984615791910916,0
2017-11-20 12:00:00,0.0760099291801452,0.03709027308051416,0
2017-11-21 00:00:00,0.0706236958503723,0.06891265540529612,0
2017-11-21 12:00:00,0.0676250457763671,0.08798022270749628,0
2017-11-22 00:00:00,0.0621157549321651,0.09757729308620722,0
2017-11-22 12:00:00,0.0670786872506141,0.08437802923518156,0
2017-11-23 00:00:00,0.0768125355243682,0.09147218715446115,0
2017-11-23 12:00:00,0.0768125355243682,0.060520562411459866,0
2017-11-24 00:00:00,0.0768125355243682,0.05194007104691556,0
2017-11-24 12:00:00,0.0768125355243682,0.04794406602833989,0
2017-11-27 00:00:00,0.0708192288875579,0.1833244674505109,0
2017-11-27 12:00:00,0.1014181897044181,0.2483248355107689,0
2017-11-28 00:00:00,0.0930157601833343,0.11128566461859057,0
2017-11-28 12:00:00,0.0929188728332519,0.09183006683494455,0
2017-11-29 00:00:00,0.0826520696282386,0.10730715521857936,0
2017-11-29 12:00:00,0.0730663612484932,0.048217366382366844,0
2017-12-02 12:00:00,0.0504956282675266,0.005518925754940507,0
2017-12-03 00:00:00,0.0498112179338932,0.005518925754940507,0
2017-12-03 12:00:00,0.0498393662273883,0.005518925754940507,0
2017-12-04 00:00:00,0.0493316538631916,0.005518925754940507,0
2017-12-04 12:00:00,0.0492704473435878,0.005518925754940507,0
2017-12-05 12:00:00,0.04905441775918,0.005518925754940507,0
2017-12-06 00:00:00,0.0487726926803588,0.005518925754940507,0
2017-12-07 00:00:00,0.0488160699605941,0.0059078210157244015,0
2017-12-07 12:00:00,0.0489435605704784,0.005518925754940507,0
2017-12-11 00:00:00,0.0523177795112133,0.005518925754940507,0
2017-12-11 12:00:00,0.0530823990702629,0.005518925754940507,0
2017-12-12 00:00:00,0.0530981421470642,0.005518925754940507,0
2017-12-12 12:00:00,0.0505205728113651,0.005518925754940507,0
2017-12-13 00:00:00,0.0506068095564842,0.005518925754940507,0
2017-12-13 12:00:00,0.0502624176442623,0.01646556973878499,0
2017-12-14 00:00:00,0.0513176321983337,0.01646556973878499,0
2017-12-14 12:00:00,0.0514058507978916,0.01646556973878499,0
2017-12-15 00:00:00,0.0488834232091903,0.01646556973878499,0
2017-12-15 12:00:00,0.0484169609844684,0.01646556973878499,0
2017-12-16 12:00:00,0.0486132204532623,0.011007392968392482,0
2017-12-17 00:00:00,0.0486297830939292,0.011007392968392482,0
2017-12-17 12:00:00,0.0496411211788654,0.011007392968392482,0
2017-12-18 00:00:00,0.0488746799528598,0.011007392968392482,0
2017-12-18 12:00:00,0.0489786863327026,0.005518925754940507,0
2017-12-20 00:00:00,0.0488227158784866,0.07384362860560845,0
2017-12-20 12:00:00,0.0581871606409549,0.278805184349303,0
2017-12-21 00:00:00,0.0664494708180427,0.3769332049393771,0
2017-12-21 12:00:00,0.0758315473794937,0.3000675036518483,0
2017-12-22 00:00:00,0.0827513486146926,0.5956932725347974,0
2017-12-22 12:00:00,0.070502795279026,0.5400944981050974,0
2017-12-23 00:00:00,0.0663883835077285,0.44341064271891406,0
2017-12-23 12:00:00,0.0554342158138752,0.4208109638963883,0
2017-12-24 00:00:00,0.0638851672410965,0.21730497586555753,0
2017-12-24 12:00:00,0.077344499528408,0.23840721946413723,0
2017-12-25 00:00:00,0.0644632577896118,0.22054916345359699,0
2017-12-25 12:00:00,0.0588747896254062,0.19957065058345225,0
2017-12-26 00:00:00,0.0564363934099674,0.16479300636675887,0
2017-12-26 12:00:00,0.0542110279202461,0.1388153131392068,0
2017-12-27 00:00:00,0.0594718381762504,0.16375169924871646,0
2017-12-27 12:00:00,0.0633938014507293,0.11448350815384767,0
2017-12-28 00:00:00,0.0633381307125091,0.13080430219983308,0
2017-12-28 12:00:00,0.0638012140989303,0.061555556792888266,0
2017-12-29 00:00:00,0.0651536136865615,0.02739465579903566,0
2017-12-29 12:00:00,0.05643055960536,0.02699086604220924,0
2017-12-31 00:00:00,0.046722050756216,0.010609461022032862,0
2017-12-31 12:00:00,0.0469042137265205,0.011007392968392482,0
