# Model: TSF,,,
# Model Parameters: **TRp2p4_TEp3**,,,
# ModelPath: **./TMP_Exp/models/**,,,
# Confusion Matrix,,,
#,,Predicted,
#,,FL,NF
#Actual,FL,1461,79
#,NF,8713,64795
#,,,
Metric,Score,,
TSS,0.8301699823819866,,
HSS2,0.2217027351100258,,
GSS,0.12467135809475749,,
Precision(XM),0.14360133674071163,,
TPR/Recall(XM),0.9487012987012987,,
Precision(CBN),0.9987822548324444,,
TNR/Recall(CBN),0.8814686836806879,,
FAR/FPR,0.8563986632592884,,
POFD/FDR,0.11853131631931219,,
F1(XM),0.2494451084172785,,
F1(CBN),0.9364657253110954,,
