timestamp,flare_prob,target
2010-12-06 12:00:00,0.09074367582798004,0
2010-12-07 00:00:00,0.06377501785755157,0
2010-12-07 12:00:00,0.06620673090219498,0
2010-12-08 00:00:00,0.06099100410938263,0
2010-12-08 12:00:00,0.06295232474803925,0
2010-12-09 00:00:00,0.05794908106327057,0
2010-12-10 00:00:00,0.11053559184074402,0
2010-12-10 12:00:00,0.1239546537399292,0
2010-12-11 00:00:00,0.14102241396903992,0
2010-12-11 12:00:00,0.13997972011566162,0
2010-12-12 00:00:00,0.1970774084329605,0
2010-12-12 12:00:00,0.22992530465126038,0
2010-12-13 00:00:00,0.22519554197788239,0
2010-12-13 12:00:00,0.1614128053188324,0
2010-12-14 00:00:00,0.10657698661088943,0
2010-12-14 12:00:00,0.08404798805713654,0
2010-12-15 00:00:00,0.0914134681224823,0
2010-12-15 12:00:00,0.0711584985256195,0
2010-12-16 00:00:00,0.056091535836458206,0
2010-12-16 12:00:00,0.049118004739284515,0
2010-12-17 00:00:00,0.046125467866659164,0
2010-12-17 12:00:00,0.044499728828668594,0
2010-12-18 00:00:00,0.045218031853437424,0
2010-12-18 12:00:00,0.04684814065694809,0
2010-12-19 00:00:00,0.04810536652803421,0
2010-12-19 12:00:00,0.049334682524204254,0
2010-12-20 00:00:00,0.04884535074234009,0
2010-12-20 12:00:00,0.049071334302425385,0
2010-12-21 00:00:00,0.050268277525901794,0
2010-12-21 12:00:00,0.04986590892076492,0
2010-12-22 00:00:00,0.05004563555121422,0
2010-12-22 12:00:00,0.05254023149609566,0
2010-12-23 00:00:00,0.051473453640937805,0
2010-12-23 12:00:00,0.05189947783946991,0
2010-12-24 00:00:00,0.056113213300704956,0
2010-12-24 12:00:00,0.05467703565955162,0
2010-12-25 00:00:00,0.05666407197713852,0
2010-12-25 12:00:00,0.06024991720914841,0
2010-12-26 00:00:00,0.07958667725324631,0
2010-12-26 12:00:00,0.051538657397031784,0
2010-12-27 00:00:00,0.044989679008722305,0
2010-12-27 12:00:00,0.04856438934803009,0
2010-12-28 00:00:00,0.05126408860087395,0
2010-12-28 12:00:00,0.05611443147063255,0
2010-12-29 00:00:00,0.05288585647940636,0
2010-12-29 12:00:00,0.054213687777519226,0
2010-12-30 00:00:00,0.053820978850126266,0
2010-12-30 12:00:00,0.058516111224889755,0
2010-12-31 00:00:00,0.05734999477863312,0
2010-12-31 12:00:00,0.05867950618267059,0
2011-10-01 00:00:00,0.7587937712669373,1
2011-10-01 12:00:00,0.8099035024642944,1
2011-10-02 00:00:00,0.7925360202789307,1
2011-10-02 12:00:00,0.7131422162055969,1
2011-10-03 00:00:00,0.6051218509674072,0
2011-10-03 12:00:00,0.6143733263015747,0
2011-10-04 00:00:00,0.4919688403606415,0
2011-10-04 12:00:00,0.5680397152900696,0
2011-10-05 00:00:00,0.47592225670814514,0
2011-10-05 12:00:00,0.5262534618377686,0
2011-10-06 00:00:00,0.6656191945075989,0
2011-10-06 12:00:00,0.5903579592704773,0
2011-10-07 00:00:00,0.46363577246665955,0
2011-10-07 12:00:00,0.4516178369522095,0
2011-10-08 00:00:00,0.4529655873775482,0
2011-10-08 12:00:00,0.5701181888580322,0
2011-10-09 00:00:00,0.3505021333694458,0
2011-10-09 12:00:00,0.3505021631717682,0
2011-10-10 00:00:00,0.350502073764801,0
2011-10-11 00:00:00,0.4887060821056366,0
2011-10-11 12:00:00,0.6520426869392395,0
2011-10-12 00:00:00,0.6735134124755859,0
2011-10-12 12:00:00,0.7187651991844177,0
2011-10-13 00:00:00,0.7636092901229858,0
2011-10-13 12:00:00,0.7346537113189697,0
2011-10-14 00:00:00,0.6731600761413574,0
2011-10-14 12:00:00,0.6720695495605469,0
2011-10-15 00:00:00,0.6074084043502808,0
2011-10-15 12:00:00,0.7779035568237305,0
2011-10-16 00:00:00,0.8048071265220642,0
2011-10-16 12:00:00,0.8322766423225403,0
2011-10-17 00:00:00,0.8886818885803223,0
2011-10-17 12:00:00,0.7521568536758423,0
2011-10-18 00:00:00,0.7890051603317261,0
2011-10-18 12:00:00,0.8473172783851624,0
2011-10-19 00:00:00,0.8465948104858398,0
2011-10-19 12:00:00,0.9123423099517822,1
2011-10-20 00:00:00,0.9376106262207031,1
2011-10-20 12:00:00,0.9466063976287842,0
2011-10-21 00:00:00,0.9445565938949585,1
2011-10-21 12:00:00,0.9178428053855896,1
2011-10-22 00:00:00,0.9120969176292419,1
2011-10-22 12:00:00,0.8648737668991089,0
2011-10-23 00:00:00,0.8543422222137451,0
2011-10-23 12:00:00,0.9205465316772461,0
2011-10-24 00:00:00,0.9118983149528503,0
2011-10-24 12:00:00,0.9253342151641846,0
2011-10-25 00:00:00,0.8614284992218018,0
2011-10-25 12:00:00,0.8628847002983093,0
2011-10-26 00:00:00,0.7873828411102295,0
2011-10-26 12:00:00,0.768928587436676,0
2011-10-27 00:00:00,0.6491310596466064,0
2011-10-27 12:00:00,0.6283710598945618,0
2011-10-28 00:00:00,0.7346827387809753,0
2011-10-28 12:00:00,0.7901139855384827,0
2011-10-29 00:00:00,0.6456354260444641,0
2011-10-29 12:00:00,0.47128820419311523,0
2011-10-30 00:00:00,0.39999404549598694,0
2011-10-30 12:00:00,0.5925687551498413,0
2011-10-31 00:00:00,0.5814486145973206,1
2011-10-31 12:00:00,0.6408863663673401,1
2011-11-01 00:00:00,0.4803408980369568,0
2011-11-01 12:00:00,0.5944452285766602,0
2011-11-02 00:00:00,0.7867910265922546,1
2011-11-02 12:00:00,0.8456028699874878,1
2011-11-03 00:00:00,0.8335790634155273,1
2011-11-03 12:00:00,0.8483452796936035,1
2011-11-04 00:00:00,0.8320050835609436,1
2011-11-05 00:00:00,0.8549358248710632,1
2011-11-05 12:00:00,0.845714807510376,1
2011-11-06 00:00:00,0.8190123438835144,1
2011-11-06 12:00:00,0.8920643329620361,0
2011-11-07 00:00:00,0.8903393149375916,0
2011-11-07 12:00:00,0.8912138342857361,0
2011-11-08 00:00:00,0.9007473587989807,0
2011-11-08 12:00:00,0.903616189956665,0
2011-11-09 00:00:00,0.8144452571868896,1
2011-11-09 12:00:00,0.7249805927276611,1
2011-11-10 00:00:00,0.723552942276001,0
2011-11-10 12:00:00,0.723552942276001,0
2011-11-12 00:00:00,0.8355276584625244,0
2011-11-12 12:00:00,0.8089480996131897,0
2011-11-13 00:00:00,0.8089480996131897,0
2011-11-14 00:00:00,0.7418443560600281,0
2011-11-14 12:00:00,0.6953226923942566,1
2011-11-15 00:00:00,0.6934032440185547,1
2011-11-15 12:00:00,0.6868336200714111,1
2011-11-16 00:00:00,0.5571813583374023,0
2011-11-16 12:00:00,0.47227975726127625,0
2011-11-17 00:00:00,0.40319088101387024,0
2011-11-17 12:00:00,0.3472825288772583,0
2011-11-18 00:00:00,0.39852967858314514,0
2011-11-18 12:00:00,0.5680053234100342,0
2011-11-19 00:00:00,0.5158592462539673,0
2011-11-19 12:00:00,0.4612089991569519,0
2011-11-20 00:00:00,0.43819496035575867,0
2011-11-20 12:00:00,0.5941492915153503,0
2011-11-21 00:00:00,0.5941492319107056,0
2011-11-21 12:00:00,0.5941492319107056,0
2011-11-22 00:00:00,0.5941492319107056,0
2011-11-22 12:00:00,0.5941492915153503,0
2011-11-23 00:00:00,0.5941492319107056,0
2011-11-23 12:00:00,0.5941492319107056,0
2011-11-24 00:00:00,0.5941493511199951,0
2011-11-24 12:00:00,0.5941492319107056,0
2011-11-25 00:00:00,0.5941492915153503,0
2011-11-25 12:00:00,0.5941493511199951,0
2011-11-26 00:00:00,0.5941492319107056,0
2011-11-26 12:00:00,0.5941492319107056,0
2011-11-27 00:00:00,0.5941493511199951,0
2011-11-27 12:00:00,0.5941492319107056,0
2011-12-05 00:00:00,0.7593216896057129,0
2011-12-05 12:00:00,0.76287841796875,0
2011-12-06 00:00:00,0.7628783583641052,0
2011-12-06 12:00:00,0.7628782987594604,0
2011-12-08 00:00:00,0.5430654287338257,0
2011-12-08 12:00:00,0.6134356260299683,0
2011-12-09 00:00:00,0.7826820611953735,0
2011-12-09 12:00:00,0.848588764667511,0
2011-12-10 00:00:00,0.8296350836753845,0
2011-12-10 12:00:00,0.7644727230072021,0
2011-12-11 00:00:00,0.6758430600166321,0
2011-12-11 12:00:00,0.5330290794372559,0
2011-12-12 00:00:00,0.41323694586753845,0
2011-12-12 12:00:00,0.34434786438941956,0
2011-12-13 00:00:00,0.27994927763938904,0
2011-12-13 12:00:00,0.32853370904922485,0
2011-12-14 00:00:00,0.37074699997901917,0
2011-12-14 12:00:00,0.3982962369918823,0
2011-12-15 00:00:00,0.2508888840675354,0
2011-12-15 12:00:00,0.2289908528327942,0
2011-12-16 00:00:00,0.21210362017154694,0
2011-12-16 12:00:00,0.2625058591365814,0
2011-12-17 00:00:00,0.22088377177715302,0
2011-12-17 12:00:00,0.1885560005903244,0
2011-12-18 00:00:00,0.3070344626903534,0
2011-12-18 12:00:00,0.4598924517631531,0
2011-12-19 00:00:00,0.6039900183677673,0
2011-12-19 12:00:00,0.4946236312389374,0
2011-12-20 00:00:00,0.37036892771720886,0
2011-12-20 12:00:00,0.7445486783981323,0
2011-12-21 00:00:00,0.8580031991004944,0
2011-12-21 12:00:00,0.8895457983016968,0
2011-12-22 00:00:00,0.7996113896369934,0
2011-12-22 12:00:00,0.7828433513641357,0
2011-12-23 00:00:00,0.7286669611930847,0
2011-12-23 12:00:00,0.5630982518196106,0
2011-12-24 00:00:00,0.4700712561607361,0
2011-12-24 12:00:00,0.42681851983070374,0
2011-12-25 00:00:00,0.6158526539802551,1
2011-12-25 12:00:00,0.691903293132782,1
2011-12-26 00:00:00,0.7259773015975952,1
2011-12-26 12:00:00,0.6890398263931274,1
2011-12-27 00:00:00,0.7092778086662292,0
2011-12-27 12:00:00,0.7144424915313721,0
2011-12-28 00:00:00,0.6287583708763123,0
2011-12-28 12:00:00,0.7396976947784424,0
2011-12-29 00:00:00,0.827372670173645,1
2011-12-29 12:00:00,0.8208489418029785,1
2011-12-30 00:00:00,0.7733011245727539,1
2011-12-30 12:00:00,0.6904321312904358,0
2011-12-31 00:00:00,0.6367961168289185,1
2011-12-31 12:00:00,0.5430120825767517,1
2012-10-01 00:00:00,0.5440018773078918,0
2012-10-01 12:00:00,0.3046680688858032,0
2012-10-02 00:00:00,0.35932591557502747,0
2012-10-02 12:00:00,0.36774349212646484,0
2012-10-03 00:00:00,0.5465947985649109,0
2012-10-03 12:00:00,0.7040101289749146,0
2012-10-04 00:00:00,0.700940728187561,0
2012-10-04 12:00:00,0.7442776560783386,0
2012-10-05 00:00:00,0.6311872005462646,0
2012-10-05 12:00:00,0.6038475632667542,0
2012-10-06 00:00:00,0.4859200417995453,0
2012-10-06 12:00:00,0.4035545885562897,0
2012-10-07 00:00:00,0.24560485780239105,0
2012-10-07 12:00:00,0.1667933464050293,1
2012-10-08 00:00:00,0.1529209017753601,1
2012-10-08 12:00:00,0.19704802334308624,0
2012-10-09 00:00:00,0.1530930995941162,1
2012-10-09 12:00:00,0.20498238503932953,1
2012-10-10 00:00:00,0.3790724277496338,1
2012-10-10 12:00:00,0.57328200340271,0
2012-10-11 00:00:00,0.6091414093971252,0
2012-10-11 12:00:00,0.60914146900177,0
2012-10-12 00:00:00,0.60914146900177,0
2012-10-12 12:00:00,0.60914146900177,0
2012-10-15 00:00:00,0.8420597910881042,0
2012-10-15 12:00:00,0.8498132824897766,0
2012-10-16 00:00:00,0.7994702458381653,0
2012-10-16 12:00:00,0.7630189061164856,0
2012-10-17 00:00:00,0.5985671281814575,0
2012-10-17 12:00:00,0.5122825503349304,0
2012-10-18 00:00:00,0.40757590532302856,0
2012-10-18 12:00:00,0.6336513161659241,0
2012-10-19 00:00:00,0.7012214064598083,0
2012-10-19 12:00:00,0.7365862131118774,0
2012-10-20 00:00:00,0.7797473669052124,1
2012-10-20 12:00:00,0.8604601621627808,1
2012-10-21 00:00:00,0.8256531357765198,1
2012-10-21 12:00:00,0.7865003943443298,1
2012-10-22 00:00:00,0.8816992044448853,1
2012-10-22 12:00:00,0.9091334342956543,1
2012-10-23 00:00:00,0.8664321303367615,1
2012-10-23 12:00:00,0.8376322388648987,0
2012-10-24 00:00:00,0.8518763780593872,0
2012-10-24 12:00:00,0.8490485548973083,0
2012-10-25 00:00:00,0.8547572493553162,0
2012-10-25 12:00:00,0.7872010469436646,0
2012-10-26 00:00:00,0.8010050058364868,0
2012-10-26 12:00:00,0.8465322256088257,0
2012-10-27 00:00:00,0.7977641224861145,0
2012-10-27 12:00:00,0.7591192722320557,0
2012-10-28 00:00:00,0.7219876050949097,0
2012-10-28 12:00:00,0.6494383215904236,0
2012-10-29 00:00:00,0.6321371793746948,0
2012-10-29 12:00:00,0.578586757183075,0
2012-10-30 00:00:00,0.48270711302757263,0
2012-10-30 12:00:00,0.5019143223762512,0
2012-10-31 00:00:00,0.49622929096221924,0
2012-10-31 12:00:00,0.5805784463882446,0
2012-11-01 00:00:00,0.4689885377883911,0
2012-11-01 12:00:00,0.2523641288280487,0
2012-11-02 00:00:00,0.1812160164117813,0
2012-11-02 12:00:00,0.24066735804080963,0
2012-11-03 00:00:00,0.17212407290935516,0
2012-11-03 12:00:00,0.1469874083995819,0
2012-11-04 00:00:00,0.11783972382545471,0
2012-11-04 12:00:00,0.12051291018724442,0
2012-11-05 00:00:00,0.08463454246520996,0
2012-11-06 00:00:00,0.11500018835067749,0
2012-11-06 12:00:00,0.13616400957107544,0
2012-11-07 00:00:00,0.17877022922039032,0
2012-11-07 12:00:00,0.23303908109664917,1
2012-11-08 00:00:00,0.2310602366924286,1
2012-11-08 12:00:00,0.220074862241745,0
2012-11-09 00:00:00,0.27620792388916016,0
2012-11-09 12:00:00,0.3123263120651245,0
2012-11-10 00:00:00,0.29628118872642517,0
2012-11-10 12:00:00,0.36385801434516907,1
2012-11-11 00:00:00,0.3863086402416229,1
2012-11-11 12:00:00,0.5452050566673279,0
2012-11-12 00:00:00,0.810141921043396,1
2012-11-12 12:00:00,0.8617669343948364,1
2012-11-13 00:00:00,0.8815156817436218,1
2012-11-13 12:00:00,0.9117316007614136,1
2012-11-14 00:00:00,0.8965474367141724,1
2012-11-14 12:00:00,0.7990773916244507,0
2012-11-15 00:00:00,0.7696200609207153,0
2012-11-15 12:00:00,0.7811245918273926,0
2012-11-16 00:00:00,0.7132840156555176,0
2012-11-16 12:00:00,0.5993612408638,0
2012-11-17 00:00:00,0.6313563585281372,0
2012-11-17 12:00:00,0.552834153175354,0
2012-11-18 00:00:00,0.549272894859314,0
2012-11-18 12:00:00,0.5793580412864685,0
2012-11-19 00:00:00,0.5956637263298035,0
2012-11-19 12:00:00,0.6244907379150391,0
2012-11-20 00:00:00,0.7632110118865967,1
2012-11-20 12:00:00,0.8268036246299744,1
2012-11-21 00:00:00,0.822668731212616,1
2012-11-21 12:00:00,0.7886219620704651,1
2012-11-22 00:00:00,0.8278595209121704,0
2012-11-22 12:00:00,0.8424115777015686,0
2012-11-23 00:00:00,0.727992057800293,0
2012-11-23 12:00:00,0.6199179291725159,0
2012-11-24 00:00:00,0.553024411201477,0
2012-11-24 12:00:00,0.4902721345424652,0
2012-11-25 00:00:00,0.3882687985897064,0
2012-11-25 12:00:00,0.4695594608783722,0
2012-11-26 00:00:00,0.5136154890060425,0
2012-11-26 12:00:00,0.5929060578346252,0
2012-11-27 00:00:00,0.4977264702320099,1
2012-11-27 12:00:00,0.5012863278388977,1
2012-11-28 00:00:00,0.4464842975139618,1
2012-11-28 12:00:00,0.6664614677429199,1
2012-11-29 00:00:00,0.6909784078598022,0
2012-11-29 12:00:00,0.673525869846344,0
2012-11-30 00:00:00,0.4970911741256714,0
2012-11-30 12:00:00,0.35073867440223694,0
2012-12-01 00:00:00,0.22355856001377106,0
2012-12-01 12:00:00,0.1707109957933426,0
2012-12-02 00:00:00,0.09800007194280624,0
2012-12-02 12:00:00,0.08615438640117645,0
2012-12-03 00:00:00,0.108921580016613,0
2012-12-03 12:00:00,0.1518491506576538,0
2012-12-04 00:00:00,0.19307181239128113,0
2012-12-04 12:00:00,0.15118521451950073,0
2012-12-05 00:00:00,0.15183253586292267,0
2012-12-05 12:00:00,0.16570842266082764,0
2012-12-06 00:00:00,0.19448478519916534,0
2012-12-06 12:00:00,0.1795271933078766,0
2012-12-07 00:00:00,0.12215308099985123,0
2012-12-07 12:00:00,0.17798742651939392,0
2012-12-08 00:00:00,0.14221225678920746,0
2012-12-08 12:00:00,0.16246774792671204,0
2012-12-09 00:00:00,0.12087550014257431,0
2012-12-09 12:00:00,0.09519145637750626,0
2012-12-10 00:00:00,0.08809821307659149,0
2012-12-10 12:00:00,0.15038953721523285,0
2012-12-11 00:00:00,0.1812974214553833,0
2012-12-11 12:00:00,0.1962624490261078,0
2012-12-12 00:00:00,0.2279750108718872,0
2012-12-12 12:00:00,0.28930652141571045,0
2012-12-13 00:00:00,0.21365046501159668,0
2012-12-13 12:00:00,0.22726377844810486,0
2012-12-14 00:00:00,0.35890331864356995,0
2012-12-14 12:00:00,0.5077577233314514,0
2012-12-15 00:00:00,0.4346569776535034,0
2012-12-15 12:00:00,0.5601053237915039,0
2012-12-16 00:00:00,0.546269953250885,0
2012-12-16 12:00:00,0.6339827179908752,0
2012-12-17 00:00:00,0.657328188419342,0
2012-12-17 12:00:00,0.5750632882118225,0
2012-12-18 00:00:00,0.679517388343811,0
2012-12-18 12:00:00,0.45576849579811096,0
2012-12-19 00:00:00,0.4801492989063263,0
2012-12-19 12:00:00,0.4750606417655945,0
2012-12-20 00:00:00,0.5821583867073059,0
2012-12-20 12:00:00,0.4375406801700592,0
2012-12-21 00:00:00,0.5298816561698914,0
2012-12-21 12:00:00,0.5235452055931091,0
2012-12-22 00:00:00,0.5349311828613281,0
2012-12-22 12:00:00,0.2673097848892212,0
2012-12-23 00:00:00,0.5179011225700378,0
2012-12-23 12:00:00,0.34130069613456726,0
2012-12-24 00:00:00,0.35821470618247986,0
2012-12-24 12:00:00,0.41471654176712036,0
2012-12-25 00:00:00,0.4182908833026886,0
2012-12-25 12:00:00,0.5636864900588989,0
2012-12-26 00:00:00,0.3528338074684143,0
2012-12-26 12:00:00,0.21855361759662628,0
2012-12-27 00:00:00,0.15744264423847198,0
2012-12-27 12:00:00,0.18395933508872986,0
2012-12-28 00:00:00,0.29740339517593384,0
2012-12-28 12:00:00,0.3449283242225647,0
2012-12-29 00:00:00,0.3402424156665802,0
2012-12-29 12:00:00,0.22959186136722565,0
2012-12-30 00:00:00,0.18197184801101685,0
2012-12-30 12:00:00,0.14161774516105652,0
2012-12-31 00:00:00,0.12804026901721954,0
2012-12-31 12:00:00,0.13650526106357574,0
2013-10-01 00:00:00,0.16022101044654846,0
2013-10-01 12:00:00,0.13741186261177063,0
2013-10-02 00:00:00,0.13010282814502716,0
2013-10-02 12:00:00,0.17404304444789886,0
2013-10-03 00:00:00,0.26557624340057373,0
2013-10-03 12:00:00,0.5475026965141296,0
2013-10-04 00:00:00,0.5323523879051208,0
2013-10-04 12:00:00,0.38598161935806274,0
2013-10-05 00:00:00,0.3047918379306793,0
2013-10-05 12:00:00,0.3575207591056824,0
2013-10-06 00:00:00,0.2666186988353729,0
2013-10-06 12:00:00,0.20414824783802032,0
2013-10-07 00:00:00,0.24238194525241852,0
2013-10-07 12:00:00,0.17731434106826782,0
2013-10-08 00:00:00,0.3164753019809723,0
2013-10-08 12:00:00,0.28054025769233704,1
2013-10-09 00:00:00,0.4028434157371521,1
2013-10-09 12:00:00,0.42508599162101746,0
2013-10-10 00:00:00,0.526159942150116,0
2013-10-10 12:00:00,0.6345669627189636,1
2013-10-11 00:00:00,0.740132749080658,1
2013-10-11 12:00:00,0.6964108943939209,0
2013-10-12 00:00:00,0.8007350564002991,0
2013-10-12 12:00:00,0.7915233969688416,1
2013-10-13 00:00:00,0.7221179604530334,1
2013-10-13 12:00:00,0.5955897569656372,0
2013-10-14 00:00:00,0.6205914616584778,0
2013-10-14 12:00:00,0.7018618583679199,1
2013-10-15 00:00:00,0.641122579574585,1
2013-10-15 12:00:00,0.6716041564941406,1
2013-10-16 00:00:00,0.6040515899658203,0
2013-10-16 12:00:00,0.7097764611244202,0
2013-10-17 00:00:00,0.6800139546394348,1
2013-10-17 12:00:00,0.7369955778121948,1
2013-10-18 00:00:00,0.6635458469390869,0
2013-10-18 12:00:00,0.6249709725379944,0
2013-10-19 00:00:00,0.6893970370292664,0
2013-10-19 12:00:00,0.6667335033416748,0
2013-10-20 00:00:00,0.727538526058197,0
2013-10-20 12:00:00,0.7019591331481934,0
2013-10-21 00:00:00,0.8539197444915771,0
2013-10-21 12:00:00,0.9264193773269653,1
2013-10-22 00:00:00,0.937260091304779,1
2013-10-22 12:00:00,0.8977563977241516,1
2013-10-23 00:00:00,0.9742888808250427,1
2013-10-23 12:00:00,0.9731743335723877,1
2013-10-24 00:00:00,0.9740741848945618,1
2013-10-24 12:00:00,0.958978533744812,1
2013-10-25 00:00:00,0.9374386668205261,1
2013-10-25 12:00:00,0.94352787733078,1
2013-10-26 00:00:00,0.9455127716064453,1
2013-10-26 12:00:00,0.9400199055671692,1
2013-10-27 00:00:00,0.95125412940979,1
2013-10-27 12:00:00,0.9606703519821167,1
2013-10-28 00:00:00,0.966992199420929,1
2013-10-28 12:00:00,0.9676900506019592,1
2013-10-29 00:00:00,0.9515857696533203,1
2013-10-29 12:00:00,0.9433271884918213,1
2013-10-30 00:00:00,0.9302994608879089,0
2013-10-30 12:00:00,0.8756393790245056,0
2013-10-31 00:00:00,0.8355613350868225,1
2013-10-31 12:00:00,0.7468796968460083,1
2013-11-01 00:00:00,0.7910385727882385,1
2013-11-01 12:00:00,0.7450141310691833,1
2013-11-02 00:00:00,0.7235110402107239,1
2013-11-02 12:00:00,0.703130841255188,1
2013-11-03 00:00:00,0.718021035194397,1
2013-11-03 12:00:00,0.7868028283119202,0
2013-11-04 00:00:00,0.8583794236183167,0
2013-11-04 12:00:00,0.8849061727523804,1
2013-11-05 00:00:00,0.9078490734100342,1
2013-11-05 12:00:00,0.9349159598350525,1
2013-11-06 00:00:00,0.9500263333320618,1
2013-11-06 12:00:00,0.87970370054245,1
2013-11-07 00:00:00,0.8657239675521851,1
2013-11-07 12:00:00,0.8291937112808228,1
2013-11-08 00:00:00,0.8384701013565063,1
2013-11-08 12:00:00,0.8873483538627625,0
2013-11-09 00:00:00,0.8641741871833801,0
2013-11-09 12:00:00,0.8571338653564453,1
2013-11-10 00:00:00,0.7821106314659119,1
2013-11-10 12:00:00,0.8158256411552429,1
2013-11-11 00:00:00,0.7457940578460693,1
2013-11-11 12:00:00,0.8608177900314331,0
2013-11-12 00:00:00,0.8891053795814514,0
2013-11-12 12:00:00,0.9032931327819824,0
2013-11-13 00:00:00,0.9372690916061401,1
2013-11-13 12:00:00,0.9432132840156555,1
2013-11-14 00:00:00,0.9526183009147644,0
2013-11-14 12:00:00,0.9442535638809204,1
2013-11-15 00:00:00,0.953594446182251,1
2013-11-15 12:00:00,0.970940113067627,1
2013-11-16 00:00:00,0.8990222811698914,1
2013-11-16 12:00:00,0.9269520044326782,1
2013-11-17 00:00:00,0.947411298751831,1
2013-11-17 12:00:00,0.958596408367157,0
2013-11-18 00:00:00,0.9178517460823059,0
2013-11-18 12:00:00,0.9322291612625122,1
2013-11-19 00:00:00,0.9301641583442688,1
2013-11-19 12:00:00,0.8964004516601562,0
2013-11-20 00:00:00,0.7657427787780762,0
2013-11-20 12:00:00,0.7599525451660156,1
2013-11-21 00:00:00,0.7096214294433594,1
2013-11-21 12:00:00,0.6483582854270935,0
2013-11-22 00:00:00,0.6323184370994568,0
2013-11-22 12:00:00,0.6497485041618347,1
2013-11-23 00:00:00,0.6374551057815552,1
2013-11-23 12:00:00,0.6195763945579529,1
2013-11-24 00:00:00,0.470394492149353,0
2013-11-24 12:00:00,0.334747314453125,0
2013-11-25 00:00:00,0.2192748337984085,0
2013-11-25 12:00:00,0.16049759089946747,0
2013-11-26 00:00:00,0.17969246208667755,0
2013-11-26 12:00:00,0.18390098214149475,0
2013-11-27 00:00:00,0.24823860824108124,0
2013-11-27 12:00:00,0.5521032214164734,0
2013-11-28 00:00:00,0.5656708478927612,0
2013-11-28 12:00:00,0.684622049331665,0
2013-11-29 00:00:00,0.6307913661003113,0
2013-11-29 12:00:00,0.5113551616668701,0
2013-11-30 00:00:00,0.605307400226593,0
2013-11-30 12:00:00,0.6389657258987427,0
2013-12-01 00:00:00,0.6470218300819397,0
2013-12-01 12:00:00,0.5870916247367859,0
2013-12-02 00:00:00,0.6356192827224731,0
2013-12-02 12:00:00,0.6369234323501587,0
2013-12-03 00:00:00,0.6486765742301941,0
2013-12-03 12:00:00,0.687187671661377,0
2013-12-04 00:00:00,0.7006863355636597,0
2013-12-04 12:00:00,0.5951601266860962,0
2013-12-05 00:00:00,0.532973051071167,0
2013-12-05 12:00:00,0.7135280966758728,0
2013-12-06 00:00:00,0.8437342047691345,0
2013-12-06 12:00:00,0.8413834571838379,1
2013-12-07 00:00:00,0.7746873497962952,1
2013-12-07 12:00:00,0.8276438117027283,0
2013-12-08 00:00:00,0.8795874714851379,0
2013-12-08 12:00:00,0.8928950428962708,0
2013-12-09 00:00:00,0.8812729120254517,0
2013-12-09 12:00:00,0.8996289372444153,0
2013-12-10 00:00:00,0.9195213913917542,0
2013-12-10 12:00:00,0.8971667885780334,0
2013-12-11 00:00:00,0.8911904096603394,0
2013-12-11 12:00:00,0.9076964259147644,0
2013-12-12 00:00:00,0.9276324510574341,0
2013-12-12 12:00:00,0.9276324510574341,0
2013-12-13 00:00:00,0.9276324510574341,0
2013-12-13 12:00:00,0.9276324510574341,0
2013-12-14 00:00:00,0.9276324510574341,0
2013-12-16 12:00:00,0.779653012752533,0
2013-12-17 00:00:00,0.7679720520973206,0
2013-12-17 12:00:00,0.8667389154434204,0
2013-12-18 00:00:00,0.923717737197876,0
2013-12-18 12:00:00,0.8902971148490906,0
2013-12-19 00:00:00,0.8050079345703125,1
2013-12-19 12:00:00,0.7738018035888672,1
2013-12-20 00:00:00,0.7380915284156799,1
2013-12-20 12:00:00,0.830474853515625,0
2013-12-21 00:00:00,0.8962657451629639,0
2013-12-21 12:00:00,0.9020237326622009,1
2013-12-22 00:00:00,0.9020237326622009,1
2013-12-23 00:00:00,0.8570582866668701,1
2013-12-23 12:00:00,0.8243263363838196,0
2013-12-24 00:00:00,0.8324406743049622,0
2013-12-24 12:00:00,0.7648800611495972,0
2013-12-25 00:00:00,0.6130866408348083,0
2013-12-25 12:00:00,0.5588156580924988,0
2013-12-26 00:00:00,0.5061377286911011,0
2013-12-26 12:00:00,0.6760868430137634,0
2013-12-27 00:00:00,0.6037920117378235,0
2013-12-27 12:00:00,0.6520722508430481,0
2013-12-28 00:00:00,0.6767107844352722,0
2013-12-28 12:00:00,0.7756152153015137,1
2013-12-29 00:00:00,0.8364154696464539,1
2013-12-29 12:00:00,0.7702383995056152,0
2013-12-30 00:00:00,0.7758191227912903,0
2013-12-30 12:00:00,0.7518631815910339,0
2013-12-31 00:00:00,0.6809045672416687,1
2013-12-31 12:00:00,0.7060618996620178,1
2014-10-01 00:00:00,0.8606860041618347,0
2014-10-01 12:00:00,0.8355956077575684,0
2014-10-02 00:00:00,0.8680297136306763,1
2014-10-02 12:00:00,0.7387649416923523,1
2014-10-03 00:00:00,0.6310384273529053,0
2014-10-03 12:00:00,0.5493619441986084,0
2014-10-04 00:00:00,0.41937312483787537,0
2014-10-04 12:00:00,0.5009652376174927,0
2014-10-05 00:00:00,0.4139899015426636,0
2014-10-05 12:00:00,0.5476096868515015,0
2014-10-06 00:00:00,0.4961336553096771,0
2014-10-06 12:00:00,0.6674849390983582,0
2014-10-07 00:00:00,0.5650437474250793,0
2014-10-07 12:00:00,0.48186466097831726,0
2014-10-08 00:00:00,0.43824365735054016,0
2014-10-08 12:00:00,0.40848609805107117,1
2014-10-09 00:00:00,0.3665890097618103,1
2014-10-09 12:00:00,0.46951961517333984,0
2014-10-10 00:00:00,0.4429152011871338,0
2014-10-10 12:00:00,0.47532030940055847,0
2014-10-11 00:00:00,0.33353346586227417,0
2014-10-11 12:00:00,0.29187893867492676,0
2014-10-12 00:00:00,0.16248063743114471,0
2014-10-12 12:00:00,0.1535206288099289,0
2014-10-13 00:00:00,0.29549792408943176,0
2014-10-13 12:00:00,0.38285285234451294,0
2014-10-14 00:00:00,0.44634580612182617,1
2014-10-14 12:00:00,0.40778714418411255,1
2014-10-15 00:00:00,0.459617555141449,0
2014-10-15 12:00:00,0.44487032294273376,0
2014-10-16 00:00:00,0.3647710680961609,1
2014-10-16 12:00:00,0.37724569439888,1
2014-10-17 00:00:00,0.5096586346626282,0
2014-10-17 12:00:00,0.5259823799133301,1
2014-10-18 00:00:00,0.757421612739563,1
2014-10-18 12:00:00,0.8216574192047119,1
2014-10-19 00:00:00,0.8185418248176575,1
2014-10-19 12:00:00,0.8860876560211182,1
2014-10-20 00:00:00,0.924199640750885,1
2014-10-20 12:00:00,0.9455004930496216,1
2014-10-21 00:00:00,0.9473674297332764,1
2014-10-21 12:00:00,0.9318650364875793,1
2014-10-22 00:00:00,0.9352364540100098,1
2014-10-22 12:00:00,0.9302389025688171,1
2014-10-23 00:00:00,0.9414739012718201,1
2014-10-23 12:00:00,0.9300105571746826,1
2014-10-24 00:00:00,0.9134929776191711,1
2014-10-24 12:00:00,0.9177067875862122,1
2014-10-25 00:00:00,0.8974702954292297,1
2014-10-25 12:00:00,0.9206241965293884,1
2014-10-26 00:00:00,0.9243044257164001,1
2014-10-26 12:00:00,0.9024971127510071,1
2014-10-27 00:00:00,0.8964035511016846,1
2014-10-27 12:00:00,0.8839231133460999,1
2014-10-28 00:00:00,0.8385029435157776,1
2014-10-28 12:00:00,0.7708932757377625,1
2014-10-29 00:00:00,0.602863609790802,1
2014-10-29 12:00:00,0.4755226671695709,1
2014-10-30 00:00:00,0.3752497732639313,1
2014-10-30 12:00:00,0.3113746643066406,0
2014-10-31 00:00:00,0.2635953724384308,0
2014-10-31 12:00:00,0.23629561066627502,0
2014-11-01 00:00:00,0.25243011116981506,0
2014-11-01 12:00:00,0.3793196976184845,0
2014-11-02 00:00:00,0.4890815317630768,0
2014-11-02 12:00:00,0.5530792474746704,1
2014-11-03 00:00:00,0.6462141275405884,1
2014-11-03 12:00:00,0.462928831577301,1
2014-11-04 00:00:00,0.4611693024635315,1
2014-11-04 12:00:00,0.5253538489341736,1
2014-11-05 00:00:00,0.47593188285827637,1
2014-11-05 12:00:00,0.6234467029571533,1
2014-11-06 00:00:00,0.6868886351585388,1
2014-11-06 12:00:00,0.6868887543678284,1
2014-11-07 12:00:00,0.5076951384544373,1
2014-11-08 00:00:00,0.5648900866508484,0
2014-11-08 12:00:00,0.5199116468429565,0
2014-11-09 00:00:00,0.5595336556434631,1
2014-11-09 12:00:00,0.5121686458587646,1
2014-11-10 00:00:00,0.48849260807037354,0
2014-11-10 12:00:00,0.6601372361183167,0
2014-11-11 00:00:00,0.7427558302879333,0
2014-11-11 12:00:00,0.6293443441390991,0
2014-11-12 00:00:00,0.7205637693405151,0
2014-11-12 12:00:00,0.6236017942428589,0
2014-11-13 00:00:00,0.5934239029884338,0
2014-11-13 12:00:00,0.765379011631012,0
2014-11-14 00:00:00,0.7976999878883362,0
2014-11-14 12:00:00,0.8337889313697815,1
2014-11-15 00:00:00,0.8456775546073914,1
2014-11-15 12:00:00,0.884721577167511,1
2014-11-16 00:00:00,0.9042601585388184,1
2014-11-16 12:00:00,0.9316075444221497,1
2014-11-17 00:00:00,0.9321758151054382,0
2014-11-17 12:00:00,0.873988926410675,0
2014-11-18 00:00:00,0.7976372838020325,0
2014-11-18 12:00:00,0.7070927023887634,0
2014-11-19 00:00:00,0.695553183555603,0
2014-11-19 12:00:00,0.6826503872871399,0
2014-11-20 00:00:00,0.6653170585632324,0
2014-11-20 12:00:00,0.7753844261169434,0
2014-11-21 00:00:00,0.8393169641494751,0
2014-11-21 12:00:00,0.8667948246002197,0
2014-11-22 00:00:00,0.8731192946434021,0
2014-11-22 12:00:00,0.9037452936172485,0
2014-11-23 00:00:00,0.9050164818763733,0
2014-11-23 12:00:00,0.8927857875823975,0
2014-11-24 00:00:00,0.894751250743866,0
2014-11-24 12:00:00,0.9130774736404419,0
2014-11-25 00:00:00,0.9212970733642578,0
2014-11-25 12:00:00,0.8778904676437378,0
2014-11-26 00:00:00,0.8707261681556702,0
2014-11-26 12:00:00,0.8611615300178528,0
2014-11-27 00:00:00,0.8912368416786194,0
2014-11-27 12:00:00,0.9108272790908813,0
2014-11-28 00:00:00,0.9079036116600037,0
2014-11-28 12:00:00,0.9386323690414429,0
2014-11-29 00:00:00,0.9296213984489441,0
2014-11-29 12:00:00,0.9568177461624146,0
2014-11-30 00:00:00,0.9222801327705383,0
2014-11-30 12:00:00,0.8816401958465576,1
2014-12-01 00:00:00,0.8374720811843872,1
2014-12-01 12:00:00,0.8104987144470215,0
2014-12-02 00:00:00,0.8395847082138062,0
2014-12-02 12:00:00,0.7815818786621094,0
2014-12-03 00:00:00,0.8490353226661682,0
2014-12-03 12:00:00,0.8400937914848328,1
2014-12-04 00:00:00,0.8561064600944519,1
2014-12-04 12:00:00,0.8509814143180847,1
2014-12-05 00:00:00,0.7916852831840515,1
2014-12-05 12:00:00,0.721937894821167,0
2014-12-06 00:00:00,0.6557156443595886,0
2014-12-06 12:00:00,0.6204918622970581,0
2014-12-07 00:00:00,0.5837385654449463,0
2014-12-07 12:00:00,0.5740535259246826,0
2014-12-08 00:00:00,0.4399445056915283,0
2014-12-08 12:00:00,0.3881184458732605,0
2014-12-09 00:00:00,0.5533741116523743,0
2014-12-09 12:00:00,0.6021203994750977,0
2014-12-10 00:00:00,0.5145420432090759,0
2014-12-10 12:00:00,0.48941701650619507,0
2014-12-11 00:00:00,0.588123083114624,0
2014-12-11 12:00:00,0.6090795397758484,0
2014-12-12 00:00:00,0.8165949583053589,0
2014-12-12 12:00:00,0.853283703327179,1
2014-12-13 00:00:00,0.7312198281288147,1
2014-12-13 12:00:00,0.7400580048561096,0
2014-12-14 00:00:00,0.726416289806366,1
2014-12-14 12:00:00,0.8362671732902527,1
2014-12-15 00:00:00,0.829804539680481,0
2014-12-15 12:00:00,0.9218525290489197,0
2014-12-16 00:00:00,0.9651974439620972,0
2014-12-16 12:00:00,0.968683123588562,1
2014-12-17 00:00:00,0.9691435694694519,1
2014-12-17 12:00:00,0.9632561802864075,1
2014-12-18 00:00:00,0.9621286392211914,1
2014-12-18 12:00:00,0.9694687724113464,1
2014-12-19 00:00:00,0.9791396856307983,1
2014-12-19 12:00:00,0.9767910242080688,1
2014-12-20 00:00:00,0.9692503809928894,1
2014-12-20 12:00:00,0.9587634801864624,1
2014-12-21 00:00:00,0.9572136402130127,1
2014-12-21 12:00:00,0.9555931091308594,1
2014-12-22 00:00:00,0.9700881242752075,1
2014-12-22 12:00:00,0.9583192467689514,0
2014-12-23 00:00:00,0.8755258917808533,0
2014-12-23 12:00:00,0.7918927073478699,0
2014-12-24 00:00:00,0.6235742568969727,0
2014-12-24 12:00:00,0.5817179679870605,0
2014-12-25 00:00:00,0.5592212677001953,0
2014-12-25 12:00:00,0.5144065618515015,0
2014-12-26 00:00:00,0.4272366166114807,0
2014-12-26 12:00:00,0.5031144618988037,1
2014-12-27 00:00:00,0.47166702151298523,1
2014-12-27 12:00:00,0.49026307463645935,0
2014-12-28 00:00:00,0.33988603949546814,0
2014-12-28 12:00:00,0.48424965143203735,0
2014-12-29 00:00:00,0.5367109775543213,0
2014-12-29 12:00:00,0.6467830538749695,0
2014-12-30 00:00:00,0.6676157712936401,0
2014-12-30 12:00:00,0.6243433952331543,0
2014-12-31 00:00:00,0.6458579897880554,0
2014-12-31 12:00:00,0.7554817795753479,0
2015-10-01 00:00:00,0.7477642297744751,1
2015-10-01 12:00:00,0.6744500994682312,1
2015-10-02 00:00:00,0.49811631441116333,1
2015-10-02 12:00:00,0.39621439576148987,1
2015-10-03 00:00:00,0.4084702134132385,0
2015-10-03 12:00:00,0.24280133843421936,1
2015-10-04 00:00:00,0.24696987867355347,1
2015-10-04 12:00:00,0.30794984102249146,0
2015-10-05 00:00:00,0.25440630316734314,0
2015-10-05 12:00:00,0.23183809220790863,0
2015-10-06 00:00:00,0.2286263406276703,0
2015-10-06 12:00:00,0.16591712832450867,0
2015-10-07 00:00:00,0.1262587308883667,0
2015-10-07 12:00:00,0.09529975801706314,0
2015-10-08 00:00:00,0.08161859959363937,0
2015-10-08 12:00:00,0.08161859959363937,0
2015-10-10 00:00:00,0.07917739450931549,0
2015-10-10 12:00:00,0.08381463587284088,0
2015-10-11 00:00:00,0.06972730159759521,0
2015-10-11 12:00:00,0.07394189387559891,0
2015-10-12 00:00:00,0.08781705051660538,0
2015-10-12 12:00:00,0.08861704915761948,0
2015-10-13 00:00:00,0.1250007301568985,0
2015-10-13 12:00:00,0.157080739736557,0
2015-10-14 00:00:00,0.17907215654850006,0
2015-10-14 12:00:00,0.23957905173301697,0
2015-10-15 00:00:00,0.38662758469581604,1
2015-10-15 12:00:00,0.3295344412326813,1
2015-10-16 00:00:00,0.27196916937828064,1
2015-10-16 12:00:00,0.4829813241958618,0
2015-10-17 00:00:00,0.4962892234325409,1
2015-10-17 12:00:00,0.605380654335022,1
2015-10-18 00:00:00,0.6667591333389282,0
2015-10-18 12:00:00,0.769355833530426,0
2015-10-19 00:00:00,0.863386869430542,0
2015-10-19 12:00:00,0.8574944138526917,0
2015-10-20 00:00:00,0.865041196346283,0
2015-10-20 12:00:00,0.7634809613227844,0
2015-10-21 00:00:00,0.5953769683837891,0
2015-10-21 12:00:00,0.5443617701530457,0
2015-10-22 00:00:00,0.44659337401390076,0
2015-10-22 12:00:00,0.5910623073577881,0
2015-10-23 00:00:00,0.6163691878318787,0
2015-10-23 12:00:00,0.47998857498168945,0
2015-10-24 00:00:00,0.4945622384548187,0
2015-10-24 12:00:00,0.5461493134498596,0
2015-10-25 00:00:00,0.3736756443977356,0
2015-10-25 12:00:00,0.4311980903148651,0
2015-10-26 00:00:00,0.4173760414123535,0
2015-10-26 12:00:00,0.4449141025543213,0
2015-10-27 00:00:00,0.46456193923950195,0
2015-10-27 12:00:00,0.5214548110961914,0
2015-10-28 00:00:00,0.411304771900177,0
2015-10-28 12:00:00,0.44916343688964844,0
2015-10-29 00:00:00,0.41249072551727295,0
2015-10-29 12:00:00,0.28931882977485657,0
2015-10-30 00:00:00,0.24588099122047424,0
2015-10-30 12:00:00,0.3497779667377472,0
2015-10-31 00:00:00,0.48825034499168396,1
2015-10-31 12:00:00,0.6329538226127625,1
2015-11-01 00:00:00,0.7166346907615662,0
2015-11-01 12:00:00,0.8130308389663696,0
2015-11-02 00:00:00,0.7665047645568848,0
2015-11-02 12:00:00,0.7732009887695312,0
2015-11-03 00:00:00,0.781969428062439,0
2015-11-03 12:00:00,0.8653448820114136,1
2015-11-04 00:00:00,0.8630548119544983,1
2015-11-04 12:00:00,0.8041208386421204,1
2015-11-05 00:00:00,0.7082915306091309,0
2015-11-05 12:00:00,0.5293980836868286,0
2015-11-06 00:00:00,0.6672205924987793,0
2015-11-06 12:00:00,0.7398447394371033,0
2015-11-07 00:00:00,0.7235337495803833,0
2015-11-07 12:00:00,0.7196457982063293,0
2015-11-08 00:00:00,0.6883660554885864,0
2015-11-08 12:00:00,0.6531532406806946,0
2015-11-09 00:00:00,0.6562759876251221,1
2015-11-09 12:00:00,0.5397505760192871,1
2015-11-10 00:00:00,0.45894554257392883,0
2015-11-10 12:00:00,0.3054232597351074,0
2015-11-11 00:00:00,0.22985118627548218,0
2015-11-11 12:00:00,0.1775231659412384,0
2015-11-12 00:00:00,0.17838864028453827,0
2015-11-12 12:00:00,0.18144641816616058,0
2015-11-13 00:00:00,0.19538873434066772,0
2015-11-13 12:00:00,0.15009768307209015,0
2015-11-14 00:00:00,0.17517517507076263,0
2015-11-14 12:00:00,0.2089720219373703,0
2015-11-15 00:00:00,0.2470858097076416,0
2015-11-15 12:00:00,0.259442001581192,0
2015-11-16 00:00:00,0.24703356623649597,0
2015-11-16 12:00:00,0.21506714820861816,0
2015-11-17 00:00:00,0.16255228221416473,0
2015-11-17 12:00:00,0.15378151834011078,0
2015-11-18 00:00:00,0.1609734147787094,0
2015-11-18 12:00:00,0.17483265697956085,0
2015-11-19 00:00:00,0.1892440915107727,0
2015-11-19 12:00:00,0.23863327503204346,0
2015-11-20 00:00:00,0.17820927500724792,0
2015-11-20 12:00:00,0.22685405611991882,0
2015-11-21 00:00:00,0.307412713766098,0
2015-11-21 12:00:00,0.47957757115364075,0
2015-11-22 00:00:00,0.4761711061000824,0
2015-11-22 12:00:00,0.48158520460128784,0
2015-11-23 00:00:00,0.3711560368537903,0
2015-11-23 12:00:00,0.4031904339790344,0
2015-11-24 00:00:00,0.3831365704536438,0
2015-11-24 12:00:00,0.24954169988632202,0
2015-11-25 00:00:00,0.13143490254878998,0
2015-11-25 12:00:00,0.19046036899089813,0
2015-11-26 00:00:00,0.1733364313840866,0
2015-11-26 12:00:00,0.20020632445812225,0
2015-11-27 00:00:00,0.12485212832689285,0
2015-11-27 12:00:00,0.11824531108140945,0
2015-11-28 00:00:00,0.14674773812294006,0
2015-11-28 12:00:00,0.13670825958251953,0
2015-11-29 00:00:00,0.11336805671453476,0
2015-11-29 12:00:00,0.10820013284683228,0
2015-11-30 00:00:00,0.10721414536237717,0
2015-11-30 12:00:00,0.14535580575466156,0
2015-12-01 00:00:00,0.17801600694656372,0
2015-12-01 12:00:00,0.18893718719482422,0
2015-12-02 00:00:00,0.15138791501522064,0
2015-12-02 12:00:00,0.1373957097530365,0
2015-12-03 00:00:00,0.13128817081451416,0
2015-12-03 12:00:00,0.08970512449741364,0
2015-12-04 00:00:00,0.07751774042844772,0
2015-12-04 12:00:00,0.1083609014749527,0
2015-12-05 00:00:00,0.2696591019630432,0
2015-12-05 12:00:00,0.3105195164680481,0
2015-12-06 00:00:00,0.1442165970802307,0
2015-12-06 12:00:00,0.14519032835960388,0
2015-12-07 00:00:00,0.12148233503103256,0
2015-12-07 12:00:00,0.12985672056674957,0
2015-12-08 00:00:00,0.15989577770233154,0
2015-12-08 12:00:00,0.14972370862960815,0
2015-12-09 00:00:00,0.15611465275287628,0
2015-12-09 12:00:00,0.2471691519021988,0
2015-12-10 00:00:00,0.2912442982196808,0
2015-12-10 12:00:00,0.30505210161209106,0
2015-12-11 00:00:00,0.5386145114898682,0
2015-12-11 12:00:00,0.5140833854675293,0
2015-12-12 00:00:00,0.3094422221183777,0
2015-12-12 12:00:00,0.5681362748146057,0
2015-12-13 00:00:00,0.4201720058917999,0
2015-12-13 12:00:00,0.3816041648387909,0
2015-12-14 00:00:00,0.42309311032295227,0
2015-12-14 12:00:00,0.5699649453163147,0
2015-12-15 00:00:00,0.5996826887130737,0
2015-12-15 12:00:00,0.5542522072792053,0
2015-12-16 00:00:00,0.4687935709953308,0
2015-12-16 12:00:00,0.3427472710609436,0
2015-12-17 00:00:00,0.24919112026691437,0
2015-12-17 12:00:00,0.15805497765541077,0
2015-12-18 00:00:00,0.15743689239025116,0
2015-12-18 12:00:00,0.16187337040901184,0
2015-12-19 00:00:00,0.22451600432395935,0
2015-12-19 12:00:00,0.19602492451667786,0
2015-12-20 00:00:00,0.1941327452659607,0
2015-12-20 12:00:00,0.17222853004932404,1
2015-12-21 00:00:00,0.13863690197467804,1
2015-12-21 12:00:00,0.14577226340770721,1
2015-12-22 00:00:00,0.29009783267974854,1
2015-12-22 12:00:00,0.6199559569358826,1
2015-12-23 00:00:00,0.7789185047149658,1
2015-12-23 12:00:00,0.8508812189102173,1
2015-12-24 00:00:00,0.8280583620071411,1
2015-12-24 12:00:00,0.787729024887085,0
2015-12-25 00:00:00,0.6554984450340271,0
2015-12-25 12:00:00,0.5154344439506531,0
2015-12-26 00:00:00,0.49223005771636963,0
2015-12-26 12:00:00,0.5249018669128418,0
2015-12-27 00:00:00,0.764254093170166,0
2015-12-27 12:00:00,0.6547423005104065,1
2015-12-28 00:00:00,0.6172364950180054,1
2015-12-28 12:00:00,0.6229404807090759,0
2015-12-29 00:00:00,0.4831208288669586,0
2015-12-29 12:00:00,0.5272819995880127,0
2015-12-30 00:00:00,0.5123822093009949,0
2015-12-30 12:00:00,0.554603636264801,0
2015-12-31 00:00:00,0.5207448601722717,0
2015-12-31 12:00:00,0.3391675651073456,0
2016-10-01 00:00:00,0.05019069463014603,0
2016-10-01 12:00:00,0.04985236003994942,0
2016-10-02 00:00:00,0.04962369054555893,0
2016-10-02 12:00:00,0.05827886238694191,0
2016-10-03 00:00:00,0.07378991693258286,0
2016-10-03 12:00:00,0.12578842043876648,0
2016-10-04 00:00:00,0.23604856431484222,0
2016-10-04 12:00:00,0.5096361041069031,0
2016-10-05 00:00:00,0.5067873597145081,0
2016-10-05 12:00:00,0.6334522366523743,0
2016-10-06 00:00:00,0.499904990196228,0
2016-10-06 12:00:00,0.4364277720451355,0
2016-10-07 00:00:00,0.49094200134277344,0
2016-10-07 12:00:00,0.5091274976730347,0
2016-10-08 00:00:00,0.38699328899383545,0
2016-10-08 12:00:00,0.3235512375831604,0
2016-10-09 00:00:00,0.4189099073410034,0
2016-10-09 12:00:00,0.61784827709198,0
2016-10-10 00:00:00,0.5983695387840271,0
2016-10-10 12:00:00,0.47276389598846436,0
2016-10-11 00:00:00,0.41001227498054504,0
2016-10-11 12:00:00,0.35877710580825806,0
2016-10-12 00:00:00,0.32977938652038574,0
2016-10-12 12:00:00,0.3666379451751709,0
2016-10-13 00:00:00,0.34176746010780334,0
2016-10-13 12:00:00,0.48529326915740967,0
2016-10-14 00:00:00,0.41365429759025574,0
2016-10-14 12:00:00,0.34547361731529236,0
2016-10-15 00:00:00,0.20260663330554962,0
2016-10-15 12:00:00,0.10123508423566818,0
2016-10-16 00:00:00,0.08913586288690567,0
2016-10-16 12:00:00,0.10473686456680298,0
2016-10-17 00:00:00,0.09900173544883728,0
2016-10-17 12:00:00,0.08606483787298203,0
2016-10-18 00:00:00,0.08478584885597229,0
2016-10-18 12:00:00,0.09317497909069061,0
2016-10-19 00:00:00,0.11043501645326614,0
2016-10-19 12:00:00,0.1305559128522873,0
2016-10-20 00:00:00,0.12960468232631683,0
2016-10-20 12:00:00,0.10796055942773819,0
2016-10-21 00:00:00,0.09922605752944946,0
2016-10-21 12:00:00,0.0951017364859581,0
2016-10-22 00:00:00,0.11048953980207443,0
2016-10-22 12:00:00,0.09007430821657181,0
2016-10-23 00:00:00,0.07106558233499527,0
2016-10-23 12:00:00,0.07024210691452026,0
2016-10-24 00:00:00,0.07379316538572311,0
2016-10-24 12:00:00,0.07744425535202026,0
2016-10-25 00:00:00,0.08191155642271042,0
2016-10-25 12:00:00,0.15962882339954376,0
2016-10-26 00:00:00,0.19671553373336792,0
2016-10-26 12:00:00,0.14051052927970886,0
2016-10-27 00:00:00,0.1051793023943901,0
2016-10-27 12:00:00,0.08593861758708954,0
2016-10-28 00:00:00,0.06972523033618927,0
2016-10-28 12:00:00,0.08532187342643738,0
2016-10-29 00:00:00,0.0846564844250679,0
2016-10-29 12:00:00,0.0795917809009552,0
2016-10-30 00:00:00,0.0749744400382042,0
2016-10-30 12:00:00,0.08551546931266785,0
2016-10-31 00:00:00,0.07854848355054855,0
2016-10-31 12:00:00,0.07095497846603394,0
2016-11-01 00:00:00,0.06716035306453705,0
2016-11-01 12:00:00,0.06735095381736755,0
2016-11-02 00:00:00,0.06264902651309967,0
2016-11-02 12:00:00,0.06177550181746483,0
2016-11-03 00:00:00,0.06299054622650146,0
2016-11-03 12:00:00,0.07125546783208847,0
2016-11-04 00:00:00,0.07861191034317017,0
2016-11-04 12:00:00,0.07502755522727966,0
2016-11-05 00:00:00,0.07395003736019135,0
2016-11-05 12:00:00,0.08022265881299973,0
2016-11-06 00:00:00,0.0924641415476799,0
2016-11-06 12:00:00,0.08530214428901672,0
2016-11-07 00:00:00,0.08154688775539398,0
2016-11-07 12:00:00,0.07580453157424927,0
2016-11-08 00:00:00,0.06403908878564835,0
2016-11-08 12:00:00,0.0619320347905159,0
2016-11-09 00:00:00,0.06149810552597046,0
2016-11-09 12:00:00,0.06598318368196487,0
2016-11-10 00:00:00,0.11731485277414322,0
2016-11-10 12:00:00,0.10004038363695145,0
2016-11-11 00:00:00,0.08191978931427002,0
2016-11-11 12:00:00,0.07256108522415161,0
2016-11-12 00:00:00,0.0694628581404686,0
2016-11-12 12:00:00,0.06330737471580505,0
2016-11-13 00:00:00,0.05883508920669556,0
2016-11-13 12:00:00,0.0643329992890358,0
2016-11-14 00:00:00,0.06265347450971603,0
2016-11-14 12:00:00,0.0734071135520935,0
2016-11-15 00:00:00,0.0837668627500534,0
2016-11-15 12:00:00,0.09573744237422943,0
2016-11-16 00:00:00,0.09636472910642624,0
2016-11-16 12:00:00,0.12148965895175934,0
2016-11-17 00:00:00,0.11023980379104614,0
2016-11-17 12:00:00,0.10257381945848465,0
2016-11-18 00:00:00,0.07740385085344315,0
2016-11-18 12:00:00,0.0814904049038887,0
2016-11-19 00:00:00,0.0805116668343544,0
2016-11-19 12:00:00,0.08775398135185242,0
2016-11-20 00:00:00,0.0722372829914093,0
2016-11-20 12:00:00,0.06113102659583092,0
2016-11-21 00:00:00,0.05844161659479141,0
2016-11-21 12:00:00,0.061403512954711914,0
2016-11-22 00:00:00,0.06413488835096359,0
2016-11-22 12:00:00,0.062485527247190475,0
2016-11-23 00:00:00,0.05902193486690521,0
2016-11-23 12:00:00,0.07843749970197678,0
2016-11-24 00:00:00,0.11015988141298294,0
2016-11-24 12:00:00,0.19744747877120972,0
2016-11-25 00:00:00,0.2476939857006073,0
2016-11-25 12:00:00,0.21800528466701508,0
2016-11-26 00:00:00,0.171266570687294,0
2016-11-26 12:00:00,0.1798669397830963,0
2016-11-27 00:00:00,0.1272864043712616,0
2016-11-27 12:00:00,0.10775815695524216,0
2016-11-28 00:00:00,0.1359020322561264,0
2016-11-28 12:00:00,0.1544300764799118,0
2016-11-29 00:00:00,0.14965322613716125,1
2016-11-29 12:00:00,0.23718753457069397,1
2016-11-30 00:00:00,0.21593870222568512,0
2016-11-30 12:00:00,0.2521868348121643,0
2016-12-01 00:00:00,0.2140624076128006,0
2016-12-01 12:00:00,0.21177570521831512,0
2016-12-02 00:00:00,0.2963436245918274,0
2016-12-02 12:00:00,0.24777424335479736,0
2016-12-03 00:00:00,0.38919302821159363,0
2016-12-03 12:00:00,0.34447064995765686,0
2016-12-04 00:00:00,0.28361669182777405,0
2016-12-04 12:00:00,0.28361666202545166,0
2016-12-05 00:00:00,0.2836166024208069,0
2016-12-06 00:00:00,0.23854011297225952,0
2016-12-06 12:00:00,0.3518502116203308,0
2016-12-07 00:00:00,0.3312224745750427,0
2016-12-07 12:00:00,0.2831117510795593,0
2016-12-08 00:00:00,0.18749801814556122,0
2016-12-08 12:00:00,0.14464960992336273,0
2016-12-09 00:00:00,0.06615060567855835,0
2016-12-09 12:00:00,0.05146180838346481,0
2016-12-10 00:00:00,0.04880473017692566,0
2016-12-10 12:00:00,0.04906616359949112,0
2016-12-11 00:00:00,0.04832233861088753,0
2016-12-11 12:00:00,0.0487615130841732,0
2016-12-12 00:00:00,0.05409367382526398,0
2016-12-12 12:00:00,0.0565887913107872,0
2016-12-13 00:00:00,0.07043233513832092,0
2016-12-13 12:00:00,0.0736440047621727,0
2016-12-14 00:00:00,0.05770881846547127,0
2016-12-14 12:00:00,0.05222232639789581,0
2016-12-15 00:00:00,0.051353681832551956,0
2016-12-15 12:00:00,0.05051819607615471,0
2016-12-16 00:00:00,0.05042194575071335,0
2016-12-16 12:00:00,0.049619775265455246,0
2016-12-17 00:00:00,0.048163868486881256,0
2016-12-17 12:00:00,0.046325281262397766,0
2016-12-18 00:00:00,0.04709551855921745,0
2016-12-18 12:00:00,0.04829481616616249,0
2016-12-19 00:00:00,0.04651268571615219,0
2016-12-19 12:00:00,0.04623672366142273,0
2016-12-20 00:00:00,0.04811582341790199,0
2016-12-20 12:00:00,0.05211929976940155,0
2016-12-21 00:00:00,0.06586402654647827,0
2016-12-21 12:00:00,0.07912704348564148,0
2016-12-22 00:00:00,0.08177964389324188,0
2016-12-22 12:00:00,0.06238802894949913,0
2016-12-23 00:00:00,0.05624856799840927,0
2016-12-23 12:00:00,0.05207309126853943,0
2016-12-24 00:00:00,0.05248138681054115,0
2016-12-24 12:00:00,0.051610760390758514,0
2016-12-25 00:00:00,0.048147350549697876,0
2016-12-25 12:00:00,0.046581968665122986,0
2016-12-26 00:00:00,0.048857204616069794,0
2016-12-26 12:00:00,0.05153093859553337,0
2016-12-27 00:00:00,0.05883153900504112,0
2016-12-27 12:00:00,0.06355451792478561,0
2016-12-28 00:00:00,0.061877667903900146,0
2016-12-28 12:00:00,0.061561670154333115,0
2016-12-29 00:00:00,0.05101429671049118,0
2016-12-29 12:00:00,0.0522507019340992,0
2016-12-30 00:00:00,0.05249415338039398,0
2016-12-30 12:00:00,0.05986757203936577,0
2016-12-31 00:00:00,0.05244622007012367,0
2016-12-31 12:00:00,0.05113253369927406,0
2017-10-01 00:00:00,0.2354348599910736,0
2017-10-01 12:00:00,0.23113813996315002,0
2017-10-02 00:00:00,0.17519524693489075,0
2017-10-02 12:00:00,0.24844595789909363,0
2017-10-03 00:00:00,0.30931976437568665,0
2017-10-03 12:00:00,0.31580811738967896,0
2017-10-04 00:00:00,0.24219471216201782,0
2017-10-04 12:00:00,0.2729541063308716,0
2017-10-05 00:00:00,0.28793513774871826,0
2017-10-05 12:00:00,0.289546400308609,0
2017-10-06 00:00:00,0.23712468147277832,0
2017-10-06 12:00:00,0.15510234236717224,0
2017-10-07 00:00:00,0.14649713039398193,0
2017-10-07 12:00:00,0.08271532505750656,0
2017-10-08 00:00:00,0.05297529697418213,0
2017-10-08 12:00:00,0.04973306134343147,0
2017-10-09 00:00:00,0.04958043619990349,0
2017-10-09 12:00:00,0.05044491961598396,0
2017-10-10 00:00:00,0.04971887916326523,0
2017-10-10 12:00:00,0.04980608820915222,0
2017-10-11 00:00:00,0.04992241412401199,0
2017-10-11 12:00:00,0.04947444796562195,0
2017-10-12 00:00:00,0.0493539422750473,0
2017-10-12 12:00:00,0.049247290939092636,0
2017-10-13 00:00:00,0.04959099739789963,0
2017-10-13 12:00:00,0.05049559846520424,0
2017-10-14 00:00:00,0.05127866566181183,0
2017-10-14 12:00:00,0.051389895379543304,0
2017-10-15 00:00:00,0.05115019902586937,0
2017-10-15 12:00:00,0.05257965996861458,0
2017-10-16 00:00:00,0.054543375968933105,0
2017-10-16 12:00:00,0.05346997082233429,0
2017-10-17 00:00:00,0.05535081773996353,0
2017-10-17 12:00:00,0.05530644580721855,0
2017-10-18 00:00:00,0.05358259379863739,0
2017-10-18 12:00:00,0.052155207842588425,0
2017-10-19 00:00:00,0.05269993469119072,0
2017-10-19 12:00:00,0.054317839443683624,0
2017-10-20 00:00:00,0.05500947684049606,1
2017-10-20 12:00:00,0.05462847650051117,1
2017-10-21 00:00:00,0.05516235902905464,0
2017-10-21 12:00:00,0.056178998202085495,0
2017-10-22 00:00:00,0.05806364491581917,0
2017-10-22 12:00:00,0.06846444308757782,0
2017-10-23 00:00:00,0.07403267174959183,0
2017-10-23 12:00:00,0.08335529267787933,0
2017-10-24 00:00:00,0.07830888032913208,0
2017-10-24 12:00:00,0.0903216004371643,0
2017-10-25 00:00:00,0.07301166653633118,0
2017-10-25 12:00:00,0.06901365518569946,0
2017-10-26 00:00:00,0.07717790454626083,0
2017-10-26 12:00:00,0.07425493001937866,0
2017-10-27 00:00:00,0.06924904882907867,0
2017-10-27 12:00:00,0.06965135782957077,0
2017-10-28 00:00:00,0.06384138017892838,0
2017-10-28 12:00:00,0.06572987884283066,0
2017-10-29 00:00:00,0.07511750608682632,0
2017-10-29 12:00:00,0.06811859458684921,0
2017-10-30 00:00:00,0.07080342620611191,0
2017-10-30 12:00:00,0.06988255679607391,0
2017-10-31 00:00:00,0.0730532556772232,0
2017-10-31 12:00:00,0.07528603076934814,0
2017-11-01 00:00:00,0.07683439552783966,0
2017-11-01 12:00:00,0.07071089744567871,0
2017-11-02 00:00:00,0.06268729269504547,0
2017-11-02 12:00:00,0.06092291325330734,0
2017-11-03 00:00:00,0.060721926391124725,0
2017-11-03 12:00:00,0.058399803936481476,0
2017-11-04 00:00:00,0.05721457302570343,0
2017-11-04 12:00:00,0.05689447000622749,0
2017-11-05 00:00:00,0.05688551440834999,0
2017-11-05 12:00:00,0.057165540754795074,0
2017-11-06 00:00:00,0.05697765201330185,0
2017-11-06 12:00:00,0.05638115480542183,0
2017-11-07 00:00:00,0.05627406761050224,0
2017-11-07 12:00:00,0.05637921392917633,0
2017-11-08 00:00:00,0.0558263435959816,0
2017-11-08 12:00:00,0.055838070809841156,0
2017-11-09 00:00:00,0.05529012903571129,0
2017-11-09 12:00:00,0.05545270815491676,0
2017-11-10 00:00:00,0.055592622607946396,0
2017-11-10 12:00:00,0.0558883361518383,0
2017-11-11 00:00:00,0.05561180040240288,0
2017-11-11 12:00:00,0.05620236322283745,0
2017-11-12 00:00:00,0.0563565231859684,0
2017-11-12 12:00:00,0.05664552003145218,0
2017-11-13 00:00:00,0.0561361201107502,0
2017-11-13 12:00:00,0.055405158549547195,0
2017-11-14 00:00:00,0.05497687682509422,0
2017-11-14 12:00:00,0.05944938585162163,0
2017-11-15 00:00:00,0.07315151393413544,0
2017-11-15 12:00:00,0.08976925164461136,0
2017-11-16 00:00:00,0.10462027043104172,0
2017-11-16 12:00:00,0.1084621250629425,0
2017-11-17 00:00:00,0.10971187055110931,0
2017-11-17 12:00:00,0.09600672125816345,0
2017-11-18 00:00:00,0.07717588543891907,0
2017-11-18 12:00:00,0.07881420105695724,0
2017-11-19 00:00:00,0.07533933967351913,0
2017-11-19 12:00:00,0.07435847818851471,0
2017-11-20 00:00:00,0.0777135044336319,0
2017-11-20 12:00:00,0.07600992918014526,0
2017-11-21 00:00:00,0.07062369585037231,0
2017-11-21 12:00:00,0.06762504577636719,0
2017-11-22 00:00:00,0.062115754932165146,0
2017-11-22 12:00:00,0.06707868725061417,0
2017-11-23 00:00:00,0.07681253552436829,0
2017-11-23 12:00:00,0.07681253552436829,0
2017-11-24 00:00:00,0.07681253552436829,0
2017-11-24 12:00:00,0.07681253552436829,0
2017-11-27 00:00:00,0.07081922888755798,0
2017-11-27 12:00:00,0.10141818970441818,0
2017-11-28 00:00:00,0.09301576018333435,0
2017-11-28 12:00:00,0.09291887283325195,0
2017-11-29 00:00:00,0.08265206962823868,0
2017-11-29 12:00:00,0.0730663612484932,0
2017-11-30 00:00:00,0.06445017457008362,0
2017-11-30 12:00:00,0.05465847626328468,0
2017-12-01 00:00:00,0.05074885115027428,0
2017-12-01 12:00:00,0.0510997511446476,0
2017-12-02 00:00:00,0.05042754113674164,0
2017-12-02 12:00:00,0.05049562826752663,0
2017-12-03 00:00:00,0.049811217933893204,0
2017-12-03 12:00:00,0.04983936622738838,0
2017-12-04 00:00:00,0.049331653863191605,0
2017-12-04 12:00:00,0.049270447343587875,0
2017-12-05 00:00:00,0.049113884568214417,0
2017-12-05 12:00:00,0.04905441775918007,0
2017-12-06 00:00:00,0.04877269268035889,0
2017-12-06 12:00:00,0.04937148094177246,0
2017-12-07 00:00:00,0.04881606996059418,0
2017-12-07 12:00:00,0.04894356057047844,0
2017-12-08 00:00:00,0.0484730564057827,0
2017-12-08 12:00:00,0.0493617057800293,0
2017-12-09 00:00:00,0.04894005134701729,0
2017-12-09 12:00:00,0.04900005832314491,0
2017-12-10 00:00:00,0.049418896436691284,0
2017-12-10 12:00:00,0.0504605658352375,0
2017-12-11 00:00:00,0.0523177795112133,0
2017-12-11 12:00:00,0.05308239907026291,0
2017-12-12 00:00:00,0.05309814214706421,0
2017-12-12 12:00:00,0.05052057281136513,0
2017-12-13 00:00:00,0.05060680955648422,0
2017-12-13 12:00:00,0.050262417644262314,0
2017-12-14 00:00:00,0.05131763219833374,0
2017-12-14 12:00:00,0.05140585079789162,0
2017-12-15 00:00:00,0.04888342320919037,0
2017-12-15 12:00:00,0.04841696098446846,0
2017-12-16 00:00:00,0.04811891168355942,0
2017-12-16 12:00:00,0.04861322045326233,0
2017-12-17 00:00:00,0.04862978309392929,0
2017-12-17 12:00:00,0.04964112117886543,0
2017-12-18 00:00:00,0.04887467995285988,0
2017-12-18 12:00:00,0.04897868633270264,0
2017-12-19 00:00:00,0.048003606498241425,0
2017-12-19 12:00:00,0.04873029887676239,0
2017-12-20 00:00:00,0.04882271587848663,0
2017-12-20 12:00:00,0.05818716064095497,0
2017-12-21 00:00:00,0.06644947081804276,0
2017-12-21 12:00:00,0.07583154737949371,0
2017-12-22 00:00:00,0.08275134861469269,0
2017-12-22 12:00:00,0.07050279527902603,0
2017-12-23 00:00:00,0.06638838350772858,0
2017-12-23 12:00:00,0.0554342158138752,0
2017-12-24 00:00:00,0.0638851672410965,0
2017-12-24 12:00:00,0.07734449952840805,0
2017-12-25 00:00:00,0.06446325778961182,0
2017-12-25 12:00:00,0.058874789625406265,0
2017-12-26 00:00:00,0.05643639340996742,0
2017-12-26 12:00:00,0.054211027920246124,0
2017-12-27 00:00:00,0.05947183817625046,0
2017-12-27 12:00:00,0.06339380145072937,0
2017-12-28 00:00:00,0.06333813071250916,0
2017-12-28 12:00:00,0.06380121409893036,0
2017-12-29 00:00:00,0.06515361368656158,0
2017-12-29 12:00:00,0.05643055960536003,0
2017-12-30 00:00:00,0.04978087171912193,0
2017-12-30 12:00:00,0.04673593491315842,0
2017-12-31 00:00:00,0.04672205075621605,0
2017-12-31 12:00:00,0.04690421372652054,0
2018-10-01 00:00:00,0.06547218561172485,0
2018-10-01 12:00:00,0.0752415806055069,0
2018-10-02 00:00:00,0.06942477822303772,0
2018-10-02 12:00:00,0.06492967158555984,0
2018-10-03 00:00:00,0.059878237545490265,0
2018-10-03 12:00:00,0.054946351796388626,0
2018-10-04 00:00:00,0.05381264165043831,0
2018-10-04 12:00:00,0.047967661172151566,0
2018-10-05 00:00:00,0.04756048694252968,0
2018-10-05 12:00:00,0.04742708057165146,0
2018-10-06 00:00:00,0.04796222224831581,0
2018-10-06 12:00:00,0.04846629500389099,0
2018-10-07 00:00:00,0.048375971615314484,0
2018-10-07 12:00:00,0.048814475536346436,0
2018-10-08 00:00:00,0.04832233488559723,0
2018-10-08 12:00:00,0.047982361167669296,0
2018-10-09 00:00:00,0.04817033186554909,0
2018-10-09 12:00:00,0.047989554703235626,0
2018-10-10 00:00:00,0.04791102930903435,0
2018-10-10 12:00:00,0.04827267304062843,0
2018-10-11 00:00:00,0.04852941259741783,0
2018-10-11 12:00:00,0.04861312732100487,0
2018-10-12 00:00:00,0.04950310289859772,0
2018-10-12 12:00:00,0.05068192258477211,0
2018-10-13 00:00:00,0.05299787595868111,0
2018-10-13 12:00:00,0.0535636767745018,0
2018-10-14 00:00:00,0.05365888401865959,0
2018-10-14 12:00:00,0.05438331142067909,0
2018-10-15 00:00:00,0.053169723600149155,0
2018-10-15 12:00:00,0.05501994118094444,0
2018-10-16 00:00:00,0.05319130793213844,0
2018-10-16 12:00:00,0.053056225180625916,0
2018-10-17 00:00:00,0.05366450175642967,0
2018-10-17 12:00:00,0.05684272199869156,0
2018-10-18 00:00:00,0.055739592760801315,0
2018-10-18 12:00:00,0.05619850009679794,0
2018-10-19 00:00:00,0.05409756302833557,0
2018-10-19 12:00:00,0.05573044717311859,0
2018-10-20 00:00:00,0.05569200590252876,0
2018-10-20 12:00:00,0.05411241576075554,0
2018-10-21 00:00:00,0.05357707664370537,0
2018-10-21 12:00:00,0.063119076192379,0
2018-10-22 00:00:00,0.05706074461340904,0
2018-10-22 12:00:00,0.05480150505900383,0
2018-10-23 00:00:00,0.05411636456847191,0
2018-10-23 12:00:00,0.05361313745379448,0
2018-10-24 00:00:00,0.05379290133714676,0
2018-10-24 12:00:00,0.053739696741104126,0
2018-10-25 00:00:00,0.053882334381341934,0
2018-10-25 12:00:00,0.05384508892893791,0
2018-10-26 00:00:00,0.054697271436452866,0
2018-10-26 12:00:00,0.05498308315873146,0
2018-10-27 00:00:00,0.054731160402297974,0
2018-10-27 12:00:00,0.054872412234544754,0
2018-10-28 00:00:00,0.05478345975279808,0
2018-10-28 12:00:00,0.05506584793329239,0
2018-10-29 00:00:00,0.05524115264415741,0
2018-10-29 12:00:00,0.05556129291653633,0
2018-10-30 00:00:00,0.05525432527065277,0
2018-10-30 12:00:00,0.055416032671928406,0
2018-10-31 00:00:00,0.05535392090678215,0
2018-10-31 12:00:00,0.056073661893606186,0
2018-11-01 00:00:00,0.05633082985877991,0
2018-11-01 12:00:00,0.056783806532621384,0
2018-11-02 00:00:00,0.056780409067869186,0
2018-11-02 12:00:00,0.05688127875328064,0
2018-11-03 00:00:00,0.056919727474451065,0
2018-11-03 12:00:00,0.05658818781375885,0
2018-11-04 00:00:00,0.05680886656045914,0
2018-11-04 12:00:00,0.0563138909637928,0
2018-11-05 00:00:00,0.05588481202721596,0
2018-11-05 12:00:00,0.05587102845311165,0
2018-11-06 00:00:00,0.055781539529561996,0
2018-11-06 12:00:00,0.05572151392698288,0
2018-11-07 00:00:00,0.05552065372467041,0
2018-11-07 12:00:00,0.05551229044795036,0
2018-11-08 00:00:00,0.056100476533174515,0
2018-11-08 12:00:00,0.055746890604496,0
2018-11-09 00:00:00,0.05573407560586929,0
2018-11-09 12:00:00,0.05601619556546211,0
2018-11-10 00:00:00,0.055349115282297134,0
2018-11-10 12:00:00,0.055957864969968796,0
2018-11-11 00:00:00,0.05496003478765488,0
2018-11-11 12:00:00,0.05518941581249237,0
2018-11-12 00:00:00,0.05490434914827347,0
2018-11-12 12:00:00,0.055961973965168,0
2018-11-13 00:00:00,0.05622487887740135,0
2018-11-13 12:00:00,0.05562282353639603,0
2018-11-14 00:00:00,0.055620528757572174,0
2018-11-14 12:00:00,0.05433294549584389,0
2018-11-15 00:00:00,0.054698094725608826,0
2018-11-15 12:00:00,0.058849871158599854,0
2018-11-16 00:00:00,0.05750059708952904,0
2018-11-16 12:00:00,0.062083613127470016,0
2018-11-17 00:00:00,0.07089810818433762,0
2018-11-17 12:00:00,0.10658441483974457,0
2018-11-18 00:00:00,0.09999110549688339,0
2018-11-18 12:00:00,0.0872766301035881,0
2018-11-19 00:00:00,0.06951875239610672,0
2018-11-19 12:00:00,0.0628175139427185,0
2018-11-20 00:00:00,0.05354725196957588,0
2018-11-20 12:00:00,0.05201609060168266,0
2018-11-21 00:00:00,0.05284680426120758,0
2018-11-21 12:00:00,0.05213570222258568,0
2018-11-22 00:00:00,0.0516371987760067,0
2018-11-22 12:00:00,0.051633771508932114,0
2018-11-23 00:00:00,0.05138813331723213,0
2018-11-23 12:00:00,0.051738131791353226,0
2018-11-24 00:00:00,0.051546476781368256,0
2018-11-24 12:00:00,0.05205197259783745,0
2018-11-25 00:00:00,0.05375419557094574,0
2018-11-25 12:00:00,0.05808637663722038,0
2018-11-26 00:00:00,0.05679376423358917,0
2018-11-26 12:00:00,0.05587725341320038,0
2018-11-27 00:00:00,0.055834781378507614,0
2018-11-27 12:00:00,0.05594594404101372,0
2018-11-28 00:00:00,0.052372369915246964,0
2018-11-28 12:00:00,0.05110710486769676,0
2018-11-29 00:00:00,0.05026041343808174,0
2018-11-29 12:00:00,0.050691474229097366,0
2018-11-30 00:00:00,0.050471898168325424,0
2018-11-30 12:00:00,0.05001484975218773,0
2018-12-01 00:00:00,0.05016486719250679,0
2018-12-01 12:00:00,0.0500514879822731,0
2018-12-02 00:00:00,0.0496678501367569,0
2018-12-02 12:00:00,0.049555882811546326,0
2018-12-03 00:00:00,0.049508266150951385,0
2018-12-03 12:00:00,0.04944636672735214,0
2018-12-04 00:00:00,0.04915587604045868,0
2018-12-04 12:00:00,0.049279291182756424,0
2018-12-05 00:00:00,0.07337643951177597,0
2018-12-05 12:00:00,0.07206037640571594,0
2018-12-06 00:00:00,0.1001930683851242,0
2018-12-06 12:00:00,0.08746516704559326,0
2018-12-07 00:00:00,0.08527544885873795,0
2018-12-07 12:00:00,0.07794084399938583,0
2018-12-08 00:00:00,0.060913778841495514,0
2018-12-08 12:00:00,0.05373084172606468,0
2018-12-09 00:00:00,0.05433855205774307,0
2018-12-09 12:00:00,0.048406824469566345,0
2018-12-10 00:00:00,0.047803279012441635,0
2018-12-10 12:00:00,0.04818897321820259,0
2018-12-11 00:00:00,0.048141684383153915,0
2018-12-11 12:00:00,0.04828809201717377,0
2018-12-12 00:00:00,0.047522276639938354,0
2018-12-12 12:00:00,0.04817316308617592,0
2018-12-13 00:00:00,0.0473281666636467,0
2018-12-13 12:00:00,0.04832383245229721,0
2018-12-14 00:00:00,0.047879744321107864,0
2018-12-14 12:00:00,0.04850434139370918,0
2018-12-15 00:00:00,0.04820911958813667,0
2018-12-15 12:00:00,0.04828823730349541,0
2018-12-16 00:00:00,0.0475400909781456,0
2018-12-16 12:00:00,0.0474931076169014,0
2018-12-17 00:00:00,0.047020602971315384,0
2018-12-17 12:00:00,0.04684808850288391,0
2018-12-18 00:00:00,0.04573979601264,0
2018-12-18 12:00:00,0.04590734839439392,0
2018-12-19 00:00:00,0.04616710916161537,0
2018-12-19 12:00:00,0.04717354476451874,0
2018-12-20 00:00:00,0.046317990869283676,0
2018-12-20 12:00:00,0.04686066135764122,0
2018-12-21 00:00:00,0.046551696956157684,0
2018-12-21 12:00:00,0.046596016734838486,0
2018-12-22 00:00:00,0.04647907614707947,0
2018-12-22 12:00:00,0.046647652983665466,0
2018-12-23 00:00:00,0.04617012292146683,0
2018-12-23 12:00:00,0.046341460198163986,0
2018-12-24 00:00:00,0.045941635966300964,0
2018-12-24 12:00:00,0.04647161439061165,0
2018-12-25 00:00:00,0.045952681452035904,0
2018-12-25 12:00:00,0.046667683869600296,0
2018-12-26 00:00:00,0.04682944715023041,0
2018-12-26 12:00:00,0.04721136763691902,0
2018-12-27 00:00:00,0.04733294993638992,0
2018-12-27 12:00:00,0.04738656431436539,0
2018-12-28 00:00:00,0.04656511917710304,0
2018-12-28 12:00:00,0.0470944382250309,0
2018-12-29 00:00:00,0.045892491936683655,0
2018-12-29 12:00:00,0.04686407744884491,0
