timestamp,fd_prob,aggregated_prob,target
2011-07-01 12:00:00,0.2822456359863281,0.10593986942216438,0
2011-07-02 00:00:00,0.2428611814975738,0.4561850074797318,0
2011-07-02 12:00:00,0.2163417935371399,0.24491492763578038,0
2011-07-03 00:00:00,0.2916769087314605,0.36734998002629093,0
2011-07-03 12:00:00,0.2882280647754669,0.47945238991153616,0
2011-07-04 00:00:00,0.4195804595947265,0.5934363604090811,0
2011-07-04 12:00:00,0.2705393731594085,0.17574965755888217,0
2011-07-05 00:00:00,0.2852977812290191,0.4412361069504941,0
2011-07-05 12:00:00,0.2248671501874923,0.3446228024564537,0
2011-07-06 00:00:00,0.197201520204544,0.4076925213189555,0
2011-07-06 12:00:00,0.2181611210107803,0.4697213243749139,0
2011-07-07 00:00:00,0.2032194435596466,0.4000943718354103,0
2011-07-07 12:00:00,0.2263155132532119,0.45677035679513156,0
2011-07-08 00:00:00,0.2178137153387069,0.4408414055377555,0
2011-07-08 12:00:00,0.2775757014751434,0.6708328485435491,0
2011-07-09 00:00:00,0.240111231803894,0.3905352774861741,0
2011-07-09 12:00:00,0.2339498549699783,0.17815843960267086,0
2011-07-10 00:00:00,0.194233626127243,0.1649432224440157,0
2011-07-10 12:00:00,0.2602446973323822,0.09395669942032281,0
2011-07-11 00:00:00,0.3901987671852112,0.5101516901236387,0
2011-07-11 12:00:00,0.4189716279506683,0.30879578839736377,0
2011-07-12 00:00:00,0.4216652512550354,0.23158673674712382,0
2011-07-12 12:00:00,0.3771369457244873,0.30540178941987584,0
2011-07-13 00:00:00,0.3491663932800293,0.17084133432113402,0
2011-07-13 12:00:00,0.3517139852046966,0.19535255784858963,0
2011-07-14 00:00:00,0.3537143170833587,0.6191517591000242,0
2011-07-14 12:00:00,0.4041585922241211,0.7542890263238378,0
2011-07-15 00:00:00,0.500069260597229,0.7724623782017667,0
2011-07-15 12:00:00,0.5013815760612488,0.7372806814124686,0
2011-07-16 00:00:00,0.4539776742458343,0.7432936614937102,0
2011-07-16 12:00:00,0.5000936388969421,0.7407824260062352,0
2011-07-17 00:00:00,0.4094268977642059,0.7207264734940393,0
2011-07-17 12:00:00,0.5948879718780518,0.7828453203021848,0
2011-07-18 00:00:00,0.6312813758850098,0.893275168239705,0
2011-07-18 12:00:00,0.5558500289916992,0.8161926076016418,0
2011-07-19 00:00:00,0.5324699282646179,0.8124093004648392,0
2011-07-19 12:00:00,0.4029013216495514,0.6796074094824709,0
2011-07-20 00:00:00,0.3835251927375793,0.7262661929538374,0
2011-07-20 12:00:00,0.3500926494598388,0.7969381240917753,0
2011-07-21 12:00:00,0.2697173357009887,0.7589286329887246,0
2011-07-22 00:00:00,0.2640027403831482,0.7373346362626723,0
2011-07-22 12:00:00,0.2108937799930572,0.6009350855686736,0
2011-07-23 00:00:00,0.2217318266630172,0.46314784574660406,0
2011-07-23 12:00:00,0.1798446774482727,0.39854926752190034,0
2011-07-24 00:00:00,0.1797749102115631,0.34629314825644875,0
2011-07-24 12:00:00,0.1742586195468902,0.24919734198742682,0
2011-07-25 00:00:00,0.1357165575027465,0.21172683425301253,0
2011-07-25 12:00:00,0.1480368226766586,0.04975036860845328,0
2011-07-26 00:00:00,0.1522656679153442,0.7283707071540678,0
2011-07-26 12:00:00,0.1973627507686615,0.7681343205600155,0
2011-07-27 00:00:00,0.2289195358753204,0.8318856712951603,1
2011-07-27 12:00:00,0.2589088082313537,0.7710810037376019,1
2011-07-28 00:00:00,0.2686849236488342,0.9558305417896583,0
2011-07-28 12:00:00,0.3280399441719055,0.9636628710969928,0
2011-07-29 12:00:00,0.3734244108200073,0.9450467088999362,1
2011-07-30 00:00:00,0.4237101376056671,0.959827458752141,1
2011-07-30 12:00:00,0.5086061358451843,0.9805284075796168,0
2011-07-31 00:00:00,0.5242006182670593,0.9878798058248205,0
2011-07-31 12:00:00,0.5390381217002869,0.9887276762435687,0
2011-08-01 00:00:00,0.6086442470550537,0.9961538860531245,0
2011-08-01 12:00:00,0.6902412176132202,0.9974420707290279,1
2011-08-02 00:00:00,0.6789090037345886,0.9977827986957382,1
2011-08-02 12:00:00,0.6526846885681152,0.9974466079117515,1
2011-08-03 00:00:00,0.7485672831535339,0.9979044169092589,1
2011-08-03 12:00:00,0.7135007381439209,0.9969145280976844,1
2011-08-04 00:00:00,0.7071361541748047,0.9981898290888557,1
2011-08-04 12:00:00,0.6687397956848145,0.9963302493865471,0
2011-08-05 00:00:00,0.5989265441894531,0.9845916533025096,0
2011-08-05 12:00:00,0.6184559464454651,0.9845785051560262,0
2011-08-06 00:00:00,0.6065224409103394,0.9874701171503143,0
2011-08-06 12:00:00,0.6184473037719727,0.9804151949278034,0
2011-08-07 00:00:00,0.5699083209037781,0.985305823962535,0
2011-08-07 12:00:00,0.5250359773635864,0.9674092455069777,0
2011-08-08 00:00:00,0.4528176486492157,0.9453740664170786,1
2011-08-08 12:00:00,0.4441158175468445,0.946072256522249,1
2011-08-09 00:00:00,0.3132069110870361,0.9437987130959462,1
2011-08-09 12:00:00,0.3096267879009247,0.1471151397337258,0
2011-08-10 00:00:00,0.2192043215036392,0.13222093849629546,0
2011-08-10 12:00:00,0.211037740111351,0.11009023405130525,0
2011-08-11 00:00:00,0.1902671754360199,0.2711470981815629,0
2011-08-11 12:00:00,0.19048573076725,0.2660805601219023,0
2011-08-12 00:00:00,0.1960070729255676,0.1330432486458476,0
2011-08-12 12:00:00,0.1880700588226318,0.10905940808453429,0
2011-08-13 00:00:00,0.1742848604917526,0.1557822148963175,0
2011-08-13 12:00:00,0.1594797223806381,0.19429918555276005,0
2011-08-14 00:00:00,0.1390629410743713,0.10664047465472504,0
2011-08-14 12:00:00,0.1196632757782936,0.07873887885461706,0
2011-08-15 00:00:00,0.1217730790376663,0.08041978189511545,0
2011-08-15 12:00:00,0.1213357374072074,0.09743512228122031,0
2011-08-16 00:00:00,0.1933024823665619,0.09743512228122031,0
2011-08-16 12:00:00,0.2218334972858429,0.08813491614513036,0
2011-08-17 00:00:00,0.2999002337455749,0.08015784700666095,0
2011-08-17 12:00:00,0.3396486341953277,0.7755362653546513,0
2011-08-18 00:00:00,0.4272829294204712,0.8164129522080775,0
2011-08-18 12:00:00,0.4492623507976532,0.8414384313575543,0
2011-08-19 00:00:00,0.3812101483345032,0.8731900630691133,0
2011-08-19 12:00:00,0.3020520508289337,0.7910441171844577,0
2011-08-20 00:00:00,0.2640740871429443,0.8018608866148778,0
2011-08-20 12:00:00,0.2548443973064422,0.8047212120315617,0
2011-08-21 00:00:00,0.2662436664104461,0.7978113633226105,0
2011-08-21 12:00:00,0.3867128491401672,0.7680008425111507,0
2011-08-22 00:00:00,0.4257481694221496,0.843441415137338,0
2011-08-22 12:00:00,0.524066686630249,0.8477598888266648,0
2011-08-23 00:00:00,0.4758518934249878,0.920859507907825,0
2011-08-24 00:00:00,0.3940120041370392,0.8586926904051148,0
2011-08-24 12:00:00,0.5233896374702454,0.8754679163276043,0
2011-08-25 00:00:00,0.6161906123161316,0.900941047161366,0
2011-08-25 12:00:00,0.7180858254432678,0.8875066612312053,0
2011-08-26 12:00:00,0.5675116777420044,0.8249839504624765,0
2011-08-27 00:00:00,0.5355629920959473,0.879554538216426,0
2011-08-27 12:00:00,0.4556099474430084,0.8103861181176958,0
2011-08-28 12:00:00,0.5636301040649414,0.3131745762275131,0
2011-08-29 00:00:00,0.4648849666118622,0.4984900197621852,0
2011-08-29 12:00:00,0.5140367746353149,0.3151678827817459,0
2011-08-30 00:00:00,0.5861203074455261,0.5596607546374741,0
2011-08-30 12:00:00,0.4957076013088226,0.4739941578842982,0
2011-08-31 00:00:00,0.6098281741142273,0.7350320543921555,0
2011-08-31 12:00:00,0.5793437361717224,0.7367536337638216,0
2011-09-01 00:00:00,0.5951808094978333,0.9006292794108243,0
2011-09-01 12:00:00,0.6111293435096741,0.9483436975316766,0
2011-09-02 00:00:00,0.7244130373001099,0.9670378495980608,0
2011-09-02 12:00:00,0.6002870202064514,0.950266265851398,0
2011-09-03 00:00:00,0.552222490310669,0.9594436446241711,0
2011-09-03 12:00:00,0.508846640586853,0.9163492060899674,1
2011-09-04 00:00:00,0.4290457367897033,0.9110490072769897,1
2011-09-04 12:00:00,0.4140901565551758,0.8601984135942282,1
2011-09-05 00:00:00,0.4156416952610016,0.9066962693410826,1
2011-09-05 12:00:00,0.503868043422699,0.8814675031104072,1
2011-09-06 00:00:00,0.457816869020462,0.8983129394132489,1
2011-09-06 12:00:00,0.4820533096790313,0.8450906228771392,1
2011-09-07 00:00:00,0.4224043190479278,0.8812433448628416,1
2011-09-07 12:00:00,0.3671387732028961,0.8479154126439389,1
2011-09-08 00:00:00,0.4185964167118072,0.8368374272782031,1
2011-09-08 12:00:00,0.5139153599739075,0.955647551251419,1
2011-09-09 00:00:00,0.5984212160110474,0.967658860644126,1
2011-09-09 12:00:00,0.5907919406890869,0.9715592395014179,1
2011-09-10 00:00:00,0.5185966491699219,0.9852156011776462,1
2011-09-10 12:00:00,0.4582550525665283,0.9653995962976842,0
2011-09-11 00:00:00,0.4531455039978027,0.9617683591924345,0
2011-09-11 12:00:00,0.5140818953514099,0.9361995468214519,0
2011-09-12 00:00:00,0.5169118046760559,0.832696149958247,0
2011-09-12 12:00:00,0.6441510319709778,0.8317238775296113,0
2011-09-13 00:00:00,0.657622218132019,0.8933109554248161,0
2011-09-13 12:00:00,0.6868300437927246,0.8569985615611382,0
2011-09-14 00:00:00,0.6824508905410767,0.8910603136427957,0
2011-09-14 12:00:00,0.7653805017471313,0.9490403183487521,0
2011-09-15 12:00:00,0.8185824751853943,0.030270935654546416,0
2011-09-16 00:00:00,0.7910045385360718,0.9968867131997219,0
2011-09-16 12:00:00,0.7236694097518921,0.9941726240748793,0
2011-09-17 00:00:00,0.6692472696304321,0.9924257967297309,0
2011-09-17 12:00:00,0.6203463673591614,0.9908761892111786,0
2011-09-18 00:00:00,0.6059785485267639,0.9941846929137288,0
2011-09-18 12:00:00,0.6654398441314697,0.9614957827413603,0
2011-09-19 00:00:00,0.6154618859291077,0.9516854663962129,0
2011-09-19 12:00:00,0.6015239953994751,0.9351282085250666,0
2011-09-20 00:00:00,0.5738844275474548,0.9470922129306332,0
2011-09-20 12:00:00,0.5795467495918274,0.944032399864646,0
2011-09-21 00:00:00,0.5368167161941528,0.9837414600122781,1
2011-09-21 12:00:00,0.5225737690925598,0.983543225256049,1
2011-09-23 00:00:00,0.5418716669082642,0.9890672586726975,1
2011-09-23 12:00:00,0.5494319200515747,0.9850645537867062,1
2011-09-24 00:00:00,0.5676795244216919,0.9993614939901868,1
2011-09-24 12:00:00,0.5813920497894287,0.9882909400716818,1
2011-09-25 00:00:00,0.582513153553009,0.9946939424758086,1
2011-09-25 12:00:00,0.5926200747489929,0.9856276358340876,1
2011-09-26 00:00:00,0.5884186625480652,0.9682307493627572,1
2011-09-26 12:00:00,0.5937618017196655,0.9628693795754121,1
2011-09-27 00:00:00,0.6113693714141846,0.9650994811189868,0
2011-09-27 12:00:00,0.6532239317893982,0.9594898971513466,0
2011-09-28 00:00:00,0.6845183968544006,0.977085477165507,1
2011-09-28 12:00:00,0.7509925961494446,0.9729411796522685,1
2011-09-30 00:00:00,0.6765722036361694,0.9933681888689152,1
2011-09-30 12:00:00,0.5936458110809326,0.9878158587081589,1
2012-07-01 12:00:00,0.7631688117980957,0.9445152460713632,1
2012-07-02 00:00:00,0.8054916858673096,0.9959285124762557,1
2012-07-02 12:00:00,0.8422064781188965,0.9938152312619359,1
2012-07-03 00:00:00,0.7677276730537415,0.9949538135639968,0
2012-07-03 12:00:00,0.8522149324417114,0.9930355017300794,1
2012-07-04 00:00:00,0.7752242088317871,0.9924268735394871,1
2012-07-04 12:00:00,0.8273652195930481,0.9898409031812593,1
2012-07-05 00:00:00,0.7970647215843201,0.991146705812754,1
2012-07-05 12:00:00,0.8845944404602051,0.992777012117153,1
2012-07-06 00:00:00,0.8606376051902771,0.9944890804585065,1
2012-07-06 12:00:00,0.8506192564964294,0.9914555728771955,1
2012-07-07 00:00:00,0.8979023694992065,0.9899717573840195,1
2012-07-07 12:00:00,0.8735112547874451,0.9996005274605974,1
2012-07-08 00:00:00,0.8434544205665588,0.9994619996618241,1
2012-07-08 12:00:00,0.8316158652305603,0.9847785479497131,1
2012-07-09 00:00:00,0.7785587310791016,0.9672225012757208,1
2012-07-09 12:00:00,0.7274050712585449,0.9647240717011777,1
2012-07-10 00:00:00,0.6325216293334961,0.9641283588445047,1
2012-07-10 12:00:00,0.5535243153572083,0.9645774324431939,0
2012-07-11 12:00:00,0.5152971744537354,0.9629995287664072,0
2012-07-12 00:00:00,0.5122753977775574,0.9659517570401532,1
2012-07-12 12:00:00,0.5695270299911499,0.9697957228375945,1
2012-07-13 00:00:00,0.5170581340789795,0.9683339072762199,0
2012-07-13 12:00:00,0.6794629096984863,0.9659833679796087,1
2012-07-14 00:00:00,0.534250020980835,0.9674018624968304,1
2012-07-14 12:00:00,0.5698040723800659,0.9687250476071716,0
2012-07-15 00:00:00,0.5755415558815002,0.968437179846447,0
2012-07-15 12:00:00,0.6171367764472961,0.969351212607495,0
2012-07-16 00:00:00,0.6420580148696899,0.9723029990399612,0
2012-07-16 12:00:00,0.5398464202880859,0.9683981391465157,0
2012-07-17 00:00:00,0.424791157245636,0.21322481230329804,1
2012-07-17 12:00:00,0.3408955633640289,0.568124983658751,1
2012-07-18 00:00:00,0.2753076255321502,0.5748829867738323,0
2012-07-18 12:00:00,0.196646049618721,0.4034474514343199,1
2012-07-19 00:00:00,0.1695949286222458,0.5102358866466281,1
2012-07-19 12:00:00,0.1182736456394195,0.4239138672610975,0
2012-07-20 00:00:00,0.1155462563037872,0.45061780474856983,0
2012-07-20 12:00:00,0.1293530017137527,0.14325519994454294,0
2012-07-21 00:00:00,0.1599510312080383,0.11954087164210225,0
2012-07-21 12:00:00,0.1860966086387634,0.19267342065810045,0
2012-07-22 00:00:00,0.219635471701622,0.31448768378370595,0
2012-07-22 12:00:00,0.3129778802394867,0.29332924999918597,0
2012-07-23 00:00:00,0.322492241859436,0.38119129313237154,0
2012-07-23 12:00:00,0.247816190123558,0.2198593849399053,0
2012-07-24 00:00:00,0.298552542924881,0.2917988949197349,0
2012-07-24 12:00:00,0.3357943892478943,0.314420493841819,0
2012-07-25 00:00:00,0.4593730568885803,0.17432264829731536,0
2012-07-25 12:00:00,0.5029704570770264,0.29551251689766644,0
2012-07-26 00:00:00,0.5644607543945312,0.25292764442015747,0
2012-07-26 12:00:00,0.6323267817497253,0.3288704209365251,0
2012-07-27 12:00:00,0.5413846373558044,0.9575084444038758,1
2012-07-28 00:00:00,0.5172351002693176,0.9557187355751131,1
2012-07-28 12:00:00,0.4902892410755157,0.9431973268276584,1
2012-07-29 00:00:00,0.4683382213115692,0.9556179332876236,1
2012-07-29 12:00:00,0.5223404169082642,0.9510518894368101,0
2012-07-30 00:00:00,0.5639233589172363,0.9625139306391867,1
2012-07-30 12:00:00,0.5845885872840881,0.9666431385117511,1
2012-07-31 00:00:00,0.6431363224983215,0.9703441956692526,0
2012-07-31 12:00:00,0.6820605993270874,0.9898772478613682,0
2012-08-01 00:00:00,0.7626174092292786,0.9866196031454793,0
2012-08-01 12:00:00,0.8472191095352173,0.9861171371702968,0
2012-08-02 00:00:00,0.8931645750999451,0.9817493412568765,0
2012-08-02 12:00:00,0.9005276560783386,0.9724858512908457,0
2012-08-03 00:00:00,0.915867567062378,0.9613302994732884,0
2012-08-03 12:00:00,0.9027198553085328,0.9950319857611984,0
2012-08-04 00:00:00,0.8322938084602356,0.9947868642061081,0
2012-08-04 12:00:00,0.7723380327224731,0.9956338494832413,0
2012-08-05 00:00:00,0.7538625001907349,0.9905041479612609,0
2012-08-05 12:00:00,0.6818718910217285,0.9788108810208438,1
2012-08-06 00:00:00,0.6125574707984924,0.8854863596225669,1
2012-08-06 12:00:00,0.5012291669845581,0.9137440211313494,0
2012-08-07 00:00:00,0.4455410540103912,0.9271980724490384,0
2012-08-07 12:00:00,0.7776015996932983,0.9137246483282983,0
2012-08-08 00:00:00,0.7874552607536316,0.8603145561196578,0
2012-08-08 12:00:00,0.7795734405517578,0.9754470087325608,0
2012-08-09 00:00:00,0.7743974924087524,0.9950017825515532,0
2012-08-09 12:00:00,0.7569974064826965,0.9938799410246161,0
2012-08-10 00:00:00,0.6493256092071533,0.9942159579952256,0
2012-08-10 12:00:00,0.5671259760856628,0.9869056810521534,1
2012-08-11 00:00:00,0.4370167553424835,0.9794643210101406,1
2012-08-11 12:00:00,0.3652881383895874,0.9606792203795613,0
2012-08-12 00:00:00,0.4184834361076355,0.9449816119511979,0
2012-08-12 12:00:00,0.4056954085826874,0.912929517280891,0
2012-08-13 00:00:00,0.4058800935745239,0.8989813079560399,0
2012-08-14 12:00:00,0.3123733699321747,0.7702905165849068,0
2012-08-15 00:00:00,0.27583709359169,0.7533759939087361,0
2012-08-15 12:00:00,0.2664968371391296,0.7685784697997945,0
2012-08-16 00:00:00,0.2495073527097702,0.7789742739054932,0
2012-08-16 12:00:00,0.2965236902236938,0.7269793281004616,0
2012-08-17 00:00:00,0.3051074147224426,0.7145522263742999,1
2012-08-17 12:00:00,0.3365154862403869,0.6386614747906445,1
2012-08-18 00:00:00,0.2787990272045135,0.6240286522857854,1
2012-08-18 12:00:00,0.3058980107307434,0.6096318020567797,1
2012-08-19 00:00:00,0.2814398109912872,0.48734841591123323,0
2012-08-19 12:00:00,0.2977068126201629,0.07801593661108541,0
2012-08-20 00:00:00,0.3447963893413543,0.0984165325826355,0
2012-08-20 12:00:00,0.3440640568733215,0.28783936938395427,0
2012-08-21 00:00:00,0.2794886529445648,0.29714125198919217,0
2012-08-21 12:00:00,0.2961755692958832,0.24642082994404402,0
2012-08-22 00:00:00,0.2788721919059753,0.19666871726839485,0
2012-08-22 12:00:00,0.2703532874584198,0.13471917951140866,0
2012-08-23 00:00:00,0.2908340096473694,0.204982313477869,0
2012-08-23 12:00:00,0.2805086076259613,0.20552235958812015,0
2012-08-24 00:00:00,0.2891028821468353,0.477235806767613,0
2012-08-24 12:00:00,0.3800136744976043,0.505506142070159,0
2012-08-25 00:00:00,0.5028924942016602,0.5812324854450273,0
2012-08-25 12:00:00,0.5701828598976135,0.4331603739650701,0
2012-08-26 00:00:00,0.5432888865470886,0.5105666683580394,0
2012-08-26 12:00:00,0.5708051323890686,0.44173584657351284,0
2012-08-27 00:00:00,0.5707127451896667,0.733027155639812,0
2012-08-27 12:00:00,0.5845302939414978,0.7161278667940145,0
2012-08-28 00:00:00,0.635506272315979,0.7677855740895025,0
2012-08-28 12:00:00,0.5889595150947571,0.6305755134849411,0
2012-08-29 00:00:00,0.5127649903297424,0.6657165625838424,0
2012-08-29 12:00:00,0.55832839012146,0.6040999081793295,0
2012-08-30 00:00:00,0.7342155575752258,0.8846699021787057,1
2012-08-30 12:00:00,0.8407127261161804,0.9530008263304562,1
2012-08-31 12:00:00,0.8984417915344238,0.9429654846484172,0
2012-09-01 00:00:00,0.8963609337806702,0.9685245811658674,0
2012-09-01 12:00:00,0.8491398096084595,0.9917461801997913,0
2012-09-02 00:00:00,0.8658931851387024,0.9959521937213976,0
2012-09-02 12:00:00,0.8166324496269226,0.9931337209956179,0
2012-09-03 00:00:00,0.8487871885299683,0.9818599734354666,0
2012-09-03 12:00:00,0.8277130126953125,0.9857740185507188,0
2012-09-04 00:00:00,0.8571086525917053,0.9857473260606581,0
2012-09-05 00:00:00,0.7640734314918518,0.9354717774169279,0
2012-09-05 12:00:00,0.8091873526573181,0.9684236070730937,1
2012-09-06 00:00:00,0.817365288734436,0.9674651175601726,1
2012-09-06 12:00:00,0.7133681774139404,0.9738781301560632,0
2012-09-07 00:00:00,0.7136603593826294,0.9373070920418434,0
2012-09-07 12:00:00,0.5729483366012573,0.9425679935902624,0
2012-09-08 00:00:00,0.5815306305885315,0.9764753439494904,1
2012-09-08 12:00:00,0.5075255632400513,0.9728841312289336,1
2012-09-09 00:00:00,0.5508075952529907,0.8753923621754289,1
2012-09-09 12:00:00,0.6073739528656006,0.9146573892491077,1
2012-09-10 00:00:00,0.5486317276954651,0.9073403941237398,0
2012-09-10 12:00:00,0.4112553894519806,0.8776800063181341,0
2012-09-11 00:00:00,0.5105206966400146,0.8606692211359572,0
2012-09-11 12:00:00,0.5333573818206787,0.06416363637291167,0
2012-09-12 12:00:00,0.5471916794776917,0.023614622561037746,0
2012-09-13 12:00:00,0.4400826692581177,0.02655710918588272,0
2012-09-14 12:00:00,0.3023723661899566,0.03187038264763564,0
2012-09-15 00:00:00,0.3343924283981323,0.4827605310252374,0
2012-09-15 12:00:00,0.3844696581363678,0.532155365458598,0
2012-09-16 00:00:00,0.315806895494461,0.41471556149420086,0
2012-09-16 12:00:00,0.2742000520229339,0.3199188427073142,0
2012-09-19 00:00:00,0.6069017648696899,0.010199103245376762,0
2012-09-19 12:00:00,0.7016871571540833,0.24655214224755162,0
2012-09-21 00:00:00,0.7595787048339844,0.7169732814834542,0
2012-09-21 12:00:00,0.6614503264427185,0.603305504075978,0
2012-09-22 00:00:00,0.5704555511474609,0.9227924391639626,0
2012-09-22 12:00:00,0.6552059054374695,0.9088333113841236,0
2012-09-23 00:00:00,0.6484553813934326,0.9187111470163616,0
2012-09-23 12:00:00,0.6396069526672363,0.7939633242892381,0
2012-09-24 00:00:00,0.5653263926506042,0.8730380171449552,0
2012-09-24 12:00:00,0.6449540853500366,0.837932379138624,0
2012-09-25 00:00:00,0.7986491918563843,0.9088741932822487,0
2012-09-25 12:00:00,0.8268442749977112,0.9090153580524715,0
2012-09-26 00:00:00,0.8538420796394348,0.9543560027143303,0
2012-09-26 12:00:00,0.8736016750335693,0.9486957991448608,0
2012-09-28 12:00:00,0.8900609612464905,0.9191933756415724,0
2012-09-29 00:00:00,0.840276300907135,0.983905713730806,0
2012-09-29 12:00:00,0.8724856972694397,0.9736734049263753,1
2012-09-30 00:00:00,0.7461141347885132,0.9791421450705893,1
2012-09-30 12:00:00,0.6754489541053772,0.9816465581996229,0
2013-07-02 00:00:00,0.4113380908966064,0.5263943304458091,0
2013-07-02 12:00:00,0.7752749919891357,0.5985778954157834,1
2013-07-03 00:00:00,0.7115709781646729,0.46902724932690065,1
2013-07-03 12:00:00,0.7198724150657654,0.31004578259795446,0
2013-07-04 00:00:00,0.8029363751411438,0.9758519118798822,0
2013-07-04 12:00:00,0.8083093166351318,0.968535732292265,0
2013-07-05 00:00:00,0.8454406261444092,0.9787593893470645,0
2013-07-05 12:00:00,0.8243709206581116,0.9722407725274065,0
2013-07-06 00:00:00,0.8170334100723267,0.976392114620149,0
2013-07-06 12:00:00,0.7549470067024231,0.9722338647715367,0
2013-07-07 00:00:00,0.7573292851448059,0.9805126759144231,0
2013-07-07 12:00:00,0.7629345059394836,0.9507537414133087,0
2013-07-08 00:00:00,0.8038763999938965,0.928926000174117,0
2013-07-08 12:00:00,0.7849142551422119,0.9298974334197397,0
2013-07-09 00:00:00,0.7399559020996094,0.9347993680462551,0
2013-07-09 12:00:00,0.7613134384155273,0.9100182448146971,0
2013-07-10 00:00:00,0.6835405230522156,0.9081790582824537,0
2013-07-10 12:00:00,0.5950183868408203,0.8968313846768035,0
2013-07-11 00:00:00,0.6291412115097046,0.9120416957948765,0
2013-07-11 12:00:00,0.6291413307189941,0.8721529084641941,0
2013-07-12 00:00:00,0.6291413307189941,0.8679528070254966,0
2013-07-13 00:00:00,0.5855339765548706,0.9130329210746146,0
2013-07-13 12:00:00,0.5027478337287903,0.8765905884434184,0
2013-07-14 00:00:00,0.4772074520587921,0.3567416827963119,0
2013-07-14 12:00:00,0.5350729823112488,0.24912201135525514,0
2013-07-15 00:00:00,0.4703413248062134,0.6146970280800517,0
2013-07-15 12:00:00,0.6176356673240662,0.681873216365069,0
2013-07-16 00:00:00,0.622658908367157,0.7186917881104833,0
2013-07-17 00:00:00,0.3942554295063019,0.8676865810207002,0
2013-07-18 12:00:00,0.4844850301742553,0.8853154317004185,0
2013-07-19 00:00:00,0.5421443581581116,0.8235563428725694,0
2013-07-19 12:00:00,0.6180762052536011,0.7441075699982909,0
2013-07-20 00:00:00,0.6847432851791382,0.7700712655726855,0
2013-07-20 12:00:00,0.6140190958976746,0.8261970674304808,0
2013-07-21 00:00:00,0.5993083119392395,0.9214998132826779,0
2013-07-21 12:00:00,0.5705298185348511,0.9153842010722845,0
2013-07-22 00:00:00,0.4369026124477386,0.7973013485901619,0
2013-07-22 12:00:00,0.4170708954334259,0.7926476387541261,0
2013-07-23 12:00:00,0.5001621246337891,0.7753793664579431,0
2013-07-24 00:00:00,0.5949478149414062,0.8315412982352669,0
2013-07-24 12:00:00,0.6119661331176758,0.7313555299397345,0
2013-07-25 12:00:00,0.514346182346344,0.745288681767015,0
2013-07-26 00:00:00,0.5194920301437378,0.7516306597660991,0
2013-07-26 12:00:00,0.534444272518158,0.7820143689204209,0
2013-07-27 00:00:00,0.5403331518173218,0.8062538855452194,0
2013-07-27 12:00:00,0.5985466241836548,0.7893925893716001,0
2013-07-28 00:00:00,0.6475261449813843,0.8298803866664736,0
2013-07-28 12:00:00,0.7171434164047241,0.8456520559313986,0
2013-07-29 00:00:00,0.7464183568954468,0.9079279422163328,0
2013-07-29 12:00:00,0.7376735806465149,0.8591202689604679,0
2013-07-30 00:00:00,0.7812671065330505,0.9010099613415558,0
2013-07-30 12:00:00,0.6897437572479248,0.5748393958678586,0
2013-07-31 00:00:00,0.6438636183738708,0.4634905011950571,0
2013-07-31 12:00:00,0.5905214548110962,0.34757975322812307,0
2013-08-01 12:00:00,0.5799791812896729,0.42182459017653184,0
2013-08-02 00:00:00,0.6637185215950012,0.8090522615713355,0
2013-08-02 12:00:00,0.640996515750885,0.827191667041502,0
2013-08-03 00:00:00,0.6872658133506775,0.8616067336602958,0
2013-08-04 00:00:00,0.5739324688911438,0.7673521112584079,0
2013-08-04 12:00:00,0.5678812861442566,0.7952372274915896,0
2013-08-05 00:00:00,0.6119482517242432,0.7341067990993353,0
2013-08-05 12:00:00,0.6628239750862122,0.639004886855119,0
2013-08-06 00:00:00,0.6006859540939331,0.772077827179465,0
2013-08-06 12:00:00,0.5423453450202942,0.6451909744207159,0
2013-08-07 12:00:00,0.4663252234458923,0.48914650345486865,0
2013-08-08 00:00:00,0.4513349533081054,0.5014294374407369,0
2013-08-08 12:00:00,0.4110420048236847,0.6666468768023317,0
2013-08-09 00:00:00,0.4534792006015777,0.5282101752471857,0
2013-08-09 12:00:00,0.340206503868103,0.491415374304665,0
2013-08-10 00:00:00,0.3248511254787445,0.4712344734338014,0
2013-08-10 12:00:00,0.325620025396347,0.4631458899253098,0
2013-08-11 00:00:00,0.3564096987247467,0.6584176961594719,0
2013-08-11 12:00:00,0.4354186654090881,0.8484234229252781,1
2013-08-12 00:00:00,0.448298841714859,0.9363821370865848,1
2013-08-12 12:00:00,0.5106619596481323,0.8866505990310802,0
2013-08-13 00:00:00,0.5386511087417603,0.934236293493403,0
2013-08-13 12:00:00,0.6802246570587158,0.9322884164525495,0
2013-08-14 00:00:00,0.6133434772491455,0.9350408053497361,0
2013-08-14 12:00:00,0.5980504155158997,0.9057251912715559,0
2013-08-15 00:00:00,0.6660838723182678,0.9540498987744622,0
2013-08-15 12:00:00,0.7363111972808838,0.9586740583303485,0
2013-08-16 00:00:00,0.7754375338554382,0.9731170665942944,0
2013-08-16 12:00:00,0.7922274470329285,0.9720069074498277,0
2013-08-17 00:00:00,0.8152300715446472,0.968130366636907,1
2013-08-17 12:00:00,0.8122037053108215,0.9568120641145601,1
2013-08-18 00:00:00,0.769596517086029,0.9691224479672306,0
2013-08-18 12:00:00,0.8283680081367493,0.9583682152377042,0
2013-08-19 00:00:00,0.8871971368789673,0.9595447450433621,0
2013-08-19 12:00:00,0.8908815979957581,0.9083523178383534,0
2013-08-20 00:00:00,0.8540899157524109,0.9517340777669718,0
2013-08-20 12:00:00,0.852059543132782,0.9222630443951567,0
2013-08-21 00:00:00,0.7535388469696045,0.9633638591828145,0
2013-08-21 12:00:00,0.7535388469696045,0.9050938185978162,0
2013-08-22 00:00:00,0.744397759437561,0.9183573681208963,0
2013-08-22 12:00:00,0.7658116221427917,0.8951517874372276,0
2013-08-23 00:00:00,0.838181734085083,0.8971344727860973,0
2013-08-24 00:00:00,0.6797822117805481,0.8113816017117929,0
2013-08-24 12:00:00,0.7279614806175232,0.7378106178919775,0
2013-08-25 00:00:00,0.7130476832389832,0.18164471938058246,0
2013-08-25 12:00:00,0.8378779888153076,0.20549960488024066,0
2013-08-26 00:00:00,0.7612544894218445,0.2500475810838406,0
2013-08-26 12:00:00,0.7274990677833557,0.606305596324796,0
2013-08-27 00:00:00,0.6556634306907654,0.61526868422932,0
2013-08-27 12:00:00,0.6995302438735962,0.5711113490112942,0
2013-08-28 00:00:00,0.7292107343673706,0.6436666555578556,0
2013-08-28 12:00:00,0.661577045917511,0.6782102688226646,0
2013-08-29 00:00:00,0.644763708114624,0.8370094430766412,0
2013-08-29 12:00:00,0.7176100015640259,0.8162800096089524,0
2013-08-30 00:00:00,0.6769400835037231,0.850276142055168,0
2013-08-30 12:00:00,0.6465846300125122,0.837967447047492,0
2013-08-31 00:00:00,0.6085532903671265,0.8745439575405379,0
2013-08-31 12:00:00,0.6516966223716736,0.827175951176071,0
2013-09-01 00:00:00,0.6462733149528503,0.7839700227459498,0
2013-09-01 12:00:00,0.6202530264854431,0.8220747079280842,0
2013-09-02 00:00:00,0.7966675162315369,0.7037893666479111,0
2013-09-02 12:00:00,0.8014848232269287,0.8567644111882414,0
2013-09-03 00:00:00,0.5990743637084961,0.8774932175515973,0
2013-09-03 12:00:00,0.7368869185447693,0.8738391666156384,0
2013-09-04 00:00:00,0.7495089173316956,0.9179671152239025,0
2013-09-04 12:00:00,0.6422333717346191,0.9427989321132811,0
2013-09-05 00:00:00,0.5344065427780151,0.8621044578408861,0
2013-09-05 12:00:00,0.5576085448265076,0.515103267535973,0
2013-09-06 00:00:00,0.4433529078960418,0.7574684169320053,0
2013-09-06 12:00:00,0.4022725820541382,0.8011623500066127,0
2013-09-07 00:00:00,0.229043036699295,0.42003391267921286,0
2013-09-07 12:00:00,0.2069972306489944,0.027404997032542955,0
2013-09-08 00:00:00,0.1653675734996795,0.23179736450661004,0
2013-09-08 12:00:00,0.201135516166687,0.11922143562843679,0
2013-09-09 00:00:00,0.1725721508264541,0.14482692151598608,0
2013-09-09 12:00:00,0.1793474853038787,0.10726797691544598,0
2013-09-10 00:00:00,0.1744363009929657,0.14170091057908418,0
2013-09-10 12:00:00,0.2352409064769745,0.12235828758363132,0
2013-09-11 00:00:00,0.2315665781497955,0.1624436731605945,0
2013-09-11 12:00:00,0.2527472078800201,0.11807920658337356,0
2013-09-13 00:00:00,0.3821592926979065,0.2818364022022234,0
2013-09-13 12:00:00,0.3558797538280487,0.22255588006800886,0
2013-09-14 00:00:00,0.2992317974567413,0.17852525889799387,0
2013-09-14 12:00:00,0.2671572864055633,0.12801619045261803,0
2013-09-15 00:00:00,0.2360688745975494,0.08206768884940752,0
2013-09-15 12:00:00,0.2240513116121292,0.08081668901250327,0
2013-09-16 00:00:00,0.1905978322029113,0.09991880815097265,0
2013-09-16 12:00:00,0.2039040476083755,0.09384298725339701,0
2013-09-17 00:00:00,0.1763170957565307,0.06104513118337496,0
2013-09-17 12:00:00,0.142863392829895,0.04996585444586277,0
2013-09-18 00:00:00,0.3431632816791534,0.12724035959959223,0
2013-09-18 12:00:00,0.5707488656044006,0.1353064937973707,0
2013-09-19 00:00:00,0.5215004682540894,0.6851764202828801,0
2013-09-20 00:00:00,0.5363966822624207,0.6799836992764356,0
2013-09-20 12:00:00,0.5594074130058289,0.6321513215309145,0
2013-09-21 00:00:00,0.6422845721244812,0.6431536003932448,0
2013-09-21 12:00:00,0.5353184342384338,0.5757713286142199,0
2013-09-22 00:00:00,0.5678951740264893,0.8120177701697023,0
2013-09-22 12:00:00,0.5284091830253601,0.8818637988214924,0
2013-09-23 00:00:00,0.4250877797603607,0.7492775970155658,0
2013-09-23 12:00:00,0.4130610823631286,0.6711400571843655,0
2013-09-24 00:00:00,0.4127464592456817,0.7845610939852424,0
2013-09-24 12:00:00,0.522379457950592,0.7254113373100284,0
2013-09-25 00:00:00,0.5256382822990417,0.8014048972657613,0
2013-09-25 12:00:00,0.5998297333717346,0.7581986843054815,0
2013-09-26 12:00:00,0.6592024564743042,0.7595704182361743,0
2013-09-27 00:00:00,0.6366876363754272,0.7945771943740823,0
2013-09-27 12:00:00,0.6657163500785828,0.7882996660730156,0
2013-09-28 00:00:00,0.7193562388420105,0.7655461882335415,0
2013-09-28 12:00:00,0.6784144639968872,0.7244871855950684,0
2013-09-29 00:00:00,0.6206403374671936,0.7262758115903748,0
2013-09-29 12:00:00,0.532849133014679,0.6616066701753457,0
2013-09-30 00:00:00,0.7078859806060791,0.6966876075144914,0
2013-09-30 12:00:00,0.6230564713478088,0.6817223017605722,0
2014-07-01 12:00:00,0.8630902171134949,0.020294184783743674,0
2014-07-02 00:00:00,0.8391873836517334,0.9958117831276051,0
2014-07-03 00:00:00,0.9175829887390136,0.9973996021005657,0
2014-07-03 12:00:00,0.932313084602356,0.9981329481276108,0
2014-07-04 00:00:00,0.9371097087860109,0.9977686681907398,0
2014-07-05 00:00:00,0.9528575539588928,0.9998288273307031,0
2014-07-05 12:00:00,0.9521709680557252,0.9998945923547847,0
2014-07-06 00:00:00,0.95615154504776,0.999882124076035,0
2014-07-06 12:00:00,0.9635457396507264,0.9998790071720806,0
2014-07-07 00:00:00,0.9587752223014832,0.9998140544611662,0
2014-07-07 12:00:00,0.956288516521454,0.9994833107636243,0
2014-07-08 00:00:00,0.9619260430336,0.9996505089584286,1
2014-07-08 12:00:00,0.981405794620514,0.9998441001275123,1
2014-07-09 00:00:00,0.9695891737937928,0.9999589725740656,1
2014-07-09 12:00:00,0.9845638275146484,0.9999081024850839,0
2014-07-10 12:00:00,0.9656249284744264,0.9997595886699155,1
2014-07-11 00:00:00,0.935181200504303,0.9984194436031102,0
2014-07-11 12:00:00,0.9216293692588806,0.9988515971277669,0
2014-07-12 00:00:00,0.9178476333618164,0.9992092093652125,0
2014-07-12 12:00:00,0.8725075721740723,0.997259017172665,0
2014-07-13 00:00:00,0.7901829481124878,0.9587739534831496,0
2014-07-13 12:00:00,0.7254039645195007,0.95873125145153,0
2014-07-14 00:00:00,0.6596531271934509,0.9104660923265614,0
2014-07-14 12:00:00,0.435828685760498,0.5470368102578991,0
2014-07-15 00:00:00,0.3990720510482788,0.610792136063658,0
2014-07-15 12:00:00,0.4072062075138092,0.566575156710921,0
2014-07-16 00:00:00,0.3497980833053589,0.5823151983850039,0
2014-07-16 12:00:00,0.2619849443435669,0.5042573750581186,0
2014-07-17 00:00:00,0.226677805185318,0.53629775429918,0
2014-07-17 12:00:00,0.2481932491064071,0.4652274257617055,0
2014-07-18 00:00:00,0.2296748459339141,0.32399432717029863,0
2014-07-18 12:00:00,0.2255891561508178,0.24855343881620973,0
2014-07-19 00:00:00,0.2520895004272461,0.07912476057621987,0
2014-07-19 12:00:00,0.1682551056146621,0.07296917115743318,0
2014-07-20 00:00:00,0.1785077601671219,0.131595780771932,0
2014-07-20 12:00:00,0.197447583079338,0.17092603742612744,0
2014-07-21 00:00:00,0.1738941073417663,0.13615758667549172,0
2014-07-21 12:00:00,0.1614361256361007,0.07644526274001906,0
2014-07-22 00:00:00,0.2679022550582886,0.04761783896586391,0
2014-07-22 12:00:00,0.4631634950637817,0.06924140470258344,0
2014-07-23 00:00:00,0.5051993727684021,0.15055906717532652,0
2014-07-23 12:00:00,0.6485265493392944,0.2967498191464829,0
2014-07-24 12:00:00,0.5781133770942688,0.7418503289848495,0
2014-07-25 00:00:00,0.5830676555633545,0.7306718504924063,0
2014-07-25 12:00:00,0.483422577381134,0.6530021330097948,0
2014-07-26 00:00:00,0.4091680943965912,0.6856744503328158,0
2014-07-26 12:00:00,0.4813985824584961,0.7690049728617544,0
2014-07-27 12:00:00,0.5920451879501343,0.8863658158751119,0
2014-07-28 00:00:00,0.7790699005126953,0.9185863621797217,0
2014-07-28 12:00:00,0.7416210770606995,0.8864761099878067,0
2014-07-29 00:00:00,0.7552164196968079,0.9059220603918126,0
2014-07-29 12:00:00,0.817507803440094,0.8363321904031361,0
2014-07-30 00:00:00,0.8035525679588318,0.8994360141601411,0
2014-07-30 12:00:00,0.8846176266670227,0.8035351508972752,1
2014-07-31 00:00:00,0.8006461262702942,0.990094667375861,1
2014-07-31 12:00:00,0.8691961169242859,0.9903586875266255,0
2014-08-01 12:00:00,0.882910430431366,0.9885666049877307,1
2014-08-02 00:00:00,0.8304016590118408,0.9856249207187022,0
2014-08-02 12:00:00,0.7453942894935608,0.9567749847809862,0
2014-08-03 00:00:00,0.6813316941261292,0.9507240241902012,0
2014-08-03 12:00:00,0.6998887062072754,0.9092974460579709,0
2014-08-04 00:00:00,0.7676402926445007,0.9777378014482699,0
2014-08-04 12:00:00,0.8197850584983826,0.9748378098024291,0
2014-08-05 00:00:00,0.8179492950439453,0.9718227661655009,0
2014-08-05 12:00:00,0.8276452422142029,0.967562344234633,0
2014-08-06 00:00:00,0.7835837602615356,0.9800302319572414,0
2014-08-06 12:00:00,0.8428144454956055,0.965740052263591,0
2014-08-07 00:00:00,0.8988121747970581,0.9898102530596292,0
2014-08-07 12:00:00,0.90118008852005,0.9706821216645551,0
2014-08-08 00:00:00,0.8488602638244629,0.9697475164143858,0
2014-08-08 12:00:00,0.8608787059783936,0.9359241294136152,0
2014-08-09 00:00:00,0.7956892251968384,0.947945081139954,0
2014-08-09 12:00:00,0.694944441318512,0.8756569708058545,0
2014-08-10 00:00:00,0.6438562870025635,0.43679679251942694,0
2014-08-10 12:00:00,0.6227707266807556,0.5656544777342546,0
2014-08-11 00:00:00,0.6354448199272156,0.4796671971220633,0
2014-08-11 12:00:00,0.6125942468643188,0.37697329775819455,0
2014-08-12 00:00:00,0.6325422525405884,0.5140259410380812,0
2014-08-12 12:00:00,0.6473474502563477,0.5519380643864737,0
2014-08-13 00:00:00,0.6214619874954224,0.7887883135252622,0
2014-08-13 12:00:00,0.6082923412322998,0.7393077203855365,0
2014-08-14 00:00:00,0.5968788862228394,0.7220654913882767,0
2014-08-14 12:00:00,0.4964857697486877,0.6277036570714638,0
2014-08-15 00:00:00,0.577568769454956,0.8666786382908063,0
2014-08-15 12:00:00,0.6891990900039673,0.8802240625703549,0
2014-08-16 00:00:00,0.672771692276001,0.9557282606890011,0
2014-08-16 12:00:00,0.7722840905189514,0.9144599992003234,0
2014-08-17 00:00:00,0.8355350494384766,0.8890050415611237,0
2014-08-17 12:00:00,0.8545386791229248,0.7650812803755549,0
2014-08-18 00:00:00,0.8148888349533081,0.7322697026583214,0
2014-08-18 12:00:00,0.8400501608848572,0.6043165088640923,0
2014-08-19 00:00:00,0.8826945424079895,0.5838188617015976,0
2014-08-19 12:00:00,0.8900209069252014,0.6125086531014623,0
2014-08-20 00:00:00,0.8530967831611633,0.7745077781666618,0
2014-08-20 12:00:00,0.7691948413848877,0.888529417983623,0
2014-08-21 00:00:00,0.843474268913269,0.9525157069636716,1
2014-08-21 12:00:00,0.8472716808319092,0.9560423814696631,1
2014-08-22 00:00:00,0.8299134969711304,0.9331979489895882,1
2014-08-22 12:00:00,0.8350462317466736,0.8673869118776595,0
2014-08-23 00:00:00,0.9070700407028198,0.9841942979528255,0
2014-08-23 12:00:00,0.8993123769760132,0.97884979316441,0
2014-08-24 00:00:00,0.9124588966369628,0.9805699002705155,1
2014-08-24 12:00:00,0.9329162836074828,0.992590207764432,0
2014-08-25 00:00:00,0.9002002477645874,0.9952449970093239,1
2014-08-25 12:00:00,0.9137523174285888,0.9909138739871629,1
2014-08-26 00:00:00,0.930123805999756,0.9952304847217601,0
2014-08-26 12:00:00,0.9355934858322144,0.9866134795844357,0
2014-08-27 00:00:00,0.8791852593421936,0.9884968657531547,0
2014-08-27 12:00:00,0.8469619750976562,0.9841506834930268,0
2014-08-28 00:00:00,0.8884773850440979,0.9647621029200537,0
2014-08-28 12:00:00,0.7881972789764404,0.9572487341766553,0
2014-08-29 00:00:00,0.7541033029556274,0.9442957082485754,0
2014-08-29 12:00:00,0.7910592555999756,0.8970672725666682,0
2014-08-30 00:00:00,0.7699252367019653,0.9696814450873592,0
2014-08-30 12:00:00,0.8438225388526917,0.9819342883719304,0
2014-08-31 00:00:00,0.7874221801757812,0.9854314606551854,0
2014-08-31 12:00:00,0.865473747253418,0.9887736804271466,0
2014-09-01 00:00:00,0.864639937877655,0.9911985346480722,0
2014-09-01 12:00:00,0.8463678956031799,0.9835224931986688,0
2014-09-02 00:00:00,0.8834097385406494,0.8541321955218188,0
2014-09-02 12:00:00,0.8346151113510132,0.8868033286373159,0
2014-09-03 00:00:00,0.7812743782997131,0.8611253331332407,1
2014-09-03 12:00:00,0.7335886359214783,0.8324483682782096,1
2014-09-04 00:00:00,0.7203263640403748,0.8851849985275699,0
2014-09-04 12:00:00,0.7459778785705566,0.8866556057771673,0
2014-09-05 00:00:00,0.8799624443054199,0.8776390698928952,0
2014-09-05 12:00:00,0.86512291431427,0.8570011794206027,0
2014-09-06 00:00:00,0.8685674667358398,0.9935230196904908,1
2014-09-06 12:00:00,0.8740140795707703,0.9936204327350907,1
2014-09-07 00:00:00,0.8434714078903198,0.998397515042343,0
2014-09-07 12:00:00,0.849373996257782,0.9941163351423843,0
2014-09-08 00:00:00,0.8232948184013367,0.9969055835129161,1
2014-09-08 12:00:00,0.7422552704811096,0.9961126881317989,1
2014-09-09 00:00:00,0.83610999584198,0.9986499997877017,0
2014-09-09 12:00:00,0.8348515629768372,0.9979163711726862,0
2014-09-10 00:00:00,0.8318543434143066,0.9971298564072439,1
2014-09-11 00:00:00,0.8312036395072937,0.9062833055291182,1
2014-09-12 12:00:00,0.7961293458938599,0.9887770652034508,0
2014-09-13 00:00:00,0.8089306354522705,0.9894428857099534,0
2014-09-13 12:00:00,0.8307444453239441,0.929103121753182,1
2014-09-14 00:00:00,0.8512827754020691,0.9893122267561333,1
2014-09-14 12:00:00,0.8759804964065552,0.9772519331727911,0
2014-09-15 00:00:00,0.8701927661895752,0.9818985535631362,0
2014-09-15 12:00:00,0.847500741481781,0.9775948179304381,0
2014-09-16 00:00:00,0.7783008813858032,0.9423870556147581,0
2014-09-16 12:00:00,0.7192977070808411,0.9506258171762721,0
2014-09-17 00:00:00,0.7120187282562256,0.795765475951872,0
2014-09-17 12:00:00,0.8243722319602966,0.8603698839360222,1
2014-09-18 00:00:00,0.7603538036346436,0.7904735539569071,1
2014-09-18 12:00:00,0.7227144837379456,0.7473322986592956,0
2014-09-19 00:00:00,0.7012013792991638,0.8062406324018193,0
2014-09-19 12:00:00,0.6731416583061218,0.7353002362008025,0
2014-09-20 00:00:00,0.611609160900116,0.47677584783534566,0
2014-09-20 12:00:00,0.7629112601280212,0.4371512034163729,0
2014-09-21 00:00:00,0.8223283886909485,0.42353077346153445,0
2014-09-21 12:00:00,0.8501286506652832,0.961969852621336,0
2014-09-22 00:00:00,0.8580043315887451,0.9703143972059024,0
2014-09-22 12:00:00,0.8849433660507202,0.965589781470645,0
2014-09-23 00:00:00,0.8791347742080688,0.9611096743392123,1
2014-09-23 12:00:00,0.851719319820404,0.9574979311484837,1
2014-09-24 00:00:00,0.8217436075210571,0.916736089890354,0
2014-09-24 12:00:00,0.7866778373718262,0.9002569878653879,0
2014-09-25 00:00:00,0.759590744972229,0.9627474918895497,0
2014-09-25 12:00:00,0.8650794625282288,0.9785242682694628,0
2014-09-26 12:00:00,0.885749101638794,0.9940775208904619,1
2014-09-27 12:00:00,0.9206840395927428,0.9955784188750695,1
2014-09-28 00:00:00,0.9400398135185242,0.9989796347635058,1
2014-09-28 12:00:00,0.9680473208427428,0.998935176307975,1
2014-09-29 00:00:00,0.9643357396125792,0.999278820062816,0
2014-09-29 12:00:00,0.9590118527412416,0.999595790064514,0
2014-09-30 00:00:00,0.9550622701644896,0.9996046074594752,0
2014-09-30 12:00:00,0.95396888256073,0.9993763140307156,0
2015-07-01 12:00:00,0.623286247253418,0.8640162479192647,0
2015-07-02 00:00:00,0.6545947194099426,0.8446481015918357,0
2015-07-02 12:00:00,0.6085010766983032,0.8425769795958256,0
2015-07-03 00:00:00,0.627521276473999,0.8765687564030129,1
2015-07-03 12:00:00,0.6464465260505676,0.952122691878428,1
2015-07-04 00:00:00,0.716866135597229,0.9558610918399094,0
2015-07-04 12:00:00,0.7575412392616272,0.9286439806259685,0
2015-07-05 00:00:00,0.5858131647109985,0.9310761905898286,0
2015-07-05 12:00:00,0.6336739659309387,0.9504826247942438,1
2015-07-06 00:00:00,0.6263189315795898,0.969039296331138,1
2015-07-06 12:00:00,0.5831589102745056,0.9906790747440544,1
2015-07-07 00:00:00,0.6635655164718628,0.9865878629664036,0
2015-07-07 12:00:00,0.6431432366371155,0.9737819876774796,0
2015-07-08 00:00:00,0.7335212826728821,0.9740716785924813,0
2015-07-08 12:00:00,0.730353057384491,0.9700439901089778,0
2015-07-09 12:00:00,0.710337221622467,0.9418094205982804,0
2015-07-10 00:00:00,0.6547486782073975,0.9417330380739408,0
2015-07-10 12:00:00,0.7737888097763062,0.9716982434581081,0
2015-07-11 00:00:00,0.717494785785675,0.9411747948247924,0
2015-07-11 12:00:00,0.7283557057380676,0.87828945686951,0
2015-07-12 00:00:00,0.6597581505775452,0.9045815607877237,0
2015-07-12 12:00:00,0.6928048729896545,0.834689234560859,0
2015-07-13 00:00:00,0.6616072058677673,0.8428804367831114,0
2015-07-13 12:00:00,0.5782634615898132,0.8319326803961755,0
2015-07-14 00:00:00,0.4847615659236908,0.7315473800977605,0
2015-07-14 12:00:00,0.434365451335907,0.8535815989813164,0
2015-07-15 00:00:00,0.4742231667041778,0.8416149190770215,0
2015-07-16 00:00:00,0.4572834968566894,0.8188098308521541,0
2015-07-16 12:00:00,0.5244487524032593,0.782361166845853,0
2015-07-17 00:00:00,0.5142924785614014,0.899727526767887,0
2015-07-17 12:00:00,0.4780109822750091,0.743709818047799,0
2015-07-18 00:00:00,0.5446870923042297,0.6505583280360698,0
2015-07-18 12:00:00,0.4821076989173889,0.540829806072993,0
2015-07-19 00:00:00,0.4441919922828674,0.4126352965186687,0
2015-07-19 12:00:00,0.3671666383743286,0.30764374115583426,0
2015-07-20 00:00:00,0.3017172515392303,0.33965789937852664,0
2015-07-20 12:00:00,0.3339959383010864,0.22774887421615309,0
2015-07-21 00:00:00,0.3265489041805267,0.371158727447889,0
2015-07-21 12:00:00,0.2855413556098938,0.31187325232993013,0
2015-07-22 00:00:00,0.3046096563339233,0.2813742263216542,0
2015-07-22 12:00:00,0.2948185205459595,0.34746207965701437,0
2015-07-23 12:00:00,0.1887797266244888,0.16949313866694848,0
2015-07-24 00:00:00,0.2165983468294143,0.13501132571118923,0
2015-07-24 12:00:00,0.3523188829421997,0.12273888892654017,0
2015-07-25 00:00:00,0.365221619606018,0.37080029656360824,0
2015-07-25 12:00:00,0.4463648796081543,0.2778084262885474,0
2015-07-26 00:00:00,0.3691269159317016,0.4724611140464564,0
2015-07-26 12:00:00,0.4687771499156952,0.6800405212910825,0
2015-07-27 00:00:00,0.3899152874946594,0.660611398598663,0
2015-07-27 12:00:00,0.4296276569366455,0.709873051964724,0
2015-07-28 00:00:00,0.4354157149791717,0.7594331653689749,0
2015-07-28 12:00:00,0.5577025413513184,0.6084629357092697,0
2015-07-29 00:00:00,0.6224355697631836,0.6179514431054449,0
2015-07-29 12:00:00,0.7095160484313965,0.4910803721463505,0
2015-07-30 00:00:00,0.7152110934257507,0.6284346849494065,0
2015-07-30 12:00:00,0.7175143361091614,0.6657296917435607,0
2015-07-31 12:00:00,0.6928748488426208,0.5924276344616555,0
2015-08-01 00:00:00,0.630906343460083,0.6809789410560925,0
2015-08-01 12:00:00,0.6617311239242554,0.4856539528652014,0
2015-08-02 00:00:00,0.616584300994873,0.6067460481730773,0
2015-08-02 12:00:00,0.5970275402069092,0.5215170381020675,0
2015-08-03 00:00:00,0.615770697593689,0.6366310760524448,0
2015-08-03 12:00:00,0.6291732788085938,0.5689614881397695,0
2015-08-04 00:00:00,0.6954196095466614,0.6182389288194482,0
2015-08-04 12:00:00,0.7441079020500183,0.7647206688690003,0
2015-08-05 00:00:00,0.7418490648269653,0.758336973038612,0
2015-08-05 12:00:00,0.7307775020599365,0.8902530603670946,0
2015-08-06 00:00:00,0.6610113382339478,0.8883672397165674,0
2015-08-06 12:00:00,0.5445150136947632,0.8739746603502314,0
2015-08-07 00:00:00,0.4805404543876648,0.8905044216366024,0
2015-08-07 12:00:00,0.5436288118362427,0.924668070988302,0
2015-08-08 00:00:00,0.5439321994781494,0.9324115058898885,0
2015-08-08 12:00:00,0.567027747631073,0.9501051639927426,0
2015-08-09 00:00:00,0.5705580711364746,0.9429136619273464,0
2015-08-09 12:00:00,0.5356618762016296,0.9225221117224673,0
2015-08-10 00:00:00,0.4908429384231567,0.9050092929822154,0
2015-08-10 12:00:00,0.4919080436229706,0.8711823631780881,0
2015-08-11 00:00:00,0.4479447603225708,0.9202981242465568,0
2015-08-11 12:00:00,0.4472567737102508,0.8965123439756266,0
2015-08-12 00:00:00,0.4635286331176758,0.8263805947530338,0
2015-08-12 12:00:00,0.4043155014514923,0.7803880247023524,0
2015-08-13 00:00:00,0.3451113998889923,0.7325350346938477,0
2015-08-13 12:00:00,0.5449957847595215,0.3069511288386747,0
2015-08-14 00:00:00,0.6893587112426758,0.7115652126673552,0
2015-08-14 12:00:00,0.5836760997772217,0.34017439589042253,0
2015-08-15 00:00:00,0.4162483215332031,0.28043193721652937,0
2015-08-15 12:00:00,0.3777307569980621,0.18183079241110178,0
2015-08-16 00:00:00,0.2686491012573242,0.1743316126892911,0
2015-08-16 12:00:00,0.2863729596138,0.11825847268699052,0
2015-08-17 00:00:00,0.2445463240146637,0.15819562873174253,0
2015-08-17 12:00:00,0.2658526003360748,0.11290889767568268,0
2015-08-18 00:00:00,0.2019228339195251,0.13724134313192649,0
2015-08-18 12:00:00,0.5235974788665771,0.13003301447029014,0
2015-08-19 00:00:00,0.4375416338443756,0.22275831411447677,0
2015-08-19 12:00:00,0.5535569190979004,0.792557465263353,0
2015-08-20 00:00:00,0.6251844763755798,0.7769232989477813,0
2015-08-20 12:00:00,0.6129471063613892,0.8428807903542807,1
2015-08-21 00:00:00,0.4334657192230224,0.8976246102606998,1
2015-08-21 12:00:00,0.3533809781074524,0.929558809402057,1
2015-08-22 00:00:00,0.374036431312561,0.9251245085116097,1
2015-08-22 12:00:00,0.4266238212585449,0.9163307404257278,1
2015-08-23 00:00:00,0.4085667729377746,0.9504447865513824,0
2015-08-23 12:00:00,0.427777498960495,0.9488148627579059,1
2015-08-24 00:00:00,0.4320206642150879,0.9616119856787027,1
2015-08-24 12:00:00,0.573517918586731,0.9651920674671995,1
2015-08-25 00:00:00,0.5713200569152832,0.9657731659863928,0
2015-08-25 12:00:00,0.5549826622009277,0.9574678773209728,0
2015-08-26 00:00:00,0.5455268025398254,0.9394682467065049,0
2015-08-26 12:00:00,0.6384250521659851,0.9221610453327937,1
2015-08-27 00:00:00,0.5854852795600891,0.9345092325410667,1
2015-08-27 12:00:00,0.5585094690322876,0.9408658423413787,0
2015-08-28 00:00:00,0.6235566139221191,0.9393795041127504,1
2015-08-28 12:00:00,0.5269204378128052,0.9387628789652911,1
2015-08-29 00:00:00,0.5244715809822083,0.2619883591493891,0
2015-08-29 12:00:00,0.3716794848442077,0.18549957321536836,1
2015-08-30 00:00:00,0.3276213705539703,0.1768441082502522,1
2015-08-30 12:00:00,0.2998004853725433,0.15335641465288619,0
2015-08-31 00:00:00,0.3547195494174957,0.31524458744923567,0
2015-08-31 12:00:00,0.3944204151630401,0.2454964590298936,0
2015-09-01 00:00:00,0.4435883164405823,0.34527782320710165,0
2015-09-01 12:00:00,0.515885591506958,0.1727928525165322,0
2015-09-02 00:00:00,0.5145911574363708,0.2584165907277052,0
2015-09-02 12:00:00,0.3620977699756622,0.09322990400736109,0
2015-09-03 00:00:00,0.288234531879425,0.12646215255805582,0
2015-09-03 12:00:00,0.2965486943721771,0.09727865669747449,0
2015-09-04 00:00:00,0.2643076479434967,0.16726425336533024,0
2015-09-04 12:00:00,0.3217167258262634,0.1585319614315448,0
2015-09-05 00:00:00,0.3568308055400848,0.1763303668361078,0
2015-09-05 12:00:00,0.2700205743312835,0.11875317555201759,0
2015-09-06 00:00:00,0.3014038205146789,0.08841237988596162,0
2015-09-06 12:00:00,0.3905621469020843,0.13090232444646865,0
2015-09-07 00:00:00,0.4645888209342956,0.1031662947551103,0
2015-09-07 12:00:00,0.4708959460258484,0.10461766384394677,0
2015-09-08 00:00:00,0.36709925532341,0.16968131675203602,0
2015-09-08 12:00:00,0.4167812466621399,0.11369295993454509,0
2015-09-09 00:00:00,0.3118477165699005,0.06622528075960865,0
2015-09-09 12:00:00,0.332522302865982,0.041112462604646516,0
2015-09-10 00:00:00,0.2319236397743225,0.08461864494639615,0
2015-09-10 12:00:00,0.2051226496696472,0.04017651563145064,0
2015-09-11 00:00:00,0.2352045625448227,0.12394606827506205,0
2015-09-11 12:00:00,0.4513379633426666,0.030286305543230307,0
2015-09-12 00:00:00,0.5589001774787903,0.8108952748926517,0
2015-09-12 12:00:00,0.5577958226203918,0.82585680374648,0
2015-09-13 00:00:00,0.5341859459877014,0.9025169184772361,0
2015-09-13 12:00:00,0.5146559476852417,0.8858592510024247,0
2015-09-14 00:00:00,0.5330835580825806,0.7999686283199265,0
2015-09-14 12:00:00,0.6182927489280701,0.7775575979774886,0
2015-09-15 00:00:00,0.5408948063850403,0.7671543920608306,0
2015-09-15 12:00:00,0.6147797107696533,0.7888414590080637,0
2015-09-16 00:00:00,0.4414368867874145,0.96083074188672,0
2015-09-16 12:00:00,0.439473420381546,0.770768987424679,1
2015-09-17 00:00:00,0.3671059906482696,0.9436733701668516,1
2015-09-17 12:00:00,0.4052523672580719,0.7454036154349908,0
2015-09-18 00:00:00,0.4219945967197418,0.9406580876547737,0
2015-09-18 12:00:00,0.408608078956604,0.9252594242705852,0
2015-09-19 00:00:00,0.4397338926792145,0.9453982993313973,0
2015-09-19 12:00:00,0.5712006092071533,0.9357909821492307,1
2015-09-20 00:00:00,0.5392135381698608,0.9398872378830675,1
2015-09-20 12:00:00,0.6751541495323181,0.9083262283312751,1
2015-09-21 00:00:00,0.6908617615699768,0.8629218148603938,0
2015-09-21 12:00:00,0.6874438524246216,0.8210140110311169,0
2015-09-22 00:00:00,0.6898726224899292,0.8583898959411925,0
2015-09-22 12:00:00,0.7848204374313354,0.8570502971625383,0
2015-09-23 00:00:00,0.8253154158592224,0.9455864819922466,0
2015-09-23 12:00:00,0.7938271164894104,0.9270665082446785,0
2015-09-24 00:00:00,0.7500998377799988,0.890696839426905,0
2015-09-24 12:00:00,0.6579450964927673,0.8655551486379636,0
2015-09-25 12:00:00,0.7692707180976868,0.9569493083671582,0
2015-09-26 00:00:00,0.8043531775474548,0.9597848386186051,0
2015-09-26 12:00:00,0.7786019444465637,0.9735408496770037,1
2015-09-27 00:00:00,0.7332804799079895,0.9718365676476136,1
2015-09-27 12:00:00,0.7792586088180542,0.9892460567838197,1
2015-09-28 00:00:00,0.7694087624549866,0.9962063466033384,1
2015-09-28 12:00:00,0.7656006217002869,0.9763615739900832,1
2015-09-29 00:00:00,0.7573934197425842,0.9829416898121738,1
2015-09-29 12:00:00,0.7852982878684998,0.9868777171522947,1
2015-09-30 00:00:00,0.6985113620758057,0.9792786049298778,1
2015-09-30 12:00:00,0.6645898818969727,0.9727327578468591,1
2017-07-01 12:00:00,0.1247943341732025,0.020636881781649574,0
2017-07-02 00:00:00,0.1093067750334739,0.032401718234304044,0
2017-07-02 12:00:00,0.0961485356092453,0.03882815335153167,0
2017-07-04 00:00:00,0.0912782847881317,0.030286305543230307,0
2017-07-04 12:00:00,0.0951829701662063,0.04017651563145064,0
2017-07-05 00:00:00,0.0935639441013336,0.030286305543230307,0
2017-07-05 12:00:00,0.0977940708398819,0.010199103245376762,0
2017-07-07 00:00:00,0.3672850131988525,0.010199103245376762,0
2017-07-07 12:00:00,0.4444300234317779,0.8442931827626149,0
2017-07-08 00:00:00,0.4607740938663482,0.8679347472706302,0
2017-07-08 12:00:00,0.5082589983940125,0.8712712359911521,1
2017-07-09 00:00:00,0.4787746071815491,0.8759547129808277,1
2017-07-09 12:00:00,0.4373254477977752,0.9448903946679811,0
2017-07-10 00:00:00,0.3812333345413208,0.93896350882817,0
2017-07-10 12:00:00,0.3148325383663177,0.9431004421125562,0
2017-07-11 00:00:00,0.2771943211555481,0.9234957275732618,0
2017-07-11 12:00:00,0.3283689618110657,0.9046326072131018,0
2017-07-12 00:00:00,0.4166273176670074,0.9184265904876477,0
2017-07-12 12:00:00,0.4367468059062958,0.9013050578909637,0
2017-07-13 12:00:00,0.5921483635902405,0.9194921529989221,1
2017-07-14 00:00:00,0.5007204413414001,0.9429455138291709,1
2017-07-14 12:00:00,0.531514585018158,0.9295947524661708,0
2017-07-15 00:00:00,0.5248801708221436,0.9404847471769882,0
2017-07-15 12:00:00,0.5630343556404114,0.9382270675843492,0
2017-07-16 00:00:00,0.452451080083847,0.9354399512260861,0
2017-07-16 12:00:00,0.4192265272140503,0.9290179423796946,0
2017-07-17 00:00:00,0.2749098837375641,0.9240340316119781,0
2017-07-17 12:00:00,0.1493670642375946,0.020294184783743674,0
2017-07-18 00:00:00,0.0989070981740951,0.020294184783743674,0
2017-07-18 12:00:00,0.0870839953422546,0.010199103245376762,0
2017-07-19 00:00:00,0.0887200385332107,0.010199103245376762,0
2017-07-19 12:00:00,0.0917024984955787,0.010199103245376762,0
2017-07-20 12:00:00,0.100049577653408,0.020294184783743674,0
2017-07-21 00:00:00,0.1003416031599044,0.037397040747689236,0
2017-07-21 12:00:00,0.1074040532112121,0.020294184783743674,0
2017-07-22 00:00:00,0.1060738712549209,0.020294184783743674,0
2017-07-22 12:00:00,0.1115878894925117,0.020294184783743674,0
2017-07-23 00:00:00,0.121935062110424,0.020294184783743674,0
2017-07-23 12:00:00,0.1403967887163162,0.030286305543230307,0
2017-07-24 00:00:00,0.1209392771124839,0.020294184783743674,0
2017-07-24 12:00:00,0.1234929040074348,0.020294184783743674,0
2017-07-25 00:00:00,0.1238681226968765,0.020294184783743674,0
2017-07-25 12:00:00,0.1671094298362732,0.020294184783743674,0
2017-07-26 00:00:00,0.1432971656322479,0.035119372557238626,0
2017-07-26 12:00:00,0.1315486431121826,0.03166759805024155,0
2017-07-27 00:00:00,0.1221780255436897,0.030286305543230307,0
2017-07-27 12:00:00,0.1228911653161048,0.030286305543230307,0
2017-07-28 00:00:00,0.1178901419043541,0.035319385985139506,0
2017-07-28 12:00:00,0.1146766170859336,0.010199103245376762,0
2017-07-29 00:00:00,0.1101893931627273,0.010199103245376762,0
2017-07-29 12:00:00,0.1283961534500122,0.020294184783743674,0
2017-07-30 00:00:00,0.1475742012262344,0.020294184783743674,0
2017-07-30 12:00:00,0.1378928869962692,0.030286305543230307,0
2017-07-31 00:00:00,0.1192789822816848,0.020294184783743674,0
2017-07-31 12:00:00,0.1040501594543457,0.011723639467651314,0
2017-08-01 00:00:00,0.0920243263244628,0.010199103245376762,0
2017-08-28 00:00:00,0.2263430804014206,0.13705595802303883,0
2017-08-28 12:00:00,0.1688605993986129,0.10333893621932422,0
2017-08-29 00:00:00,0.1833101958036422,0.23278619094612185,0
2017-08-29 12:00:00,0.3719348311424255,0.25604812509482344,0
2017-08-30 00:00:00,0.4458382725715637,0.2613839953539008,0
2017-08-31 00:00:00,0.6129018068313599,0.43652803577795973,0
2017-08-31 12:00:00,0.6309827566146851,0.3691356475902674,0
2017-09-01 00:00:00,0.6196421980857849,0.7259880970129744,0
2017-09-01 12:00:00,0.5339854955673218,0.7637806255905595,0
2017-09-02 00:00:00,0.4693194627761841,0.9189247080434998,0
2017-09-02 12:00:00,0.4441701471805572,0.910584629235526,0
2017-09-03 00:00:00,0.6399577260017395,0.9025328542069795,0
2017-09-03 12:00:00,0.7198116183280945,0.9131667151756527,1
2017-09-04 00:00:00,0.7901355028152466,0.9903034065219865,1
2017-09-04 12:00:00,0.8165146708488464,0.9908985177161365,1
2017-09-05 00:00:00,0.7568619251251221,0.9922410360712542,1
2017-09-05 12:00:00,0.7582750916481018,0.8180621655242973,1
2017-09-06 00:00:00,0.7290784120559692,0.9934441893159995,1
2017-09-06 12:00:00,0.794938325881958,0.24878890393710962,1
2017-09-07 00:00:00,0.8317007422447205,0.9931510778384509,1
2017-09-07 12:00:00,0.87428218126297,0.060481067913943365,1
2017-09-08 00:00:00,0.8776504993438721,0.9948260525634055,1
2017-09-08 12:00:00,0.8558492064476013,0.9959168103034218,1
2017-09-09 00:00:00,0.7529574036598206,0.9940820333433243,1
2017-09-09 12:00:00,0.5426040291786194,0.79875646348549,1
2017-09-10 00:00:00,0.3293114602565765,0.7247612979981197,1
2017-09-10 12:00:00,0.3028086125850677,0.6894936130163376,1
2017-09-11 00:00:00,0.3021358251571655,0.03349641114545654,0
2017-09-11 12:00:00,0.2407058328390121,0.056240816827882956,0
2017-09-12 00:00:00,0.2459116727113723,0.185378627887965,0
2017-09-12 12:00:00,0.3237598538398742,0.14985688484541404,0
2017-09-13 00:00:00,0.308268666267395,0.10800478437766059,0
2017-09-13 12:00:00,0.2050857245922088,0.10043023292662079,0
2017-09-14 00:00:00,0.1549409478902816,0.07928340919874965,0
2017-09-14 12:00:00,0.1277134120464325,0.0716802513245407,0
2017-09-15 00:00:00,0.1255452781915664,0.044211031718304095,0
2017-09-15 12:00:00,0.1292451918125152,0.05448780596241953,0
2017-09-16 00:00:00,0.1825708150863647,0.05216774119197387,0
2017-09-16 12:00:00,0.1390557140111923,0.06736218357823742,0
2017-09-17 00:00:00,0.1148006841540336,0.061611031005732175,0
2017-09-17 12:00:00,0.1187734827399253,0.05707179689007458,0
2017-09-18 00:00:00,0.1240286007523536,0.030286305543230307,0
2017-09-18 12:00:00,0.1483184546232223,0.030286305543230307,0
2017-09-19 00:00:00,0.1548013389110565,0.030286305543230307,0
2017-09-19 12:00:00,0.1646313220262527,0.04061276933587632,0
2017-09-20 00:00:00,0.1755128651857376,0.05383638151172765,0
2017-09-20 12:00:00,0.1351767778396606,0.052038336560890075,0
2017-09-21 00:00:00,0.1469027996063232,0.05253902856192538,0
2017-09-21 12:00:00,0.1470677256584167,0.041750815175897404,0
2017-09-22 00:00:00,0.1626300811767578,0.030286305543230307,0
2017-09-22 12:00:00,0.1595856249332428,0.1285215262848195,0
2017-09-23 00:00:00,0.1575934886932373,0.21963233071203392,0
2017-09-23 12:00:00,0.1721671968698501,0.18753704010510186,0
2017-09-24 00:00:00,0.1571664959192276,0.16673905757404062,0
2017-09-24 12:00:00,0.148947924375534,0.19780697262671953,0
2017-09-25 00:00:00,0.260296106338501,0.2782029166912787,0
2017-09-25 12:00:00,0.3428769111633301,0.21583935893015693,0
2017-09-26 00:00:00,0.409877061843872,0.6139624731373945,0
2017-09-26 12:00:00,0.425565242767334,0.7101653040704833,0
2017-09-27 00:00:00,0.4309464991092682,0.6534359211772325,0
2017-09-27 12:00:00,0.4715449810028076,0.6415231794884318,0
2017-09-28 00:00:00,0.4944903552532196,0.8488691516332059,0
2017-09-28 12:00:00,0.5286927819252014,0.817393728610677,0
2017-09-29 00:00:00,0.4701026380062103,0.831405719816265,0
2017-09-29 12:00:00,0.4567003846168518,0.7295694095361944,0
2017-09-30 00:00:00,0.4010060131549835,0.6776529434146539,0
2017-09-30 12:00:00,0.5058730840682983,0.6995819675113729,0
2018-07-10 12:00:00,0.1304124444723129,0.20226197725426442,0
2018-07-11 00:00:00,0.1567261815071106,0.24705504139467305,0
2018-07-11 12:00:00,0.1466927677392959,0.13942529261905834,0
2018-07-12 12:00:00,0.2135627120733261,0.14119400484610223,0
2018-07-13 00:00:00,0.1390065550804138,0.10365979753140808,0
2018-07-13 12:00:00,0.1713402867317199,0.1341242697130176,0
2018-07-14 00:00:00,0.1502261161804199,0.11402877777153475,0
2018-07-14 12:00:00,0.2073103338479995,0.07261093897524318,0
2018-07-15 00:00:00,0.1869799494743347,0.09765915256428903,0
2018-07-15 12:00:00,0.2096560895442962,0.10546582673946625,0
2018-07-16 00:00:00,0.1604771316051483,0.11867636357966482,0
2018-07-16 12:00:00,0.2070899903774261,0.12589260404616087,0
2018-07-17 00:00:00,0.1666834503412246,0.07545609959499178,0
2018-07-17 12:00:00,0.2015204429626464,0.23209337236876648,0
2018-07-18 00:00:00,0.1709175407886505,0.0893486248446328,0
2018-07-18 12:00:00,0.1186613887548446,0.1458375004808281,0
2018-07-19 00:00:00,0.0970479100942611,0.09389520337196988,0
2018-07-19 12:00:00,0.095174066722393,0.028995457688354098,0
2018-07-20 00:00:00,0.0875439345836639,0.012745785291745748,0
2018-07-21 00:00:00,0.0916659235954284,0.03220236509003538,0
2018-07-21 12:00:00,0.0926306545734405,0.020294184783743674,0
2018-07-22 00:00:00,0.0827734321355819,0.010199103245376762,0
2018-07-22 12:00:00,0.0826397985219955,0.010199103245376762,0
2018-07-23 00:00:00,0.0800032317638397,0.010199103245376762,0
2018-07-23 12:00:00,0.0809674486517906,0.010199103245376762,0
2018-07-24 00:00:00,0.0791599303483963,0.010199103245376762,0
2018-07-24 12:00:00,0.0798055753111839,0.010199103245376762,0
2018-07-31 00:00:00,0.0879881381988525,0.013272703933814856,0
2018-08-05 12:00:00,0.1163461655378341,0.010199103245376762,0
2018-08-06 00:00:00,0.116322323679924,0.02644788892807093,0
2018-08-06 12:00:00,0.1377902776002884,0.04688995539807983,0
2018-08-07 00:00:00,0.1615666896104812,0.03776343953448891,0
2018-08-07 12:00:00,0.1602498888969421,0.03188726315902668,0
2018-08-08 00:00:00,0.1307703852653503,0.030286305543230307,0
2018-08-08 12:00:00,0.1208688244223594,0.030286305543230307,0
2018-08-09 12:00:00,0.1219996064901351,0.020294184783743674,0
2018-08-10 00:00:00,0.1037995219230651,0.020294184783743674,0
2018-08-10 12:00:00,0.1153180003166198,0.020294184783743674,0
2018-08-11 00:00:00,0.1056707873940467,0.020294184783743674,0
2018-08-11 12:00:00,0.1166072785854339,0.020294184783743674,0
2018-08-12 00:00:00,0.1161228567361831,0.020294184783743674,0
2018-08-12 12:00:00,0.1042110323905944,0.020294184783743674,0
2018-08-13 00:00:00,0.0963307246565818,0.020294184783743674,0
2018-08-13 12:00:00,0.0978263318538665,0.020294184783743674,0
2018-08-14 00:00:00,0.090127907693386,0.010199103245376762,0
2018-08-14 12:00:00,0.1068197786808013,0.21834200146975247,0
2018-08-15 00:00:00,0.1016291007399559,0.029563867640504227,0
2018-08-15 12:00:00,0.1034803092479705,0.05656224134318222,0
2018-08-16 00:00:00,0.120085097849369,0.022735886593749033,0
2018-08-17 00:00:00,0.0950904488563537,0.023537875645913475,0
